ARM GAS  C:\Users\aupen\AppData\Local\Temp\ccT4drrU.s 			page 1


   1              		.syntax unified
   2              		.cpu cortex-m3
   3              		.fpu softvfp
   4              		.eabi_attribute 20, 1
   5              		.eabi_attribute 21, 1
   6              		.eabi_attribute 23, 3
   7              		.eabi_attribute 24, 1
   8              		.eabi_attribute 25, 1
   9              		.eabi_attribute 26, 1
  10              		.eabi_attribute 30, 4
  11              		.eabi_attribute 34, 1
  12              		.eabi_attribute 18, 4
  13              		.thumb
  14              		.syntax unified
  15              		.file	"ADC_SAR_IRQ.c"
  16              		.text
  17              	.Ltext0:
  18              		.cfi_sections	.debug_frame
  19              		.section	.text.ADC_SAR_IRQ_Interrupt,"ax",%progbits
  20              		.align	1
  21              		.global	ADC_SAR_IRQ_Interrupt
  22              		.thumb
  23              		.thumb_func
  24              		.type	ADC_SAR_IRQ_Interrupt, %function
  25              	ADC_SAR_IRQ_Interrupt:
  26              	.LFB3:
  27              		.file 1 "Generated_Source\\PSoC5\\ADC_SAR_IRQ.c"
   1:Generated_Source\PSoC5/ADC_SAR_IRQ.c **** /*******************************************************************************
   2:Generated_Source\PSoC5/ADC_SAR_IRQ.c **** * File Name: ADC_SAR_IRQ.c  
   3:Generated_Source\PSoC5/ADC_SAR_IRQ.c **** * Version 1.70
   4:Generated_Source\PSoC5/ADC_SAR_IRQ.c **** *
   5:Generated_Source\PSoC5/ADC_SAR_IRQ.c **** *  Description:
   6:Generated_Source\PSoC5/ADC_SAR_IRQ.c **** *   API for controlling the state of an interrupt.
   7:Generated_Source\PSoC5/ADC_SAR_IRQ.c **** *
   8:Generated_Source\PSoC5/ADC_SAR_IRQ.c **** *
   9:Generated_Source\PSoC5/ADC_SAR_IRQ.c **** *  Note:
  10:Generated_Source\PSoC5/ADC_SAR_IRQ.c **** *
  11:Generated_Source\PSoC5/ADC_SAR_IRQ.c **** ********************************************************************************
  12:Generated_Source\PSoC5/ADC_SAR_IRQ.c **** * Copyright 2008-2015, Cypress Semiconductor Corporation.  All rights reserved.
  13:Generated_Source\PSoC5/ADC_SAR_IRQ.c **** * You may use this file only in accordance with the license, terms, conditions, 
  14:Generated_Source\PSoC5/ADC_SAR_IRQ.c **** * disclaimers, and limitations in the end user license agreement accompanying 
  15:Generated_Source\PSoC5/ADC_SAR_IRQ.c **** * the software package with which this file was provided.
  16:Generated_Source\PSoC5/ADC_SAR_IRQ.c **** *******************************************************************************/
  17:Generated_Source\PSoC5/ADC_SAR_IRQ.c **** 
  18:Generated_Source\PSoC5/ADC_SAR_IRQ.c **** 
  19:Generated_Source\PSoC5/ADC_SAR_IRQ.c **** #include <cydevice_trm.h>
  20:Generated_Source\PSoC5/ADC_SAR_IRQ.c **** #include <CyLib.h>
  21:Generated_Source\PSoC5/ADC_SAR_IRQ.c **** #include <ADC_SAR_IRQ.h>
  22:Generated_Source\PSoC5/ADC_SAR_IRQ.c **** #include "cyapicallbacks.h"
  23:Generated_Source\PSoC5/ADC_SAR_IRQ.c **** 
  24:Generated_Source\PSoC5/ADC_SAR_IRQ.c **** #if !defined(ADC_SAR_IRQ__REMOVED) /* Check for removal by optimization */
  25:Generated_Source\PSoC5/ADC_SAR_IRQ.c **** 
  26:Generated_Source\PSoC5/ADC_SAR_IRQ.c **** /*******************************************************************************
  27:Generated_Source\PSoC5/ADC_SAR_IRQ.c **** *  Place your includes, defines and code here 
  28:Generated_Source\PSoC5/ADC_SAR_IRQ.c **** ********************************************************************************/
  29:Generated_Source\PSoC5/ADC_SAR_IRQ.c **** /* `#START ADC_SAR_IRQ_intc` */
  30:Generated_Source\PSoC5/ADC_SAR_IRQ.c **** 
ARM GAS  C:\Users\aupen\AppData\Local\Temp\ccT4drrU.s 			page 2


  31:Generated_Source\PSoC5/ADC_SAR_IRQ.c **** /* `#END` */
  32:Generated_Source\PSoC5/ADC_SAR_IRQ.c **** 
  33:Generated_Source\PSoC5/ADC_SAR_IRQ.c **** #ifndef CYINT_IRQ_BASE
  34:Generated_Source\PSoC5/ADC_SAR_IRQ.c **** #define CYINT_IRQ_BASE      16
  35:Generated_Source\PSoC5/ADC_SAR_IRQ.c **** #endif /* CYINT_IRQ_BASE */
  36:Generated_Source\PSoC5/ADC_SAR_IRQ.c **** #ifndef CYINT_VECT_TABLE
  37:Generated_Source\PSoC5/ADC_SAR_IRQ.c **** #define CYINT_VECT_TABLE    ((cyisraddress **) CYREG_NVIC_VECT_OFFSET)
  38:Generated_Source\PSoC5/ADC_SAR_IRQ.c **** #endif /* CYINT_VECT_TABLE */
  39:Generated_Source\PSoC5/ADC_SAR_IRQ.c **** 
  40:Generated_Source\PSoC5/ADC_SAR_IRQ.c **** /* Declared in startup, used to set unused interrupts to. */
  41:Generated_Source\PSoC5/ADC_SAR_IRQ.c **** CY_ISR_PROTO(IntDefaultHandler);
  42:Generated_Source\PSoC5/ADC_SAR_IRQ.c **** 
  43:Generated_Source\PSoC5/ADC_SAR_IRQ.c **** 
  44:Generated_Source\PSoC5/ADC_SAR_IRQ.c **** /*******************************************************************************
  45:Generated_Source\PSoC5/ADC_SAR_IRQ.c **** * Function Name: ADC_SAR_IRQ_Start
  46:Generated_Source\PSoC5/ADC_SAR_IRQ.c **** ********************************************************************************
  47:Generated_Source\PSoC5/ADC_SAR_IRQ.c **** *
  48:Generated_Source\PSoC5/ADC_SAR_IRQ.c **** * Summary:
  49:Generated_Source\PSoC5/ADC_SAR_IRQ.c **** *  Set up the interrupt and enable it. This function disables the interrupt, 
  50:Generated_Source\PSoC5/ADC_SAR_IRQ.c **** *  sets the default interrupt vector, sets the priority from the value in the
  51:Generated_Source\PSoC5/ADC_SAR_IRQ.c **** *  Design Wide Resources Interrupt Editor, then enables the interrupt to the 
  52:Generated_Source\PSoC5/ADC_SAR_IRQ.c **** *  interrupt controller.
  53:Generated_Source\PSoC5/ADC_SAR_IRQ.c **** *
  54:Generated_Source\PSoC5/ADC_SAR_IRQ.c **** * Parameters:  
  55:Generated_Source\PSoC5/ADC_SAR_IRQ.c **** *   None
  56:Generated_Source\PSoC5/ADC_SAR_IRQ.c **** *
  57:Generated_Source\PSoC5/ADC_SAR_IRQ.c **** * Return:
  58:Generated_Source\PSoC5/ADC_SAR_IRQ.c **** *   None
  59:Generated_Source\PSoC5/ADC_SAR_IRQ.c **** *
  60:Generated_Source\PSoC5/ADC_SAR_IRQ.c **** *******************************************************************************/
  61:Generated_Source\PSoC5/ADC_SAR_IRQ.c **** void ADC_SAR_IRQ_Start(void)
  62:Generated_Source\PSoC5/ADC_SAR_IRQ.c **** {
  63:Generated_Source\PSoC5/ADC_SAR_IRQ.c ****     /* For all we know the interrupt is active. */
  64:Generated_Source\PSoC5/ADC_SAR_IRQ.c ****     ADC_SAR_IRQ_Disable();
  65:Generated_Source\PSoC5/ADC_SAR_IRQ.c **** 
  66:Generated_Source\PSoC5/ADC_SAR_IRQ.c ****     /* Set the ISR to point to the ADC_SAR_IRQ Interrupt. */
  67:Generated_Source\PSoC5/ADC_SAR_IRQ.c ****     ADC_SAR_IRQ_SetVector(&ADC_SAR_IRQ_Interrupt);
  68:Generated_Source\PSoC5/ADC_SAR_IRQ.c **** 
  69:Generated_Source\PSoC5/ADC_SAR_IRQ.c ****     /* Set the priority. */
  70:Generated_Source\PSoC5/ADC_SAR_IRQ.c ****     ADC_SAR_IRQ_SetPriority((uint8)ADC_SAR_IRQ_INTC_PRIOR_NUMBER);
  71:Generated_Source\PSoC5/ADC_SAR_IRQ.c **** 
  72:Generated_Source\PSoC5/ADC_SAR_IRQ.c ****     /* Enable it. */
  73:Generated_Source\PSoC5/ADC_SAR_IRQ.c ****     ADC_SAR_IRQ_Enable();
  74:Generated_Source\PSoC5/ADC_SAR_IRQ.c **** }
  75:Generated_Source\PSoC5/ADC_SAR_IRQ.c **** 
  76:Generated_Source\PSoC5/ADC_SAR_IRQ.c **** 
  77:Generated_Source\PSoC5/ADC_SAR_IRQ.c **** /*******************************************************************************
  78:Generated_Source\PSoC5/ADC_SAR_IRQ.c **** * Function Name: ADC_SAR_IRQ_StartEx
  79:Generated_Source\PSoC5/ADC_SAR_IRQ.c **** ********************************************************************************
  80:Generated_Source\PSoC5/ADC_SAR_IRQ.c **** *
  81:Generated_Source\PSoC5/ADC_SAR_IRQ.c **** * Summary:
  82:Generated_Source\PSoC5/ADC_SAR_IRQ.c **** *  Sets up the interrupt and enables it. This function disables the interrupt,
  83:Generated_Source\PSoC5/ADC_SAR_IRQ.c **** *  sets the interrupt vector based on the address passed in, sets the priority 
  84:Generated_Source\PSoC5/ADC_SAR_IRQ.c **** *  from the value in the Design Wide Resources Interrupt Editor, then enables 
  85:Generated_Source\PSoC5/ADC_SAR_IRQ.c **** *  the interrupt to the interrupt controller.
  86:Generated_Source\PSoC5/ADC_SAR_IRQ.c **** *  
  87:Generated_Source\PSoC5/ADC_SAR_IRQ.c **** *  When defining ISR functions, the CY_ISR and CY_ISR_PROTO macros should be 
ARM GAS  C:\Users\aupen\AppData\Local\Temp\ccT4drrU.s 			page 3


  88:Generated_Source\PSoC5/ADC_SAR_IRQ.c **** *  used to provide consistent definition across compilers:
  89:Generated_Source\PSoC5/ADC_SAR_IRQ.c **** *  
  90:Generated_Source\PSoC5/ADC_SAR_IRQ.c **** *  Function definition example:
  91:Generated_Source\PSoC5/ADC_SAR_IRQ.c **** *   CY_ISR(MyISR)
  92:Generated_Source\PSoC5/ADC_SAR_IRQ.c **** *   {
  93:Generated_Source\PSoC5/ADC_SAR_IRQ.c **** *   }
  94:Generated_Source\PSoC5/ADC_SAR_IRQ.c **** *   Function prototype example:
  95:Generated_Source\PSoC5/ADC_SAR_IRQ.c **** *   CY_ISR_PROTO(MyISR);
  96:Generated_Source\PSoC5/ADC_SAR_IRQ.c **** *
  97:Generated_Source\PSoC5/ADC_SAR_IRQ.c **** * Parameters:  
  98:Generated_Source\PSoC5/ADC_SAR_IRQ.c **** *   address: Address of the ISR to set in the interrupt vector table.
  99:Generated_Source\PSoC5/ADC_SAR_IRQ.c **** *
 100:Generated_Source\PSoC5/ADC_SAR_IRQ.c **** * Return:
 101:Generated_Source\PSoC5/ADC_SAR_IRQ.c **** *   None
 102:Generated_Source\PSoC5/ADC_SAR_IRQ.c **** *
 103:Generated_Source\PSoC5/ADC_SAR_IRQ.c **** *******************************************************************************/
 104:Generated_Source\PSoC5/ADC_SAR_IRQ.c **** void ADC_SAR_IRQ_StartEx(cyisraddress address)
 105:Generated_Source\PSoC5/ADC_SAR_IRQ.c **** {
 106:Generated_Source\PSoC5/ADC_SAR_IRQ.c ****     /* For all we know the interrupt is active. */
 107:Generated_Source\PSoC5/ADC_SAR_IRQ.c ****     ADC_SAR_IRQ_Disable();
 108:Generated_Source\PSoC5/ADC_SAR_IRQ.c **** 
 109:Generated_Source\PSoC5/ADC_SAR_IRQ.c ****     /* Set the ISR to point to the ADC_SAR_IRQ Interrupt. */
 110:Generated_Source\PSoC5/ADC_SAR_IRQ.c ****     ADC_SAR_IRQ_SetVector(address);
 111:Generated_Source\PSoC5/ADC_SAR_IRQ.c **** 
 112:Generated_Source\PSoC5/ADC_SAR_IRQ.c ****     /* Set the priority. */
 113:Generated_Source\PSoC5/ADC_SAR_IRQ.c ****     ADC_SAR_IRQ_SetPriority((uint8)ADC_SAR_IRQ_INTC_PRIOR_NUMBER);
 114:Generated_Source\PSoC5/ADC_SAR_IRQ.c **** 
 115:Generated_Source\PSoC5/ADC_SAR_IRQ.c ****     /* Enable it. */
 116:Generated_Source\PSoC5/ADC_SAR_IRQ.c ****     ADC_SAR_IRQ_Enable();
 117:Generated_Source\PSoC5/ADC_SAR_IRQ.c **** }
 118:Generated_Source\PSoC5/ADC_SAR_IRQ.c **** 
 119:Generated_Source\PSoC5/ADC_SAR_IRQ.c **** 
 120:Generated_Source\PSoC5/ADC_SAR_IRQ.c **** /*******************************************************************************
 121:Generated_Source\PSoC5/ADC_SAR_IRQ.c **** * Function Name: ADC_SAR_IRQ_Stop
 122:Generated_Source\PSoC5/ADC_SAR_IRQ.c **** ********************************************************************************
 123:Generated_Source\PSoC5/ADC_SAR_IRQ.c **** *
 124:Generated_Source\PSoC5/ADC_SAR_IRQ.c **** * Summary:
 125:Generated_Source\PSoC5/ADC_SAR_IRQ.c **** *   Disables and removes the interrupt.
 126:Generated_Source\PSoC5/ADC_SAR_IRQ.c **** *
 127:Generated_Source\PSoC5/ADC_SAR_IRQ.c **** * Parameters:  
 128:Generated_Source\PSoC5/ADC_SAR_IRQ.c **** *   None
 129:Generated_Source\PSoC5/ADC_SAR_IRQ.c **** *
 130:Generated_Source\PSoC5/ADC_SAR_IRQ.c **** * Return:
 131:Generated_Source\PSoC5/ADC_SAR_IRQ.c **** *   None
 132:Generated_Source\PSoC5/ADC_SAR_IRQ.c **** *
 133:Generated_Source\PSoC5/ADC_SAR_IRQ.c **** *******************************************************************************/
 134:Generated_Source\PSoC5/ADC_SAR_IRQ.c **** void ADC_SAR_IRQ_Stop(void)
 135:Generated_Source\PSoC5/ADC_SAR_IRQ.c **** {
 136:Generated_Source\PSoC5/ADC_SAR_IRQ.c ****     /* Disable this interrupt. */
 137:Generated_Source\PSoC5/ADC_SAR_IRQ.c ****     ADC_SAR_IRQ_Disable();
 138:Generated_Source\PSoC5/ADC_SAR_IRQ.c **** 
 139:Generated_Source\PSoC5/ADC_SAR_IRQ.c ****     /* Set the ISR to point to the passive one. */
 140:Generated_Source\PSoC5/ADC_SAR_IRQ.c ****     ADC_SAR_IRQ_SetVector(&IntDefaultHandler);
 141:Generated_Source\PSoC5/ADC_SAR_IRQ.c **** }
 142:Generated_Source\PSoC5/ADC_SAR_IRQ.c **** 
 143:Generated_Source\PSoC5/ADC_SAR_IRQ.c **** 
 144:Generated_Source\PSoC5/ADC_SAR_IRQ.c **** /*******************************************************************************
ARM GAS  C:\Users\aupen\AppData\Local\Temp\ccT4drrU.s 			page 4


 145:Generated_Source\PSoC5/ADC_SAR_IRQ.c **** * Function Name: ADC_SAR_IRQ_Interrupt
 146:Generated_Source\PSoC5/ADC_SAR_IRQ.c **** ********************************************************************************
 147:Generated_Source\PSoC5/ADC_SAR_IRQ.c **** *
 148:Generated_Source\PSoC5/ADC_SAR_IRQ.c **** * Summary:
 149:Generated_Source\PSoC5/ADC_SAR_IRQ.c **** *   The default Interrupt Service Routine for ADC_SAR_IRQ.
 150:Generated_Source\PSoC5/ADC_SAR_IRQ.c **** *
 151:Generated_Source\PSoC5/ADC_SAR_IRQ.c **** *   Add custom code between the coments to keep the next version of this file
 152:Generated_Source\PSoC5/ADC_SAR_IRQ.c **** *   from over writting your code.
 153:Generated_Source\PSoC5/ADC_SAR_IRQ.c **** *
 154:Generated_Source\PSoC5/ADC_SAR_IRQ.c **** * Parameters:  
 155:Generated_Source\PSoC5/ADC_SAR_IRQ.c **** *
 156:Generated_Source\PSoC5/ADC_SAR_IRQ.c **** * Return:
 157:Generated_Source\PSoC5/ADC_SAR_IRQ.c **** *   None
 158:Generated_Source\PSoC5/ADC_SAR_IRQ.c **** *
 159:Generated_Source\PSoC5/ADC_SAR_IRQ.c **** *******************************************************************************/
 160:Generated_Source\PSoC5/ADC_SAR_IRQ.c **** CY_ISR(ADC_SAR_IRQ_Interrupt)
 161:Generated_Source\PSoC5/ADC_SAR_IRQ.c **** {
  28              		.loc 1 161 0
  29              		.cfi_startproc
  30              		@ args = 0, pretend = 0, frame = 0
  31              		@ frame_needed = 0, uses_anonymous_args = 0
  32              		@ link register save eliminated.
  33 0000 7047     		bx	lr
  34              		.cfi_endproc
  35              	.LFE3:
  36              		.size	ADC_SAR_IRQ_Interrupt, .-ADC_SAR_IRQ_Interrupt
  37              		.section	.text.ADC_SAR_IRQ_Start,"ax",%progbits
  38              		.align	1
  39              		.global	ADC_SAR_IRQ_Start
  40              		.thumb
  41              		.thumb_func
  42              		.type	ADC_SAR_IRQ_Start, %function
  43              	ADC_SAR_IRQ_Start:
  44              	.LFB0:
  62:Generated_Source\PSoC5/ADC_SAR_IRQ.c ****     /* For all we know the interrupt is active. */
  45              		.loc 1 62 0
  46              		.cfi_startproc
  47              		@ args = 0, pretend = 0, frame = 0
  48              		@ frame_needed = 0, uses_anonymous_args = 0
  49              		@ link register save eliminated.
  50              	.LBB22:
  51              	.LBB23:
 162:Generated_Source\PSoC5/ADC_SAR_IRQ.c ****     #ifdef ADC_SAR_IRQ_INTERRUPT_INTERRUPT_CALLBACK
 163:Generated_Source\PSoC5/ADC_SAR_IRQ.c ****         ADC_SAR_IRQ_Interrupt_InterruptCallback();
 164:Generated_Source\PSoC5/ADC_SAR_IRQ.c ****     #endif /* ADC_SAR_IRQ_INTERRUPT_INTERRUPT_CALLBACK */ 
 165:Generated_Source\PSoC5/ADC_SAR_IRQ.c **** 
 166:Generated_Source\PSoC5/ADC_SAR_IRQ.c ****     /*  Place your Interrupt code here. */
 167:Generated_Source\PSoC5/ADC_SAR_IRQ.c ****     /* `#START ADC_SAR_IRQ_Interrupt` */
 168:Generated_Source\PSoC5/ADC_SAR_IRQ.c **** 
 169:Generated_Source\PSoC5/ADC_SAR_IRQ.c ****     /* `#END` */
 170:Generated_Source\PSoC5/ADC_SAR_IRQ.c **** }
 171:Generated_Source\PSoC5/ADC_SAR_IRQ.c **** 
 172:Generated_Source\PSoC5/ADC_SAR_IRQ.c **** 
 173:Generated_Source\PSoC5/ADC_SAR_IRQ.c **** /*******************************************************************************
 174:Generated_Source\PSoC5/ADC_SAR_IRQ.c **** * Function Name: ADC_SAR_IRQ_SetVector
 175:Generated_Source\PSoC5/ADC_SAR_IRQ.c **** ********************************************************************************
 176:Generated_Source\PSoC5/ADC_SAR_IRQ.c **** *
ARM GAS  C:\Users\aupen\AppData\Local\Temp\ccT4drrU.s 			page 5


 177:Generated_Source\PSoC5/ADC_SAR_IRQ.c **** * Summary:
 178:Generated_Source\PSoC5/ADC_SAR_IRQ.c **** *   Change the ISR vector for the Interrupt. Note calling ADC_SAR_IRQ_Start
 179:Generated_Source\PSoC5/ADC_SAR_IRQ.c **** *   will override any effect this method would have had. To set the vector 
 180:Generated_Source\PSoC5/ADC_SAR_IRQ.c **** *   before the component has been started use ADC_SAR_IRQ_StartEx instead.
 181:Generated_Source\PSoC5/ADC_SAR_IRQ.c **** * 
 182:Generated_Source\PSoC5/ADC_SAR_IRQ.c **** *   When defining ISR functions, the CY_ISR and CY_ISR_PROTO macros should be 
 183:Generated_Source\PSoC5/ADC_SAR_IRQ.c **** *   used to provide consistent definition across compilers:
 184:Generated_Source\PSoC5/ADC_SAR_IRQ.c **** *
 185:Generated_Source\PSoC5/ADC_SAR_IRQ.c **** *   Function definition example:
 186:Generated_Source\PSoC5/ADC_SAR_IRQ.c **** *   CY_ISR(MyISR)
 187:Generated_Source\PSoC5/ADC_SAR_IRQ.c **** *   {
 188:Generated_Source\PSoC5/ADC_SAR_IRQ.c **** *   }
 189:Generated_Source\PSoC5/ADC_SAR_IRQ.c **** *
 190:Generated_Source\PSoC5/ADC_SAR_IRQ.c **** *   Function prototype example:
 191:Generated_Source\PSoC5/ADC_SAR_IRQ.c **** *     CY_ISR_PROTO(MyISR);
 192:Generated_Source\PSoC5/ADC_SAR_IRQ.c **** *
 193:Generated_Source\PSoC5/ADC_SAR_IRQ.c **** * Parameters:
 194:Generated_Source\PSoC5/ADC_SAR_IRQ.c **** *   address: Address of the ISR to set in the interrupt vector table.
 195:Generated_Source\PSoC5/ADC_SAR_IRQ.c **** *
 196:Generated_Source\PSoC5/ADC_SAR_IRQ.c **** * Return:
 197:Generated_Source\PSoC5/ADC_SAR_IRQ.c **** *   None
 198:Generated_Source\PSoC5/ADC_SAR_IRQ.c **** *
 199:Generated_Source\PSoC5/ADC_SAR_IRQ.c **** *******************************************************************************/
 200:Generated_Source\PSoC5/ADC_SAR_IRQ.c **** void ADC_SAR_IRQ_SetVector(cyisraddress address)
 201:Generated_Source\PSoC5/ADC_SAR_IRQ.c **** {
 202:Generated_Source\PSoC5/ADC_SAR_IRQ.c ****     cyisraddress * ramVectorTable;
 203:Generated_Source\PSoC5/ADC_SAR_IRQ.c **** 
 204:Generated_Source\PSoC5/ADC_SAR_IRQ.c ****     ramVectorTable = (cyisraddress *) *CYINT_VECT_TABLE;
 205:Generated_Source\PSoC5/ADC_SAR_IRQ.c **** 
 206:Generated_Source\PSoC5/ADC_SAR_IRQ.c ****     ramVectorTable[CYINT_IRQ_BASE + (uint32)ADC_SAR_IRQ__INTC_NUMBER] = address;
 207:Generated_Source\PSoC5/ADC_SAR_IRQ.c **** }
 208:Generated_Source\PSoC5/ADC_SAR_IRQ.c **** 
 209:Generated_Source\PSoC5/ADC_SAR_IRQ.c **** 
 210:Generated_Source\PSoC5/ADC_SAR_IRQ.c **** /*******************************************************************************
 211:Generated_Source\PSoC5/ADC_SAR_IRQ.c **** * Function Name: ADC_SAR_IRQ_GetVector
 212:Generated_Source\PSoC5/ADC_SAR_IRQ.c **** ********************************************************************************
 213:Generated_Source\PSoC5/ADC_SAR_IRQ.c **** *
 214:Generated_Source\PSoC5/ADC_SAR_IRQ.c **** * Summary:
 215:Generated_Source\PSoC5/ADC_SAR_IRQ.c **** *   Gets the "address" of the current ISR vector for the Interrupt.
 216:Generated_Source\PSoC5/ADC_SAR_IRQ.c **** *
 217:Generated_Source\PSoC5/ADC_SAR_IRQ.c **** * Parameters:
 218:Generated_Source\PSoC5/ADC_SAR_IRQ.c **** *   None
 219:Generated_Source\PSoC5/ADC_SAR_IRQ.c **** *
 220:Generated_Source\PSoC5/ADC_SAR_IRQ.c **** * Return:
 221:Generated_Source\PSoC5/ADC_SAR_IRQ.c **** *   Address of the ISR in the interrupt vector table.
 222:Generated_Source\PSoC5/ADC_SAR_IRQ.c **** *
 223:Generated_Source\PSoC5/ADC_SAR_IRQ.c **** *******************************************************************************/
 224:Generated_Source\PSoC5/ADC_SAR_IRQ.c **** cyisraddress ADC_SAR_IRQ_GetVector(void)
 225:Generated_Source\PSoC5/ADC_SAR_IRQ.c **** {
 226:Generated_Source\PSoC5/ADC_SAR_IRQ.c ****     cyisraddress * ramVectorTable;
 227:Generated_Source\PSoC5/ADC_SAR_IRQ.c **** 
 228:Generated_Source\PSoC5/ADC_SAR_IRQ.c ****     ramVectorTable = (cyisraddress *) *CYINT_VECT_TABLE;
 229:Generated_Source\PSoC5/ADC_SAR_IRQ.c **** 
 230:Generated_Source\PSoC5/ADC_SAR_IRQ.c ****     return ramVectorTable[CYINT_IRQ_BASE + (uint32)ADC_SAR_IRQ__INTC_NUMBER];
 231:Generated_Source\PSoC5/ADC_SAR_IRQ.c **** }
 232:Generated_Source\PSoC5/ADC_SAR_IRQ.c **** 
 233:Generated_Source\PSoC5/ADC_SAR_IRQ.c **** 
ARM GAS  C:\Users\aupen\AppData\Local\Temp\ccT4drrU.s 			page 6


 234:Generated_Source\PSoC5/ADC_SAR_IRQ.c **** /*******************************************************************************
 235:Generated_Source\PSoC5/ADC_SAR_IRQ.c **** * Function Name: ADC_SAR_IRQ_SetPriority
 236:Generated_Source\PSoC5/ADC_SAR_IRQ.c **** ********************************************************************************
 237:Generated_Source\PSoC5/ADC_SAR_IRQ.c **** *
 238:Generated_Source\PSoC5/ADC_SAR_IRQ.c **** * Summary:
 239:Generated_Source\PSoC5/ADC_SAR_IRQ.c **** *   Sets the Priority of the Interrupt. 
 240:Generated_Source\PSoC5/ADC_SAR_IRQ.c **** *
 241:Generated_Source\PSoC5/ADC_SAR_IRQ.c **** *   Note calling ADC_SAR_IRQ_Start or ADC_SAR_IRQ_StartEx will 
 242:Generated_Source\PSoC5/ADC_SAR_IRQ.c **** *   override any effect this API would have had. This API should only be called
 243:Generated_Source\PSoC5/ADC_SAR_IRQ.c **** *   after ADC_SAR_IRQ_Start or ADC_SAR_IRQ_StartEx has been called. 
 244:Generated_Source\PSoC5/ADC_SAR_IRQ.c **** *   To set the initial priority for the component, use the Design-Wide Resources
 245:Generated_Source\PSoC5/ADC_SAR_IRQ.c **** *   Interrupt Editor.
 246:Generated_Source\PSoC5/ADC_SAR_IRQ.c **** *
 247:Generated_Source\PSoC5/ADC_SAR_IRQ.c **** *   Note This API has no effect on Non-maskable interrupt NMI).
 248:Generated_Source\PSoC5/ADC_SAR_IRQ.c **** *
 249:Generated_Source\PSoC5/ADC_SAR_IRQ.c **** * Parameters:
 250:Generated_Source\PSoC5/ADC_SAR_IRQ.c **** *   priority: Priority of the interrupt, 0 being the highest priority
 251:Generated_Source\PSoC5/ADC_SAR_IRQ.c **** *             PSoC 3 and PSoC 5LP: Priority is from 0 to 7.
 252:Generated_Source\PSoC5/ADC_SAR_IRQ.c **** *             PSoC 4: Priority is from 0 to 3.
 253:Generated_Source\PSoC5/ADC_SAR_IRQ.c **** *
 254:Generated_Source\PSoC5/ADC_SAR_IRQ.c **** * Return:
 255:Generated_Source\PSoC5/ADC_SAR_IRQ.c **** *   None
 256:Generated_Source\PSoC5/ADC_SAR_IRQ.c **** *
 257:Generated_Source\PSoC5/ADC_SAR_IRQ.c **** *******************************************************************************/
 258:Generated_Source\PSoC5/ADC_SAR_IRQ.c **** void ADC_SAR_IRQ_SetPriority(uint8 priority)
 259:Generated_Source\PSoC5/ADC_SAR_IRQ.c **** {
 260:Generated_Source\PSoC5/ADC_SAR_IRQ.c ****     *ADC_SAR_IRQ_INTC_PRIOR = priority << 5;
 261:Generated_Source\PSoC5/ADC_SAR_IRQ.c **** }
 262:Generated_Source\PSoC5/ADC_SAR_IRQ.c **** 
 263:Generated_Source\PSoC5/ADC_SAR_IRQ.c **** 
 264:Generated_Source\PSoC5/ADC_SAR_IRQ.c **** /*******************************************************************************
 265:Generated_Source\PSoC5/ADC_SAR_IRQ.c **** * Function Name: ADC_SAR_IRQ_GetPriority
 266:Generated_Source\PSoC5/ADC_SAR_IRQ.c **** ********************************************************************************
 267:Generated_Source\PSoC5/ADC_SAR_IRQ.c **** *
 268:Generated_Source\PSoC5/ADC_SAR_IRQ.c **** * Summary:
 269:Generated_Source\PSoC5/ADC_SAR_IRQ.c **** *   Gets the Priority of the Interrupt.
 270:Generated_Source\PSoC5/ADC_SAR_IRQ.c **** *
 271:Generated_Source\PSoC5/ADC_SAR_IRQ.c **** * Parameters:
 272:Generated_Source\PSoC5/ADC_SAR_IRQ.c **** *   None
 273:Generated_Source\PSoC5/ADC_SAR_IRQ.c **** *
 274:Generated_Source\PSoC5/ADC_SAR_IRQ.c **** * Return:
 275:Generated_Source\PSoC5/ADC_SAR_IRQ.c **** *   Priority of the interrupt, 0 being the highest priority
 276:Generated_Source\PSoC5/ADC_SAR_IRQ.c **** *    PSoC 3 and PSoC 5LP: Priority is from 0 to 7.
 277:Generated_Source\PSoC5/ADC_SAR_IRQ.c **** *    PSoC 4: Priority is from 0 to 3.
 278:Generated_Source\PSoC5/ADC_SAR_IRQ.c **** *
 279:Generated_Source\PSoC5/ADC_SAR_IRQ.c **** *******************************************************************************/
 280:Generated_Source\PSoC5/ADC_SAR_IRQ.c **** uint8 ADC_SAR_IRQ_GetPriority(void)
 281:Generated_Source\PSoC5/ADC_SAR_IRQ.c **** {
 282:Generated_Source\PSoC5/ADC_SAR_IRQ.c ****     uint8 priority;
 283:Generated_Source\PSoC5/ADC_SAR_IRQ.c **** 
 284:Generated_Source\PSoC5/ADC_SAR_IRQ.c **** 
 285:Generated_Source\PSoC5/ADC_SAR_IRQ.c ****     priority = *ADC_SAR_IRQ_INTC_PRIOR >> 5;
 286:Generated_Source\PSoC5/ADC_SAR_IRQ.c **** 
 287:Generated_Source\PSoC5/ADC_SAR_IRQ.c ****     return priority;
 288:Generated_Source\PSoC5/ADC_SAR_IRQ.c **** }
 289:Generated_Source\PSoC5/ADC_SAR_IRQ.c **** 
 290:Generated_Source\PSoC5/ADC_SAR_IRQ.c **** 
ARM GAS  C:\Users\aupen\AppData\Local\Temp\ccT4drrU.s 			page 7


 291:Generated_Source\PSoC5/ADC_SAR_IRQ.c **** /*******************************************************************************
 292:Generated_Source\PSoC5/ADC_SAR_IRQ.c **** * Function Name: ADC_SAR_IRQ_Enable
 293:Generated_Source\PSoC5/ADC_SAR_IRQ.c **** ********************************************************************************
 294:Generated_Source\PSoC5/ADC_SAR_IRQ.c **** *
 295:Generated_Source\PSoC5/ADC_SAR_IRQ.c **** * Summary:
 296:Generated_Source\PSoC5/ADC_SAR_IRQ.c **** *   Enables the interrupt to the interrupt controller. Do not call this function
 297:Generated_Source\PSoC5/ADC_SAR_IRQ.c **** *   unless ISR_Start() has been called or the functionality of the ISR_Start() 
 298:Generated_Source\PSoC5/ADC_SAR_IRQ.c **** *   function, which sets the vector and the priority, has been called.
 299:Generated_Source\PSoC5/ADC_SAR_IRQ.c **** *
 300:Generated_Source\PSoC5/ADC_SAR_IRQ.c **** * Parameters:
 301:Generated_Source\PSoC5/ADC_SAR_IRQ.c **** *   None
 302:Generated_Source\PSoC5/ADC_SAR_IRQ.c **** *
 303:Generated_Source\PSoC5/ADC_SAR_IRQ.c **** * Return:
 304:Generated_Source\PSoC5/ADC_SAR_IRQ.c **** *   None
 305:Generated_Source\PSoC5/ADC_SAR_IRQ.c **** *
 306:Generated_Source\PSoC5/ADC_SAR_IRQ.c **** *******************************************************************************/
 307:Generated_Source\PSoC5/ADC_SAR_IRQ.c **** void ADC_SAR_IRQ_Enable(void)
 308:Generated_Source\PSoC5/ADC_SAR_IRQ.c **** {
 309:Generated_Source\PSoC5/ADC_SAR_IRQ.c ****     /* Enable the general interrupt. */
 310:Generated_Source\PSoC5/ADC_SAR_IRQ.c ****     *ADC_SAR_IRQ_INTC_SET_EN = ADC_SAR_IRQ__INTC_MASK;
 311:Generated_Source\PSoC5/ADC_SAR_IRQ.c **** }
 312:Generated_Source\PSoC5/ADC_SAR_IRQ.c **** 
 313:Generated_Source\PSoC5/ADC_SAR_IRQ.c **** 
 314:Generated_Source\PSoC5/ADC_SAR_IRQ.c **** /*******************************************************************************
 315:Generated_Source\PSoC5/ADC_SAR_IRQ.c **** * Function Name: ADC_SAR_IRQ_GetState
 316:Generated_Source\PSoC5/ADC_SAR_IRQ.c **** ********************************************************************************
 317:Generated_Source\PSoC5/ADC_SAR_IRQ.c **** *
 318:Generated_Source\PSoC5/ADC_SAR_IRQ.c **** * Summary:
 319:Generated_Source\PSoC5/ADC_SAR_IRQ.c **** *   Gets the state (enabled, disabled) of the Interrupt.
 320:Generated_Source\PSoC5/ADC_SAR_IRQ.c **** *
 321:Generated_Source\PSoC5/ADC_SAR_IRQ.c **** * Parameters:
 322:Generated_Source\PSoC5/ADC_SAR_IRQ.c **** *   None
 323:Generated_Source\PSoC5/ADC_SAR_IRQ.c **** *
 324:Generated_Source\PSoC5/ADC_SAR_IRQ.c **** * Return:
 325:Generated_Source\PSoC5/ADC_SAR_IRQ.c **** *   1 if enabled, 0 if disabled.
 326:Generated_Source\PSoC5/ADC_SAR_IRQ.c **** *
 327:Generated_Source\PSoC5/ADC_SAR_IRQ.c **** *******************************************************************************/
 328:Generated_Source\PSoC5/ADC_SAR_IRQ.c **** uint8 ADC_SAR_IRQ_GetState(void)
 329:Generated_Source\PSoC5/ADC_SAR_IRQ.c **** {
 330:Generated_Source\PSoC5/ADC_SAR_IRQ.c ****     /* Get the state of the general interrupt. */
 331:Generated_Source\PSoC5/ADC_SAR_IRQ.c ****     return ((*ADC_SAR_IRQ_INTC_SET_EN & (uint32)ADC_SAR_IRQ__INTC_MASK) != 0u) ? 1u:0u;
 332:Generated_Source\PSoC5/ADC_SAR_IRQ.c **** }
 333:Generated_Source\PSoC5/ADC_SAR_IRQ.c **** 
 334:Generated_Source\PSoC5/ADC_SAR_IRQ.c **** 
 335:Generated_Source\PSoC5/ADC_SAR_IRQ.c **** /*******************************************************************************
 336:Generated_Source\PSoC5/ADC_SAR_IRQ.c **** * Function Name: ADC_SAR_IRQ_Disable
 337:Generated_Source\PSoC5/ADC_SAR_IRQ.c **** ********************************************************************************
 338:Generated_Source\PSoC5/ADC_SAR_IRQ.c **** *
 339:Generated_Source\PSoC5/ADC_SAR_IRQ.c **** * Summary:
 340:Generated_Source\PSoC5/ADC_SAR_IRQ.c **** *   Disables the Interrupt in the interrupt controller.
 341:Generated_Source\PSoC5/ADC_SAR_IRQ.c **** *
 342:Generated_Source\PSoC5/ADC_SAR_IRQ.c **** * Parameters:
 343:Generated_Source\PSoC5/ADC_SAR_IRQ.c **** *   None
 344:Generated_Source\PSoC5/ADC_SAR_IRQ.c **** *
 345:Generated_Source\PSoC5/ADC_SAR_IRQ.c **** * Return:
 346:Generated_Source\PSoC5/ADC_SAR_IRQ.c **** *   None
 347:Generated_Source\PSoC5/ADC_SAR_IRQ.c **** *
ARM GAS  C:\Users\aupen\AppData\Local\Temp\ccT4drrU.s 			page 8


 348:Generated_Source\PSoC5/ADC_SAR_IRQ.c **** *******************************************************************************/
 349:Generated_Source\PSoC5/ADC_SAR_IRQ.c **** void ADC_SAR_IRQ_Disable(void)
 350:Generated_Source\PSoC5/ADC_SAR_IRQ.c **** {
 351:Generated_Source\PSoC5/ADC_SAR_IRQ.c ****     /* Disable the general interrupt. */
 352:Generated_Source\PSoC5/ADC_SAR_IRQ.c ****     *ADC_SAR_IRQ_INTC_CLR_EN = ADC_SAR_IRQ__INTC_MASK;
  52              		.loc 1 352 0
  53 0000 074A     		ldr	r2, .L3
  54 0002 0123     		movs	r3, #1
  55 0004 1360     		str	r3, [r2]
  56              	.LVL0:
  57              	.LBE23:
  58              	.LBE22:
  59              	.LBB24:
  60              	.LBB25:
 204:Generated_Source\PSoC5/ADC_SAR_IRQ.c **** 
  61              		.loc 1 204 0
  62 0006 02F68832 		addw	r2, r2, #2952
  63 000a 1268     		ldr	r2, [r2]
  64              	.LVL1:
 206:Generated_Source\PSoC5/ADC_SAR_IRQ.c **** }
  65              		.loc 1 206 0
  66 000c 0549     		ldr	r1, .L3+4
  67 000e 1164     		str	r1, [r2, #64]
  68              	.LVL2:
  69              	.LBE25:
  70              	.LBE24:
  71              	.LBB26:
  72              	.LBB27:
 260:Generated_Source\PSoC5/ADC_SAR_IRQ.c **** }
  73              		.loc 1 260 0
  74 0010 054A     		ldr	r2, .L3+8
  75 0012 E021     		movs	r1, #224
  76 0014 1170     		strb	r1, [r2]
  77              	.LVL3:
  78              	.LBE27:
  79              	.LBE26:
  80              	.LBB28:
  81              	.LBB29:
 310:Generated_Source\PSoC5/ADC_SAR_IRQ.c **** }
  82              		.loc 1 310 0
  83 0016 A2F54072 		sub	r2, r2, #768
  84 001a 1360     		str	r3, [r2]
  85 001c 7047     		bx	lr
  86              	.L4:
  87 001e 00BF     		.align	2
  88              	.L3:
  89 0020 80E100E0 		.word	-536813184
  90 0024 00000000 		.word	ADC_SAR_IRQ_Interrupt
  91 0028 00E400E0 		.word	-536812544
  92              	.LBE29:
  93              	.LBE28:
  94              		.cfi_endproc
  95              	.LFE0:
  96              		.size	ADC_SAR_IRQ_Start, .-ADC_SAR_IRQ_Start
  97              		.section	.text.ADC_SAR_IRQ_StartEx,"ax",%progbits
  98              		.align	1
  99              		.global	ADC_SAR_IRQ_StartEx
ARM GAS  C:\Users\aupen\AppData\Local\Temp\ccT4drrU.s 			page 9


 100              		.thumb
 101              		.thumb_func
 102              		.type	ADC_SAR_IRQ_StartEx, %function
 103              	ADC_SAR_IRQ_StartEx:
 104              	.LFB1:
 105:Generated_Source\PSoC5/ADC_SAR_IRQ.c ****     /* For all we know the interrupt is active. */
 105              		.loc 1 105 0
 106              		.cfi_startproc
 107              		@ args = 0, pretend = 0, frame = 0
 108              		@ frame_needed = 0, uses_anonymous_args = 0
 109              		@ link register save eliminated.
 110              	.LVL4:
 111              	.LBB30:
 112              	.LBB31:
 113              		.loc 1 352 0
 114 0000 064A     		ldr	r2, .L6
 115 0002 0123     		movs	r3, #1
 116 0004 1360     		str	r3, [r2]
 117              	.LVL5:
 118              	.LBE31:
 119              	.LBE30:
 120              	.LBB32:
 121              	.LBB33:
 204:Generated_Source\PSoC5/ADC_SAR_IRQ.c **** 
 122              		.loc 1 204 0
 123 0006 02F68832 		addw	r2, r2, #2952
 124 000a 1268     		ldr	r2, [r2]
 125              	.LVL6:
 126              	.LBE33:
 127              	.LBE32:
 128              	.LBB35:
 129              	.LBB36:
 260:Generated_Source\PSoC5/ADC_SAR_IRQ.c **** }
 130              		.loc 1 260 0
 131 000c E021     		movs	r1, #224
 132              	.LBE36:
 133              	.LBE35:
 134              	.LBB38:
 135              	.LBB34:
 206:Generated_Source\PSoC5/ADC_SAR_IRQ.c **** }
 136              		.loc 1 206 0
 137 000e 1064     		str	r0, [r2, #64]
 138              	.LVL7:
 139              	.LBE34:
 140              	.LBE38:
 141              	.LBB39:
 142              	.LBB37:
 260:Generated_Source\PSoC5/ADC_SAR_IRQ.c **** }
 143              		.loc 1 260 0
 144 0010 034A     		ldr	r2, .L6+4
 145 0012 1170     		strb	r1, [r2]
 146              	.LVL8:
 147              	.LBE37:
 148              	.LBE39:
 149              	.LBB40:
 150              	.LBB41:
 310:Generated_Source\PSoC5/ADC_SAR_IRQ.c **** }
ARM GAS  C:\Users\aupen\AppData\Local\Temp\ccT4drrU.s 			page 10


 151              		.loc 1 310 0
 152 0014 A2F54072 		sub	r2, r2, #768
 153 0018 1360     		str	r3, [r2]
 154 001a 7047     		bx	lr
 155              	.L7:
 156              		.align	2
 157              	.L6:
 158 001c 80E100E0 		.word	-536813184
 159 0020 00E400E0 		.word	-536812544
 160              	.LBE41:
 161              	.LBE40:
 162              		.cfi_endproc
 163              	.LFE1:
 164              		.size	ADC_SAR_IRQ_StartEx, .-ADC_SAR_IRQ_StartEx
 165              		.section	.text.ADC_SAR_IRQ_Stop,"ax",%progbits
 166              		.align	1
 167              		.global	ADC_SAR_IRQ_Stop
 168              		.thumb
 169              		.thumb_func
 170              		.type	ADC_SAR_IRQ_Stop, %function
 171              	ADC_SAR_IRQ_Stop:
 172              	.LFB2:
 135:Generated_Source\PSoC5/ADC_SAR_IRQ.c ****     /* Disable this interrupt. */
 173              		.loc 1 135 0
 174              		.cfi_startproc
 175              		@ args = 0, pretend = 0, frame = 0
 176              		@ frame_needed = 0, uses_anonymous_args = 0
 177              		@ link register save eliminated.
 178              	.LBB42:
 179              	.LBB43:
 180              		.loc 1 352 0
 181 0000 044B     		ldr	r3, .L9
 182 0002 0122     		movs	r2, #1
 183 0004 1A60     		str	r2, [r3]
 184              	.LVL9:
 185              	.LBE43:
 186              	.LBE42:
 187              	.LBB44:
 188              	.LBB45:
 204:Generated_Source\PSoC5/ADC_SAR_IRQ.c **** 
 189              		.loc 1 204 0
 190 0006 03F68833 		addw	r3, r3, #2952
 191 000a 1B68     		ldr	r3, [r3]
 192              	.LVL10:
 206:Generated_Source\PSoC5/ADC_SAR_IRQ.c **** }
 193              		.loc 1 206 0
 194 000c 024A     		ldr	r2, .L9+4
 195 000e 1A64     		str	r2, [r3, #64]
 196              	.LVL11:
 197 0010 7047     		bx	lr
 198              	.L10:
 199 0012 00BF     		.align	2
 200              	.L9:
 201 0014 80E100E0 		.word	-536813184
 202 0018 00000000 		.word	IntDefaultHandler
 203              	.LBE45:
 204              	.LBE44:
ARM GAS  C:\Users\aupen\AppData\Local\Temp\ccT4drrU.s 			page 11


 205              		.cfi_endproc
 206              	.LFE2:
 207              		.size	ADC_SAR_IRQ_Stop, .-ADC_SAR_IRQ_Stop
 208              		.section	.text.ADC_SAR_IRQ_SetVector,"ax",%progbits
 209              		.align	1
 210              		.global	ADC_SAR_IRQ_SetVector
 211              		.thumb
 212              		.thumb_func
 213              		.type	ADC_SAR_IRQ_SetVector, %function
 214              	ADC_SAR_IRQ_SetVector:
 215              	.LFB4:
 201:Generated_Source\PSoC5/ADC_SAR_IRQ.c ****     cyisraddress * ramVectorTable;
 216              		.loc 1 201 0
 217              		.cfi_startproc
 218              		@ args = 0, pretend = 0, frame = 0
 219              		@ frame_needed = 0, uses_anonymous_args = 0
 220              		@ link register save eliminated.
 221              	.LVL12:
 204:Generated_Source\PSoC5/ADC_SAR_IRQ.c **** 
 222              		.loc 1 204 0
 223 0000 014B     		ldr	r3, .L12
 224 0002 1B68     		ldr	r3, [r3]
 225              	.LVL13:
 206:Generated_Source\PSoC5/ADC_SAR_IRQ.c **** }
 226              		.loc 1 206 0
 227 0004 1864     		str	r0, [r3, #64]
 228 0006 7047     		bx	lr
 229              	.L13:
 230              		.align	2
 231              	.L12:
 232 0008 08ED00E0 		.word	-536810232
 233              		.cfi_endproc
 234              	.LFE4:
 235              		.size	ADC_SAR_IRQ_SetVector, .-ADC_SAR_IRQ_SetVector
 236              		.section	.text.ADC_SAR_IRQ_GetVector,"ax",%progbits
 237              		.align	1
 238              		.global	ADC_SAR_IRQ_GetVector
 239              		.thumb
 240              		.thumb_func
 241              		.type	ADC_SAR_IRQ_GetVector, %function
 242              	ADC_SAR_IRQ_GetVector:
 243              	.LFB5:
 225:Generated_Source\PSoC5/ADC_SAR_IRQ.c ****     cyisraddress * ramVectorTable;
 244              		.loc 1 225 0
 245              		.cfi_startproc
 246              		@ args = 0, pretend = 0, frame = 0
 247              		@ frame_needed = 0, uses_anonymous_args = 0
 248              		@ link register save eliminated.
 249              	.LVL14:
 228:Generated_Source\PSoC5/ADC_SAR_IRQ.c **** 
 250              		.loc 1 228 0
 251 0000 014B     		ldr	r3, .L15
 252              	.LVL15:
 230:Generated_Source\PSoC5/ADC_SAR_IRQ.c **** }
 253              		.loc 1 230 0
 254 0002 1B68     		ldr	r3, [r3]
 255              	.LVL16:
ARM GAS  C:\Users\aupen\AppData\Local\Temp\ccT4drrU.s 			page 12


 231:Generated_Source\PSoC5/ADC_SAR_IRQ.c **** 
 256              		.loc 1 231 0
 257 0004 186C     		ldr	r0, [r3, #64]
 258 0006 7047     		bx	lr
 259              	.L16:
 260              		.align	2
 261              	.L15:
 262 0008 08ED00E0 		.word	-536810232
 263              		.cfi_endproc
 264              	.LFE5:
 265              		.size	ADC_SAR_IRQ_GetVector, .-ADC_SAR_IRQ_GetVector
 266              		.section	.text.ADC_SAR_IRQ_SetPriority,"ax",%progbits
 267              		.align	1
 268              		.global	ADC_SAR_IRQ_SetPriority
 269              		.thumb
 270              		.thumb_func
 271              		.type	ADC_SAR_IRQ_SetPriority, %function
 272              	ADC_SAR_IRQ_SetPriority:
 273              	.LFB6:
 259:Generated_Source\PSoC5/ADC_SAR_IRQ.c ****     *ADC_SAR_IRQ_INTC_PRIOR = priority << 5;
 274              		.loc 1 259 0
 275              		.cfi_startproc
 276              		@ args = 0, pretend = 0, frame = 0
 277              		@ frame_needed = 0, uses_anonymous_args = 0
 278              		@ link register save eliminated.
 279              	.LVL17:
 260:Generated_Source\PSoC5/ADC_SAR_IRQ.c **** }
 280              		.loc 1 260 0
 281 0000 4001     		lsls	r0, r0, #5
 282              	.LVL18:
 283 0002 024B     		ldr	r3, .L18
 284 0004 C0B2     		uxtb	r0, r0
 285 0006 1870     		strb	r0, [r3]
 286 0008 7047     		bx	lr
 287              	.L19:
 288 000a 00BF     		.align	2
 289              	.L18:
 290 000c 00E400E0 		.word	-536812544
 291              		.cfi_endproc
 292              	.LFE6:
 293              		.size	ADC_SAR_IRQ_SetPriority, .-ADC_SAR_IRQ_SetPriority
 294              		.section	.text.ADC_SAR_IRQ_GetPriority,"ax",%progbits
 295              		.align	1
 296              		.global	ADC_SAR_IRQ_GetPriority
 297              		.thumb
 298              		.thumb_func
 299              		.type	ADC_SAR_IRQ_GetPriority, %function
 300              	ADC_SAR_IRQ_GetPriority:
 301              	.LFB7:
 281:Generated_Source\PSoC5/ADC_SAR_IRQ.c ****     uint8 priority;
 302              		.loc 1 281 0
 303              		.cfi_startproc
 304              		@ args = 0, pretend = 0, frame = 0
 305              		@ frame_needed = 0, uses_anonymous_args = 0
 306              		@ link register save eliminated.
 285:Generated_Source\PSoC5/ADC_SAR_IRQ.c **** 
 307              		.loc 1 285 0
ARM GAS  C:\Users\aupen\AppData\Local\Temp\ccT4drrU.s 			page 13


 308 0000 014B     		ldr	r3, .L21
 309 0002 1878     		ldrb	r0, [r3]	@ zero_extendqisi2
 310              	.LVL19:
 288:Generated_Source\PSoC5/ADC_SAR_IRQ.c **** 
 311              		.loc 1 288 0
 312 0004 4009     		lsrs	r0, r0, #5
 313              	.LVL20:
 314 0006 7047     		bx	lr
 315              	.L22:
 316              		.align	2
 317              	.L21:
 318 0008 00E400E0 		.word	-536812544
 319              		.cfi_endproc
 320              	.LFE7:
 321              		.size	ADC_SAR_IRQ_GetPriority, .-ADC_SAR_IRQ_GetPriority
 322              		.section	.text.ADC_SAR_IRQ_Enable,"ax",%progbits
 323              		.align	1
 324              		.global	ADC_SAR_IRQ_Enable
 325              		.thumb
 326              		.thumb_func
 327              		.type	ADC_SAR_IRQ_Enable, %function
 328              	ADC_SAR_IRQ_Enable:
 329              	.LFB8:
 308:Generated_Source\PSoC5/ADC_SAR_IRQ.c ****     /* Enable the general interrupt. */
 330              		.loc 1 308 0
 331              		.cfi_startproc
 332              		@ args = 0, pretend = 0, frame = 0
 333              		@ frame_needed = 0, uses_anonymous_args = 0
 334              		@ link register save eliminated.
 310:Generated_Source\PSoC5/ADC_SAR_IRQ.c **** }
 335              		.loc 1 310 0
 336 0000 014B     		ldr	r3, .L24
 337 0002 0122     		movs	r2, #1
 338 0004 1A60     		str	r2, [r3]
 339 0006 7047     		bx	lr
 340              	.L25:
 341              		.align	2
 342              	.L24:
 343 0008 00E100E0 		.word	-536813312
 344              		.cfi_endproc
 345              	.LFE8:
 346              		.size	ADC_SAR_IRQ_Enable, .-ADC_SAR_IRQ_Enable
 347              		.section	.text.ADC_SAR_IRQ_GetState,"ax",%progbits
 348              		.align	1
 349              		.global	ADC_SAR_IRQ_GetState
 350              		.thumb
 351              		.thumb_func
 352              		.type	ADC_SAR_IRQ_GetState, %function
 353              	ADC_SAR_IRQ_GetState:
 354              	.LFB9:
 329:Generated_Source\PSoC5/ADC_SAR_IRQ.c ****     /* Get the state of the general interrupt. */
 355              		.loc 1 329 0
 356              		.cfi_startproc
 357              		@ args = 0, pretend = 0, frame = 0
 358              		@ frame_needed = 0, uses_anonymous_args = 0
 359              		@ link register save eliminated.
 331:Generated_Source\PSoC5/ADC_SAR_IRQ.c **** }
ARM GAS  C:\Users\aupen\AppData\Local\Temp\ccT4drrU.s 			page 14


 360              		.loc 1 331 0
 361 0000 024B     		ldr	r3, .L27
 362 0002 1868     		ldr	r0, [r3]
 332:Generated_Source\PSoC5/ADC_SAR_IRQ.c **** 
 363              		.loc 1 332 0
 364 0004 00F00100 		and	r0, r0, #1
 365 0008 7047     		bx	lr
 366              	.L28:
 367 000a 00BF     		.align	2
 368              	.L27:
 369 000c 00E100E0 		.word	-536813312
 370              		.cfi_endproc
 371              	.LFE9:
 372              		.size	ADC_SAR_IRQ_GetState, .-ADC_SAR_IRQ_GetState
 373              		.section	.text.ADC_SAR_IRQ_Disable,"ax",%progbits
 374              		.align	1
 375              		.global	ADC_SAR_IRQ_Disable
 376              		.thumb
 377              		.thumb_func
 378              		.type	ADC_SAR_IRQ_Disable, %function
 379              	ADC_SAR_IRQ_Disable:
 380              	.LFB10:
 350:Generated_Source\PSoC5/ADC_SAR_IRQ.c ****     /* Disable the general interrupt. */
 381              		.loc 1 350 0
 382              		.cfi_startproc
 383              		@ args = 0, pretend = 0, frame = 0
 384              		@ frame_needed = 0, uses_anonymous_args = 0
 385              		@ link register save eliminated.
 386              		.loc 1 352 0
 387 0000 014B     		ldr	r3, .L30
 388 0002 0122     		movs	r2, #1
 389 0004 1A60     		str	r2, [r3]
 390 0006 7047     		bx	lr
 391              	.L31:
 392              		.align	2
 393              	.L30:
 394 0008 80E100E0 		.word	-536813184
 395              		.cfi_endproc
 396              	.LFE10:
 397              		.size	ADC_SAR_IRQ_Disable, .-ADC_SAR_IRQ_Disable
 398              		.section	.text.ADC_SAR_IRQ_SetPending,"ax",%progbits
 399              		.align	1
 400              		.global	ADC_SAR_IRQ_SetPending
 401              		.thumb
 402              		.thumb_func
 403              		.type	ADC_SAR_IRQ_SetPending, %function
 404              	ADC_SAR_IRQ_SetPending:
 405              	.LFB11:
 353:Generated_Source\PSoC5/ADC_SAR_IRQ.c **** }
 354:Generated_Source\PSoC5/ADC_SAR_IRQ.c **** 
 355:Generated_Source\PSoC5/ADC_SAR_IRQ.c **** 
 356:Generated_Source\PSoC5/ADC_SAR_IRQ.c **** /*******************************************************************************
 357:Generated_Source\PSoC5/ADC_SAR_IRQ.c **** * Function Name: ADC_SAR_IRQ_SetPending
 358:Generated_Source\PSoC5/ADC_SAR_IRQ.c **** ********************************************************************************
 359:Generated_Source\PSoC5/ADC_SAR_IRQ.c **** *
 360:Generated_Source\PSoC5/ADC_SAR_IRQ.c **** * Summary:
 361:Generated_Source\PSoC5/ADC_SAR_IRQ.c **** *   Causes the Interrupt to enter the pending state, a software method of
ARM GAS  C:\Users\aupen\AppData\Local\Temp\ccT4drrU.s 			page 15


 362:Generated_Source\PSoC5/ADC_SAR_IRQ.c **** *   generating the interrupt.
 363:Generated_Source\PSoC5/ADC_SAR_IRQ.c **** *
 364:Generated_Source\PSoC5/ADC_SAR_IRQ.c **** * Parameters:
 365:Generated_Source\PSoC5/ADC_SAR_IRQ.c **** *   None
 366:Generated_Source\PSoC5/ADC_SAR_IRQ.c **** *
 367:Generated_Source\PSoC5/ADC_SAR_IRQ.c **** * Return:
 368:Generated_Source\PSoC5/ADC_SAR_IRQ.c **** *   None
 369:Generated_Source\PSoC5/ADC_SAR_IRQ.c **** *
 370:Generated_Source\PSoC5/ADC_SAR_IRQ.c **** * Side Effects:
 371:Generated_Source\PSoC5/ADC_SAR_IRQ.c **** *   If interrupts are enabled and the interrupt is set up properly, the ISR is
 372:Generated_Source\PSoC5/ADC_SAR_IRQ.c **** *   entered (depending on the priority of this interrupt and other pending 
 373:Generated_Source\PSoC5/ADC_SAR_IRQ.c **** *   interrupts).
 374:Generated_Source\PSoC5/ADC_SAR_IRQ.c **** *
 375:Generated_Source\PSoC5/ADC_SAR_IRQ.c **** *******************************************************************************/
 376:Generated_Source\PSoC5/ADC_SAR_IRQ.c **** void ADC_SAR_IRQ_SetPending(void)
 377:Generated_Source\PSoC5/ADC_SAR_IRQ.c **** {
 406              		.loc 1 377 0
 407              		.cfi_startproc
 408              		@ args = 0, pretend = 0, frame = 0
 409              		@ frame_needed = 0, uses_anonymous_args = 0
 410              		@ link register save eliminated.
 378:Generated_Source\PSoC5/ADC_SAR_IRQ.c ****     *ADC_SAR_IRQ_INTC_SET_PD = ADC_SAR_IRQ__INTC_MASK;
 411              		.loc 1 378 0
 412 0000 014B     		ldr	r3, .L33
 413 0002 0122     		movs	r2, #1
 414 0004 1A60     		str	r2, [r3]
 415 0006 7047     		bx	lr
 416              	.L34:
 417              		.align	2
 418              	.L33:
 419 0008 00E200E0 		.word	-536813056
 420              		.cfi_endproc
 421              	.LFE11:
 422              		.size	ADC_SAR_IRQ_SetPending, .-ADC_SAR_IRQ_SetPending
 423              		.section	.text.ADC_SAR_IRQ_ClearPending,"ax",%progbits
 424              		.align	1
 425              		.global	ADC_SAR_IRQ_ClearPending
 426              		.thumb
 427              		.thumb_func
 428              		.type	ADC_SAR_IRQ_ClearPending, %function
 429              	ADC_SAR_IRQ_ClearPending:
 430              	.LFB12:
 379:Generated_Source\PSoC5/ADC_SAR_IRQ.c **** }
 380:Generated_Source\PSoC5/ADC_SAR_IRQ.c **** 
 381:Generated_Source\PSoC5/ADC_SAR_IRQ.c **** 
 382:Generated_Source\PSoC5/ADC_SAR_IRQ.c **** /*******************************************************************************
 383:Generated_Source\PSoC5/ADC_SAR_IRQ.c **** * Function Name: ADC_SAR_IRQ_ClearPending
 384:Generated_Source\PSoC5/ADC_SAR_IRQ.c **** ********************************************************************************
 385:Generated_Source\PSoC5/ADC_SAR_IRQ.c **** *
 386:Generated_Source\PSoC5/ADC_SAR_IRQ.c **** * Summary:
 387:Generated_Source\PSoC5/ADC_SAR_IRQ.c **** *   Clears a pending interrupt in the interrupt controller.
 388:Generated_Source\PSoC5/ADC_SAR_IRQ.c **** *
 389:Generated_Source\PSoC5/ADC_SAR_IRQ.c **** *   Note Some interrupt sources are clear-on-read and require the block 
 390:Generated_Source\PSoC5/ADC_SAR_IRQ.c **** *   interrupt/status register to be read/cleared with the appropriate block API 
 391:Generated_Source\PSoC5/ADC_SAR_IRQ.c **** *   (GPIO, UART, and so on). Otherwise the ISR will continue to remain in 
 392:Generated_Source\PSoC5/ADC_SAR_IRQ.c **** *   pending state even though the interrupt itself is cleared using this API.
 393:Generated_Source\PSoC5/ADC_SAR_IRQ.c **** *
ARM GAS  C:\Users\aupen\AppData\Local\Temp\ccT4drrU.s 			page 16


 394:Generated_Source\PSoC5/ADC_SAR_IRQ.c **** * Parameters:
 395:Generated_Source\PSoC5/ADC_SAR_IRQ.c **** *   None
 396:Generated_Source\PSoC5/ADC_SAR_IRQ.c **** *
 397:Generated_Source\PSoC5/ADC_SAR_IRQ.c **** * Return:
 398:Generated_Source\PSoC5/ADC_SAR_IRQ.c **** *   None
 399:Generated_Source\PSoC5/ADC_SAR_IRQ.c **** *
 400:Generated_Source\PSoC5/ADC_SAR_IRQ.c **** *******************************************************************************/
 401:Generated_Source\PSoC5/ADC_SAR_IRQ.c **** void ADC_SAR_IRQ_ClearPending(void)
 402:Generated_Source\PSoC5/ADC_SAR_IRQ.c **** {
 431              		.loc 1 402 0
 432              		.cfi_startproc
 433              		@ args = 0, pretend = 0, frame = 0
 434              		@ frame_needed = 0, uses_anonymous_args = 0
 435              		@ link register save eliminated.
 403:Generated_Source\PSoC5/ADC_SAR_IRQ.c ****     *ADC_SAR_IRQ_INTC_CLR_PD = ADC_SAR_IRQ__INTC_MASK;
 436              		.loc 1 403 0
 437 0000 014B     		ldr	r3, .L36
 438 0002 0122     		movs	r2, #1
 439 0004 1A60     		str	r2, [r3]
 440 0006 7047     		bx	lr
 441              	.L37:
 442              		.align	2
 443              	.L36:
 444 0008 80E200E0 		.word	-536812928
 445              		.cfi_endproc
 446              	.LFE12:
 447              		.size	ADC_SAR_IRQ_ClearPending, .-ADC_SAR_IRQ_ClearPending
 448              		.text
 449              	.Letext0:
 450              		.file 2 "Generated_Source\\PSoC5/cytypes.h"
 451              		.section	.debug_info,"",%progbits
 452              	.Ldebug_info0:
 453 0000 81030000 		.4byte	0x381
 454 0004 0400     		.2byte	0x4
 455 0006 00000000 		.4byte	.Ldebug_abbrev0
 456 000a 04       		.byte	0x4
 457 000b 01       		.uleb128 0x1
 458 000c D2000000 		.4byte	.LASF34
 459 0010 0C       		.byte	0xc
 460 0011 01020000 		.4byte	.LASF35
 461 0015 06000000 		.4byte	.LASF36
 462 0019 30000000 		.4byte	.Ldebug_ranges0+0x30
 463 001d 00000000 		.4byte	0
 464 0021 00000000 		.4byte	.Ldebug_line0
 465 0025 02       		.uleb128 0x2
 466 0026 04       		.byte	0x4
 467 0027 05       		.byte	0x5
 468 0028 696E7400 		.ascii	"int\000"
 469 002c 03       		.uleb128 0x3
 470 002d 04       		.byte	0x4
 471 002e 07       		.byte	0x7
 472 002f 58000000 		.4byte	.LASF0
 473 0033 03       		.uleb128 0x3
 474 0034 08       		.byte	0x8
 475 0035 05       		.byte	0x5
 476 0036 71020000 		.4byte	.LASF1
 477 003a 03       		.uleb128 0x3
ARM GAS  C:\Users\aupen\AppData\Local\Temp\ccT4drrU.s 			page 17


 478 003b 08       		.byte	0x8
 479 003c 04       		.byte	0x4
 480 003d DF020000 		.4byte	.LASF2
 481 0041 03       		.uleb128 0x3
 482 0042 01       		.byte	0x1
 483 0043 06       		.byte	0x6
 484 0044 EB020000 		.4byte	.LASF3
 485 0048 03       		.uleb128 0x3
 486 0049 01       		.byte	0x1
 487 004a 08       		.byte	0x8
 488 004b AC000000 		.4byte	.LASF4
 489 004f 03       		.uleb128 0x3
 490 0050 02       		.byte	0x2
 491 0051 05       		.byte	0x5
 492 0052 8A010000 		.4byte	.LASF5
 493 0056 03       		.uleb128 0x3
 494 0057 02       		.byte	0x2
 495 0058 07       		.byte	0x7
 496 0059 45000000 		.4byte	.LASF6
 497 005d 03       		.uleb128 0x3
 498 005e 04       		.byte	0x4
 499 005f 05       		.byte	0x5
 500 0060 D6020000 		.4byte	.LASF7
 501 0064 03       		.uleb128 0x3
 502 0065 04       		.byte	0x4
 503 0066 07       		.byte	0x7
 504 0067 EF010000 		.4byte	.LASF8
 505 006b 03       		.uleb128 0x3
 506 006c 08       		.byte	0x8
 507 006d 07       		.byte	0x7
 508 006e 2E020000 		.4byte	.LASF9
 509 0072 03       		.uleb128 0x3
 510 0073 04       		.byte	0x4
 511 0074 07       		.byte	0x7
 512 0075 68020000 		.4byte	.LASF10
 513 0079 03       		.uleb128 0x3
 514 007a 01       		.byte	0x1
 515 007b 08       		.byte	0x8
 516 007c 7F020000 		.4byte	.LASF11
 517 0080 04       		.uleb128 0x4
 518 0081 04       		.byte	0x4
 519 0082 86000000 		.4byte	0x86
 520 0086 05       		.uleb128 0x5
 521 0087 06       		.uleb128 0x6
 522 0088 60010000 		.4byte	.LASF12
 523 008c 02       		.byte	0x2
 524 008d 9201     		.2byte	0x192
 525 008f 48000000 		.4byte	0x48
 526 0093 06       		.uleb128 0x6
 527 0094 E8010000 		.4byte	.LASF13
 528 0098 02       		.byte	0x2
 529 0099 9401     		.2byte	0x194
 530 009b 64000000 		.4byte	0x64
 531 009f 03       		.uleb128 0x3
 532 00a0 04       		.byte	0x4
 533 00a1 04       		.byte	0x4
 534 00a2 8F000000 		.4byte	.LASF14
ARM GAS  C:\Users\aupen\AppData\Local\Temp\ccT4drrU.s 			page 18


 535 00a6 03       		.uleb128 0x3
 536 00a7 08       		.byte	0x8
 537 00a8 04       		.byte	0x4
 538 00a9 83010000 		.4byte	.LASF15
 539 00ad 06       		.uleb128 0x6
 540 00ae BA000000 		.4byte	.LASF16
 541 00b2 02       		.byte	0x2
 542 00b3 3C02     		.2byte	0x23c
 543 00b5 B9000000 		.4byte	0xb9
 544 00b9 07       		.uleb128 0x7
 545 00ba 87000000 		.4byte	0x87
 546 00be 06       		.uleb128 0x6
 547 00bf 00000000 		.4byte	.LASF17
 548 00c3 02       		.byte	0x2
 549 00c4 3E02     		.2byte	0x23e
 550 00c6 CA000000 		.4byte	0xca
 551 00ca 07       		.uleb128 0x7
 552 00cb 93000000 		.4byte	0x93
 553 00cf 06       		.uleb128 0x6
 554 00d0 5B020000 		.4byte	.LASF18
 555 00d4 02       		.byte	0x2
 556 00d5 4E02     		.2byte	0x24e
 557 00d7 80000000 		.4byte	0x80
 558 00db 08       		.uleb128 0x8
 559 00dc BF000000 		.4byte	.LASF23
 560 00e0 01       		.byte	0x1
 561 00e1 3301     		.2byte	0x133
 562 00e3 01       		.byte	0x1
 563 00e4 09       		.uleb128 0x9
 564 00e5 AD010000 		.4byte	.LASF19
 565 00e9 01       		.byte	0x1
 566 00ea 0201     		.2byte	0x102
 567 00ec 01       		.byte	0x1
 568 00ed FE000000 		.4byte	0xfe
 569 00f1 0A       		.uleb128 0xa
 570 00f2 7A010000 		.4byte	.LASF21
 571 00f6 01       		.byte	0x1
 572 00f7 0201     		.2byte	0x102
 573 00f9 87000000 		.4byte	0x87
 574 00fd 00       		.byte	0
 575 00fe 0B       		.uleb128 0xb
 576 00ff 79000000 		.4byte	.LASF20
 577 0103 01       		.byte	0x1
 578 0104 C8       		.byte	0xc8
 579 0105 01       		.byte	0x1
 580 0106 21010000 		.4byte	0x121
 581 010a 0C       		.uleb128 0xc
 582 010b 26020000 		.4byte	.LASF22
 583 010f 01       		.byte	0x1
 584 0110 C8       		.byte	0xc8
 585 0111 CF000000 		.4byte	0xcf
 586 0115 0D       		.uleb128 0xd
 587 0116 84020000 		.4byte	.LASF30
 588 011a 01       		.byte	0x1
 589 011b CA       		.byte	0xca
 590 011c 21010000 		.4byte	0x121
 591 0120 00       		.byte	0
ARM GAS  C:\Users\aupen\AppData\Local\Temp\ccT4drrU.s 			page 19


 592 0121 04       		.uleb128 0x4
 593 0122 04       		.byte	0x4
 594 0123 CF000000 		.4byte	0xcf
 595 0127 08       		.uleb128 0x8
 596 0128 66010000 		.4byte	.LASF24
 597 012c 01       		.byte	0x1
 598 012d 5D01     		.2byte	0x15d
 599 012f 01       		.byte	0x1
 600 0130 0E       		.uleb128 0xe
 601 0131 93020000 		.4byte	.LASF31
 602 0135 01       		.byte	0x1
 603 0136 A0       		.byte	0xa0
 604 0137 00000000 		.4byte	.LFB3
 605 013b 02000000 		.4byte	.LFE3-.LFB3
 606 013f 01       		.uleb128 0x1
 607 0140 9C       		.byte	0x9c
 608 0141 0F       		.uleb128 0xf
 609 0142 D6010000 		.4byte	.LASF25
 610 0146 01       		.byte	0x1
 611 0147 3D       		.byte	0x3d
 612 0148 00000000 		.4byte	.LFB0
 613 014c 2C000000 		.4byte	.LFE0-.LFB0
 614 0150 01       		.uleb128 0x1
 615 0151 9C       		.byte	0x9c
 616 0152 C2010000 		.4byte	0x1c2
 617 0156 10       		.uleb128 0x10
 618 0157 27010000 		.4byte	0x127
 619 015b 00000000 		.4byte	.LBB22
 620 015f 06000000 		.4byte	.LBE22-.LBB22
 621 0163 01       		.byte	0x1
 622 0164 40       		.byte	0x40
 623 0165 11       		.uleb128 0x11
 624 0166 FE000000 		.4byte	0xfe
 625 016a 06000000 		.4byte	.LBB24
 626 016e 0A000000 		.4byte	.LBE24-.LBB24
 627 0172 01       		.byte	0x1
 628 0173 43       		.byte	0x43
 629 0174 95010000 		.4byte	0x195
 630 0178 12       		.uleb128 0x12
 631 0179 0A010000 		.4byte	0x10a
 632 017d 00000000 		.4byte	.LLST0
 633 0181 13       		.uleb128 0x13
 634 0182 06000000 		.4byte	.LBB25
 635 0186 0A000000 		.4byte	.LBE25-.LBB25
 636 018a 14       		.uleb128 0x14
 637 018b 15010000 		.4byte	0x115
 638 018f 18000000 		.4byte	.LLST1
 639 0193 00       		.byte	0
 640 0194 00       		.byte	0
 641 0195 11       		.uleb128 0x11
 642 0196 E4000000 		.4byte	0xe4
 643 019a 10000000 		.4byte	.LBB26
 644 019e 06000000 		.4byte	.LBE26-.LBB26
 645 01a2 01       		.byte	0x1
 646 01a3 46       		.byte	0x46
 647 01a4 B2010000 		.4byte	0x1b2
 648 01a8 12       		.uleb128 0x12
ARM GAS  C:\Users\aupen\AppData\Local\Temp\ccT4drrU.s 			page 20


 649 01a9 F1000000 		.4byte	0xf1
 650 01ad 2B000000 		.4byte	.LLST2
 651 01b1 00       		.byte	0
 652 01b2 10       		.uleb128 0x10
 653 01b3 DB000000 		.4byte	0xdb
 654 01b7 16000000 		.4byte	.LBB28
 655 01bb 16000000 		.4byte	.LBE28-.LBB28
 656 01bf 01       		.byte	0x1
 657 01c0 49       		.byte	0x49
 658 01c1 00       		.byte	0
 659 01c2 0F       		.uleb128 0xf
 660 01c3 65000000 		.4byte	.LASF26
 661 01c7 01       		.byte	0x1
 662 01c8 68       		.byte	0x68
 663 01c9 00000000 		.4byte	.LFB1
 664 01cd 24000000 		.4byte	.LFE1-.LFB1
 665 01d1 01       		.uleb128 0x1
 666 01d2 9C       		.byte	0x9c
 667 01d3 4C020000 		.4byte	0x24c
 668 01d7 15       		.uleb128 0x15
 669 01d8 26020000 		.4byte	.LASF22
 670 01dc 01       		.byte	0x1
 671 01dd 68       		.byte	0x68
 672 01de CF000000 		.4byte	0xcf
 673 01e2 01       		.uleb128 0x1
 674 01e3 50       		.byte	0x50
 675 01e4 10       		.uleb128 0x10
 676 01e5 27010000 		.4byte	0x127
 677 01e9 00000000 		.4byte	.LBB30
 678 01ed 06000000 		.4byte	.LBE30-.LBB30
 679 01f1 01       		.byte	0x1
 680 01f2 6B       		.byte	0x6b
 681 01f3 16       		.uleb128 0x16
 682 01f4 FE000000 		.4byte	0xfe
 683 01f8 06000000 		.4byte	.LBB32
 684 01fc 00000000 		.4byte	.Ldebug_ranges0+0
 685 0200 01       		.byte	0x1
 686 0201 6E       		.byte	0x6e
 687 0202 1F020000 		.4byte	0x21f
 688 0206 12       		.uleb128 0x12
 689 0207 0A010000 		.4byte	0x10a
 690 020b 3F000000 		.4byte	.LLST3
 691 020f 17       		.uleb128 0x17
 692 0210 00000000 		.4byte	.Ldebug_ranges0+0
 693 0214 14       		.uleb128 0x14
 694 0215 15010000 		.4byte	0x115
 695 0219 52000000 		.4byte	.LLST4
 696 021d 00       		.byte	0
 697 021e 00       		.byte	0
 698 021f 16       		.uleb128 0x16
 699 0220 E4000000 		.4byte	0xe4
 700 0224 0C000000 		.4byte	.LBB35
 701 0228 18000000 		.4byte	.Ldebug_ranges0+0x18
 702 022c 01       		.byte	0x1
 703 022d 71       		.byte	0x71
 704 022e 3C020000 		.4byte	0x23c
 705 0232 12       		.uleb128 0x12
ARM GAS  C:\Users\aupen\AppData\Local\Temp\ccT4drrU.s 			page 21


 706 0233 F1000000 		.4byte	0xf1
 707 0237 65000000 		.4byte	.LLST5
 708 023b 00       		.byte	0
 709 023c 10       		.uleb128 0x10
 710 023d DB000000 		.4byte	0xdb
 711 0241 14000000 		.4byte	.LBB40
 712 0245 10000000 		.4byte	.LBE40-.LBB40
 713 0249 01       		.byte	0x1
 714 024a 74       		.byte	0x74
 715 024b 00       		.byte	0
 716 024c 0F       		.uleb128 0xf
 717 024d C5010000 		.4byte	.LASF27
 718 0251 01       		.byte	0x1
 719 0252 86       		.byte	0x86
 720 0253 00000000 		.4byte	.LFB2
 721 0257 1C000000 		.4byte	.LFE2-.LFB2
 722 025b 01       		.uleb128 0x1
 723 025c 9C       		.byte	0x9c
 724 025d 99020000 		.4byte	0x299
 725 0261 10       		.uleb128 0x10
 726 0262 27010000 		.4byte	0x127
 727 0266 00000000 		.4byte	.LBB42
 728 026a 06000000 		.4byte	.LBE42-.LBB42
 729 026e 01       		.byte	0x1
 730 026f 89       		.byte	0x89
 731 0270 18       		.uleb128 0x18
 732 0271 FE000000 		.4byte	0xfe
 733 0275 06000000 		.4byte	.LBB44
 734 0279 16000000 		.4byte	.LBE44-.LBB44
 735 027d 01       		.byte	0x1
 736 027e 8C       		.byte	0x8c
 737 027f 19       		.uleb128 0x19
 738 0280 0A010000 		.4byte	0x10a
 739 0284 13       		.uleb128 0x13
 740 0285 06000000 		.4byte	.LBB45
 741 0289 16000000 		.4byte	.LBE45-.LBB45
 742 028d 14       		.uleb128 0x14
 743 028e 15010000 		.4byte	0x115
 744 0292 79000000 		.4byte	.LLST6
 745 0296 00       		.byte	0
 746 0297 00       		.byte	0
 747 0298 00       		.byte	0
 748 0299 1A       		.uleb128 0x1a
 749 029a FE000000 		.4byte	0xfe
 750 029e 00000000 		.4byte	.LFB4
 751 02a2 0C000000 		.4byte	.LFE4-.LFB4
 752 02a6 01       		.uleb128 0x1
 753 02a7 9C       		.byte	0x9c
 754 02a8 BB020000 		.4byte	0x2bb
 755 02ac 1B       		.uleb128 0x1b
 756 02ad 0A010000 		.4byte	0x10a
 757 02b1 01       		.uleb128 0x1
 758 02b2 50       		.byte	0x50
 759 02b3 1C       		.uleb128 0x1c
 760 02b4 15010000 		.4byte	0x115
 761 02b8 01       		.uleb128 0x1
 762 02b9 53       		.byte	0x53
ARM GAS  C:\Users\aupen\AppData\Local\Temp\ccT4drrU.s 			page 22


 763 02ba 00       		.byte	0
 764 02bb 1D       		.uleb128 0x1d
 765 02bc 45020000 		.4byte	.LASF28
 766 02c0 01       		.byte	0x1
 767 02c1 E0       		.byte	0xe0
 768 02c2 CF000000 		.4byte	0xcf
 769 02c6 00000000 		.4byte	.LFB5
 770 02ca 0C000000 		.4byte	.LFE5-.LFB5
 771 02ce 01       		.uleb128 0x1
 772 02cf 9C       		.byte	0x9c
 773 02d0 E4020000 		.4byte	0x2e4
 774 02d4 1E       		.uleb128 0x1e
 775 02d5 84020000 		.4byte	.LASF30
 776 02d9 01       		.byte	0x1
 777 02da E2       		.byte	0xe2
 778 02db 21010000 		.4byte	0x121
 779 02df 8C000000 		.4byte	.LLST7
 780 02e3 00       		.byte	0
 781 02e4 1A       		.uleb128 0x1a
 782 02e5 E4000000 		.4byte	0xe4
 783 02e9 00000000 		.4byte	.LFB6
 784 02ed 10000000 		.4byte	.LFE6-.LFB6
 785 02f1 01       		.uleb128 0x1
 786 02f2 9C       		.byte	0x9c
 787 02f3 01030000 		.4byte	0x301
 788 02f7 12       		.uleb128 0x12
 789 02f8 F1000000 		.4byte	0xf1
 790 02fc BB000000 		.4byte	.LLST8
 791 0300 00       		.byte	0
 792 0301 1F       		.uleb128 0x1f
 793 0302 BE020000 		.4byte	.LASF29
 794 0306 01       		.byte	0x1
 795 0307 1801     		.2byte	0x118
 796 0309 87000000 		.4byte	0x87
 797 030d 00000000 		.4byte	.LFB7
 798 0311 0C000000 		.4byte	.LFE7-.LFB7
 799 0315 01       		.uleb128 0x1
 800 0316 9C       		.byte	0x9c
 801 0317 2C030000 		.4byte	0x32c
 802 031b 20       		.uleb128 0x20
 803 031c 7A010000 		.4byte	.LASF21
 804 0320 01       		.byte	0x1
 805 0321 1A01     		.2byte	0x11a
 806 0323 87000000 		.4byte	0x87
 807 0327 DC000000 		.4byte	.LLST9
 808 032b 00       		.byte	0
 809 032c 21       		.uleb128 0x21
 810 032d DB000000 		.4byte	0xdb
 811 0331 00000000 		.4byte	.LFB8
 812 0335 0C000000 		.4byte	.LFE8-.LFB8
 813 0339 01       		.uleb128 0x1
 814 033a 9C       		.byte	0x9c
 815 033b 22       		.uleb128 0x22
 816 033c A9020000 		.4byte	.LASF37
 817 0340 01       		.byte	0x1
 818 0341 4801     		.2byte	0x148
 819 0343 87000000 		.4byte	0x87
ARM GAS  C:\Users\aupen\AppData\Local\Temp\ccT4drrU.s 			page 23


 820 0347 00000000 		.4byte	.LFB9
 821 034b 10000000 		.4byte	.LFE9-.LFB9
 822 034f 01       		.uleb128 0x1
 823 0350 9C       		.byte	0x9c
 824 0351 21       		.uleb128 0x21
 825 0352 27010000 		.4byte	0x127
 826 0356 00000000 		.4byte	.LFB10
 827 035a 0C000000 		.4byte	.LFE10-.LFB10
 828 035e 01       		.uleb128 0x1
 829 035f 9C       		.byte	0x9c
 830 0360 23       		.uleb128 0x23
 831 0361 95000000 		.4byte	.LASF32
 832 0365 01       		.byte	0x1
 833 0366 7801     		.2byte	0x178
 834 0368 00000000 		.4byte	.LFB11
 835 036c 0C000000 		.4byte	.LFE11-.LFB11
 836 0370 01       		.uleb128 0x1
 837 0371 9C       		.byte	0x9c
 838 0372 23       		.uleb128 0x23
 839 0373 94010000 		.4byte	.LASF33
 840 0377 01       		.byte	0x1
 841 0378 9101     		.2byte	0x191
 842 037a 00000000 		.4byte	.LFB12
 843 037e 0C000000 		.4byte	.LFE12-.LFB12
 844 0382 01       		.uleb128 0x1
 845 0383 9C       		.byte	0x9c
 846 0384 00       		.byte	0
 847              		.section	.debug_abbrev,"",%progbits
 848              	.Ldebug_abbrev0:
 849 0000 01       		.uleb128 0x1
 850 0001 11       		.uleb128 0x11
 851 0002 01       		.byte	0x1
 852 0003 25       		.uleb128 0x25
 853 0004 0E       		.uleb128 0xe
 854 0005 13       		.uleb128 0x13
 855 0006 0B       		.uleb128 0xb
 856 0007 03       		.uleb128 0x3
 857 0008 0E       		.uleb128 0xe
 858 0009 1B       		.uleb128 0x1b
 859 000a 0E       		.uleb128 0xe
 860 000b 55       		.uleb128 0x55
 861 000c 17       		.uleb128 0x17
 862 000d 11       		.uleb128 0x11
 863 000e 01       		.uleb128 0x1
 864 000f 10       		.uleb128 0x10
 865 0010 17       		.uleb128 0x17
 866 0011 00       		.byte	0
 867 0012 00       		.byte	0
 868 0013 02       		.uleb128 0x2
 869 0014 24       		.uleb128 0x24
 870 0015 00       		.byte	0
 871 0016 0B       		.uleb128 0xb
 872 0017 0B       		.uleb128 0xb
 873 0018 3E       		.uleb128 0x3e
 874 0019 0B       		.uleb128 0xb
 875 001a 03       		.uleb128 0x3
 876 001b 08       		.uleb128 0x8
ARM GAS  C:\Users\aupen\AppData\Local\Temp\ccT4drrU.s 			page 24


 877 001c 00       		.byte	0
 878 001d 00       		.byte	0
 879 001e 03       		.uleb128 0x3
 880 001f 24       		.uleb128 0x24
 881 0020 00       		.byte	0
 882 0021 0B       		.uleb128 0xb
 883 0022 0B       		.uleb128 0xb
 884 0023 3E       		.uleb128 0x3e
 885 0024 0B       		.uleb128 0xb
 886 0025 03       		.uleb128 0x3
 887 0026 0E       		.uleb128 0xe
 888 0027 00       		.byte	0
 889 0028 00       		.byte	0
 890 0029 04       		.uleb128 0x4
 891 002a 0F       		.uleb128 0xf
 892 002b 00       		.byte	0
 893 002c 0B       		.uleb128 0xb
 894 002d 0B       		.uleb128 0xb
 895 002e 49       		.uleb128 0x49
 896 002f 13       		.uleb128 0x13
 897 0030 00       		.byte	0
 898 0031 00       		.byte	0
 899 0032 05       		.uleb128 0x5
 900 0033 15       		.uleb128 0x15
 901 0034 00       		.byte	0
 902 0035 27       		.uleb128 0x27
 903 0036 19       		.uleb128 0x19
 904 0037 00       		.byte	0
 905 0038 00       		.byte	0
 906 0039 06       		.uleb128 0x6
 907 003a 16       		.uleb128 0x16
 908 003b 00       		.byte	0
 909 003c 03       		.uleb128 0x3
 910 003d 0E       		.uleb128 0xe
 911 003e 3A       		.uleb128 0x3a
 912 003f 0B       		.uleb128 0xb
 913 0040 3B       		.uleb128 0x3b
 914 0041 05       		.uleb128 0x5
 915 0042 49       		.uleb128 0x49
 916 0043 13       		.uleb128 0x13
 917 0044 00       		.byte	0
 918 0045 00       		.byte	0
 919 0046 07       		.uleb128 0x7
 920 0047 35       		.uleb128 0x35
 921 0048 00       		.byte	0
 922 0049 49       		.uleb128 0x49
 923 004a 13       		.uleb128 0x13
 924 004b 00       		.byte	0
 925 004c 00       		.byte	0
 926 004d 08       		.uleb128 0x8
 927 004e 2E       		.uleb128 0x2e
 928 004f 00       		.byte	0
 929 0050 3F       		.uleb128 0x3f
 930 0051 19       		.uleb128 0x19
 931 0052 03       		.uleb128 0x3
 932 0053 0E       		.uleb128 0xe
 933 0054 3A       		.uleb128 0x3a
ARM GAS  C:\Users\aupen\AppData\Local\Temp\ccT4drrU.s 			page 25


 934 0055 0B       		.uleb128 0xb
 935 0056 3B       		.uleb128 0x3b
 936 0057 05       		.uleb128 0x5
 937 0058 27       		.uleb128 0x27
 938 0059 19       		.uleb128 0x19
 939 005a 20       		.uleb128 0x20
 940 005b 0B       		.uleb128 0xb
 941 005c 00       		.byte	0
 942 005d 00       		.byte	0
 943 005e 09       		.uleb128 0x9
 944 005f 2E       		.uleb128 0x2e
 945 0060 01       		.byte	0x1
 946 0061 3F       		.uleb128 0x3f
 947 0062 19       		.uleb128 0x19
 948 0063 03       		.uleb128 0x3
 949 0064 0E       		.uleb128 0xe
 950 0065 3A       		.uleb128 0x3a
 951 0066 0B       		.uleb128 0xb
 952 0067 3B       		.uleb128 0x3b
 953 0068 05       		.uleb128 0x5
 954 0069 27       		.uleb128 0x27
 955 006a 19       		.uleb128 0x19
 956 006b 20       		.uleb128 0x20
 957 006c 0B       		.uleb128 0xb
 958 006d 01       		.uleb128 0x1
 959 006e 13       		.uleb128 0x13
 960 006f 00       		.byte	0
 961 0070 00       		.byte	0
 962 0071 0A       		.uleb128 0xa
 963 0072 05       		.uleb128 0x5
 964 0073 00       		.byte	0
 965 0074 03       		.uleb128 0x3
 966 0075 0E       		.uleb128 0xe
 967 0076 3A       		.uleb128 0x3a
 968 0077 0B       		.uleb128 0xb
 969 0078 3B       		.uleb128 0x3b
 970 0079 05       		.uleb128 0x5
 971 007a 49       		.uleb128 0x49
 972 007b 13       		.uleb128 0x13
 973 007c 00       		.byte	0
 974 007d 00       		.byte	0
 975 007e 0B       		.uleb128 0xb
 976 007f 2E       		.uleb128 0x2e
 977 0080 01       		.byte	0x1
 978 0081 3F       		.uleb128 0x3f
 979 0082 19       		.uleb128 0x19
 980 0083 03       		.uleb128 0x3
 981 0084 0E       		.uleb128 0xe
 982 0085 3A       		.uleb128 0x3a
 983 0086 0B       		.uleb128 0xb
 984 0087 3B       		.uleb128 0x3b
 985 0088 0B       		.uleb128 0xb
 986 0089 27       		.uleb128 0x27
 987 008a 19       		.uleb128 0x19
 988 008b 20       		.uleb128 0x20
 989 008c 0B       		.uleb128 0xb
 990 008d 01       		.uleb128 0x1
ARM GAS  C:\Users\aupen\AppData\Local\Temp\ccT4drrU.s 			page 26


 991 008e 13       		.uleb128 0x13
 992 008f 00       		.byte	0
 993 0090 00       		.byte	0
 994 0091 0C       		.uleb128 0xc
 995 0092 05       		.uleb128 0x5
 996 0093 00       		.byte	0
 997 0094 03       		.uleb128 0x3
 998 0095 0E       		.uleb128 0xe
 999 0096 3A       		.uleb128 0x3a
 1000 0097 0B       		.uleb128 0xb
 1001 0098 3B       		.uleb128 0x3b
 1002 0099 0B       		.uleb128 0xb
 1003 009a 49       		.uleb128 0x49
 1004 009b 13       		.uleb128 0x13
 1005 009c 00       		.byte	0
 1006 009d 00       		.byte	0
 1007 009e 0D       		.uleb128 0xd
 1008 009f 34       		.uleb128 0x34
 1009 00a0 00       		.byte	0
 1010 00a1 03       		.uleb128 0x3
 1011 00a2 0E       		.uleb128 0xe
 1012 00a3 3A       		.uleb128 0x3a
 1013 00a4 0B       		.uleb128 0xb
 1014 00a5 3B       		.uleb128 0x3b
 1015 00a6 0B       		.uleb128 0xb
 1016 00a7 49       		.uleb128 0x49
 1017 00a8 13       		.uleb128 0x13
 1018 00a9 00       		.byte	0
 1019 00aa 00       		.byte	0
 1020 00ab 0E       		.uleb128 0xe
 1021 00ac 2E       		.uleb128 0x2e
 1022 00ad 00       		.byte	0
 1023 00ae 3F       		.uleb128 0x3f
 1024 00af 19       		.uleb128 0x19
 1025 00b0 03       		.uleb128 0x3
 1026 00b1 0E       		.uleb128 0xe
 1027 00b2 3A       		.uleb128 0x3a
 1028 00b3 0B       		.uleb128 0xb
 1029 00b4 3B       		.uleb128 0x3b
 1030 00b5 0B       		.uleb128 0xb
 1031 00b6 27       		.uleb128 0x27
 1032 00b7 19       		.uleb128 0x19
 1033 00b8 11       		.uleb128 0x11
 1034 00b9 01       		.uleb128 0x1
 1035 00ba 12       		.uleb128 0x12
 1036 00bb 06       		.uleb128 0x6
 1037 00bc 40       		.uleb128 0x40
 1038 00bd 18       		.uleb128 0x18
 1039 00be 9742     		.uleb128 0x2117
 1040 00c0 19       		.uleb128 0x19
 1041 00c1 00       		.byte	0
 1042 00c2 00       		.byte	0
 1043 00c3 0F       		.uleb128 0xf
 1044 00c4 2E       		.uleb128 0x2e
 1045 00c5 01       		.byte	0x1
 1046 00c6 3F       		.uleb128 0x3f
 1047 00c7 19       		.uleb128 0x19
ARM GAS  C:\Users\aupen\AppData\Local\Temp\ccT4drrU.s 			page 27


 1048 00c8 03       		.uleb128 0x3
 1049 00c9 0E       		.uleb128 0xe
 1050 00ca 3A       		.uleb128 0x3a
 1051 00cb 0B       		.uleb128 0xb
 1052 00cc 3B       		.uleb128 0x3b
 1053 00cd 0B       		.uleb128 0xb
 1054 00ce 27       		.uleb128 0x27
 1055 00cf 19       		.uleb128 0x19
 1056 00d0 11       		.uleb128 0x11
 1057 00d1 01       		.uleb128 0x1
 1058 00d2 12       		.uleb128 0x12
 1059 00d3 06       		.uleb128 0x6
 1060 00d4 40       		.uleb128 0x40
 1061 00d5 18       		.uleb128 0x18
 1062 00d6 9742     		.uleb128 0x2117
 1063 00d8 19       		.uleb128 0x19
 1064 00d9 01       		.uleb128 0x1
 1065 00da 13       		.uleb128 0x13
 1066 00db 00       		.byte	0
 1067 00dc 00       		.byte	0
 1068 00dd 10       		.uleb128 0x10
 1069 00de 1D       		.uleb128 0x1d
 1070 00df 00       		.byte	0
 1071 00e0 31       		.uleb128 0x31
 1072 00e1 13       		.uleb128 0x13
 1073 00e2 11       		.uleb128 0x11
 1074 00e3 01       		.uleb128 0x1
 1075 00e4 12       		.uleb128 0x12
 1076 00e5 06       		.uleb128 0x6
 1077 00e6 58       		.uleb128 0x58
 1078 00e7 0B       		.uleb128 0xb
 1079 00e8 59       		.uleb128 0x59
 1080 00e9 0B       		.uleb128 0xb
 1081 00ea 00       		.byte	0
 1082 00eb 00       		.byte	0
 1083 00ec 11       		.uleb128 0x11
 1084 00ed 1D       		.uleb128 0x1d
 1085 00ee 01       		.byte	0x1
 1086 00ef 31       		.uleb128 0x31
 1087 00f0 13       		.uleb128 0x13
 1088 00f1 11       		.uleb128 0x11
 1089 00f2 01       		.uleb128 0x1
 1090 00f3 12       		.uleb128 0x12
 1091 00f4 06       		.uleb128 0x6
 1092 00f5 58       		.uleb128 0x58
 1093 00f6 0B       		.uleb128 0xb
 1094 00f7 59       		.uleb128 0x59
 1095 00f8 0B       		.uleb128 0xb
 1096 00f9 01       		.uleb128 0x1
 1097 00fa 13       		.uleb128 0x13
 1098 00fb 00       		.byte	0
 1099 00fc 00       		.byte	0
 1100 00fd 12       		.uleb128 0x12
 1101 00fe 05       		.uleb128 0x5
 1102 00ff 00       		.byte	0
 1103 0100 31       		.uleb128 0x31
 1104 0101 13       		.uleb128 0x13
ARM GAS  C:\Users\aupen\AppData\Local\Temp\ccT4drrU.s 			page 28


 1105 0102 02       		.uleb128 0x2
 1106 0103 17       		.uleb128 0x17
 1107 0104 00       		.byte	0
 1108 0105 00       		.byte	0
 1109 0106 13       		.uleb128 0x13
 1110 0107 0B       		.uleb128 0xb
 1111 0108 01       		.byte	0x1
 1112 0109 11       		.uleb128 0x11
 1113 010a 01       		.uleb128 0x1
 1114 010b 12       		.uleb128 0x12
 1115 010c 06       		.uleb128 0x6
 1116 010d 00       		.byte	0
 1117 010e 00       		.byte	0
 1118 010f 14       		.uleb128 0x14
 1119 0110 34       		.uleb128 0x34
 1120 0111 00       		.byte	0
 1121 0112 31       		.uleb128 0x31
 1122 0113 13       		.uleb128 0x13
 1123 0114 02       		.uleb128 0x2
 1124 0115 17       		.uleb128 0x17
 1125 0116 00       		.byte	0
 1126 0117 00       		.byte	0
 1127 0118 15       		.uleb128 0x15
 1128 0119 05       		.uleb128 0x5
 1129 011a 00       		.byte	0
 1130 011b 03       		.uleb128 0x3
 1131 011c 0E       		.uleb128 0xe
 1132 011d 3A       		.uleb128 0x3a
 1133 011e 0B       		.uleb128 0xb
 1134 011f 3B       		.uleb128 0x3b
 1135 0120 0B       		.uleb128 0xb
 1136 0121 49       		.uleb128 0x49
 1137 0122 13       		.uleb128 0x13
 1138 0123 02       		.uleb128 0x2
 1139 0124 18       		.uleb128 0x18
 1140 0125 00       		.byte	0
 1141 0126 00       		.byte	0
 1142 0127 16       		.uleb128 0x16
 1143 0128 1D       		.uleb128 0x1d
 1144 0129 01       		.byte	0x1
 1145 012a 31       		.uleb128 0x31
 1146 012b 13       		.uleb128 0x13
 1147 012c 52       		.uleb128 0x52
 1148 012d 01       		.uleb128 0x1
 1149 012e 55       		.uleb128 0x55
 1150 012f 17       		.uleb128 0x17
 1151 0130 58       		.uleb128 0x58
 1152 0131 0B       		.uleb128 0xb
 1153 0132 59       		.uleb128 0x59
 1154 0133 0B       		.uleb128 0xb
 1155 0134 01       		.uleb128 0x1
 1156 0135 13       		.uleb128 0x13
 1157 0136 00       		.byte	0
 1158 0137 00       		.byte	0
 1159 0138 17       		.uleb128 0x17
 1160 0139 0B       		.uleb128 0xb
 1161 013a 01       		.byte	0x1
ARM GAS  C:\Users\aupen\AppData\Local\Temp\ccT4drrU.s 			page 29


 1162 013b 55       		.uleb128 0x55
 1163 013c 17       		.uleb128 0x17
 1164 013d 00       		.byte	0
 1165 013e 00       		.byte	0
 1166 013f 18       		.uleb128 0x18
 1167 0140 1D       		.uleb128 0x1d
 1168 0141 01       		.byte	0x1
 1169 0142 31       		.uleb128 0x31
 1170 0143 13       		.uleb128 0x13
 1171 0144 11       		.uleb128 0x11
 1172 0145 01       		.uleb128 0x1
 1173 0146 12       		.uleb128 0x12
 1174 0147 06       		.uleb128 0x6
 1175 0148 58       		.uleb128 0x58
 1176 0149 0B       		.uleb128 0xb
 1177 014a 59       		.uleb128 0x59
 1178 014b 0B       		.uleb128 0xb
 1179 014c 00       		.byte	0
 1180 014d 00       		.byte	0
 1181 014e 19       		.uleb128 0x19
 1182 014f 05       		.uleb128 0x5
 1183 0150 00       		.byte	0
 1184 0151 31       		.uleb128 0x31
 1185 0152 13       		.uleb128 0x13
 1186 0153 00       		.byte	0
 1187 0154 00       		.byte	0
 1188 0155 1A       		.uleb128 0x1a
 1189 0156 2E       		.uleb128 0x2e
 1190 0157 01       		.byte	0x1
 1191 0158 31       		.uleb128 0x31
 1192 0159 13       		.uleb128 0x13
 1193 015a 11       		.uleb128 0x11
 1194 015b 01       		.uleb128 0x1
 1195 015c 12       		.uleb128 0x12
 1196 015d 06       		.uleb128 0x6
 1197 015e 40       		.uleb128 0x40
 1198 015f 18       		.uleb128 0x18
 1199 0160 9742     		.uleb128 0x2117
 1200 0162 19       		.uleb128 0x19
 1201 0163 01       		.uleb128 0x1
 1202 0164 13       		.uleb128 0x13
 1203 0165 00       		.byte	0
 1204 0166 00       		.byte	0
 1205 0167 1B       		.uleb128 0x1b
 1206 0168 05       		.uleb128 0x5
 1207 0169 00       		.byte	0
 1208 016a 31       		.uleb128 0x31
 1209 016b 13       		.uleb128 0x13
 1210 016c 02       		.uleb128 0x2
 1211 016d 18       		.uleb128 0x18
 1212 016e 00       		.byte	0
 1213 016f 00       		.byte	0
 1214 0170 1C       		.uleb128 0x1c
 1215 0171 34       		.uleb128 0x34
 1216 0172 00       		.byte	0
 1217 0173 31       		.uleb128 0x31
 1218 0174 13       		.uleb128 0x13
ARM GAS  C:\Users\aupen\AppData\Local\Temp\ccT4drrU.s 			page 30


 1219 0175 02       		.uleb128 0x2
 1220 0176 18       		.uleb128 0x18
 1221 0177 00       		.byte	0
 1222 0178 00       		.byte	0
 1223 0179 1D       		.uleb128 0x1d
 1224 017a 2E       		.uleb128 0x2e
 1225 017b 01       		.byte	0x1
 1226 017c 3F       		.uleb128 0x3f
 1227 017d 19       		.uleb128 0x19
 1228 017e 03       		.uleb128 0x3
 1229 017f 0E       		.uleb128 0xe
 1230 0180 3A       		.uleb128 0x3a
 1231 0181 0B       		.uleb128 0xb
 1232 0182 3B       		.uleb128 0x3b
 1233 0183 0B       		.uleb128 0xb
 1234 0184 27       		.uleb128 0x27
 1235 0185 19       		.uleb128 0x19
 1236 0186 49       		.uleb128 0x49
 1237 0187 13       		.uleb128 0x13
 1238 0188 11       		.uleb128 0x11
 1239 0189 01       		.uleb128 0x1
 1240 018a 12       		.uleb128 0x12
 1241 018b 06       		.uleb128 0x6
 1242 018c 40       		.uleb128 0x40
 1243 018d 18       		.uleb128 0x18
 1244 018e 9742     		.uleb128 0x2117
 1245 0190 19       		.uleb128 0x19
 1246 0191 01       		.uleb128 0x1
 1247 0192 13       		.uleb128 0x13
 1248 0193 00       		.byte	0
 1249 0194 00       		.byte	0
 1250 0195 1E       		.uleb128 0x1e
 1251 0196 34       		.uleb128 0x34
 1252 0197 00       		.byte	0
 1253 0198 03       		.uleb128 0x3
 1254 0199 0E       		.uleb128 0xe
 1255 019a 3A       		.uleb128 0x3a
 1256 019b 0B       		.uleb128 0xb
 1257 019c 3B       		.uleb128 0x3b
 1258 019d 0B       		.uleb128 0xb
 1259 019e 49       		.uleb128 0x49
 1260 019f 13       		.uleb128 0x13
 1261 01a0 02       		.uleb128 0x2
 1262 01a1 17       		.uleb128 0x17
 1263 01a2 00       		.byte	0
 1264 01a3 00       		.byte	0
 1265 01a4 1F       		.uleb128 0x1f
 1266 01a5 2E       		.uleb128 0x2e
 1267 01a6 01       		.byte	0x1
 1268 01a7 3F       		.uleb128 0x3f
 1269 01a8 19       		.uleb128 0x19
 1270 01a9 03       		.uleb128 0x3
 1271 01aa 0E       		.uleb128 0xe
 1272 01ab 3A       		.uleb128 0x3a
 1273 01ac 0B       		.uleb128 0xb
 1274 01ad 3B       		.uleb128 0x3b
 1275 01ae 05       		.uleb128 0x5
ARM GAS  C:\Users\aupen\AppData\Local\Temp\ccT4drrU.s 			page 31


 1276 01af 27       		.uleb128 0x27
 1277 01b0 19       		.uleb128 0x19
 1278 01b1 49       		.uleb128 0x49
 1279 01b2 13       		.uleb128 0x13
 1280 01b3 11       		.uleb128 0x11
 1281 01b4 01       		.uleb128 0x1
 1282 01b5 12       		.uleb128 0x12
 1283 01b6 06       		.uleb128 0x6
 1284 01b7 40       		.uleb128 0x40
 1285 01b8 18       		.uleb128 0x18
 1286 01b9 9742     		.uleb128 0x2117
 1287 01bb 19       		.uleb128 0x19
 1288 01bc 01       		.uleb128 0x1
 1289 01bd 13       		.uleb128 0x13
 1290 01be 00       		.byte	0
 1291 01bf 00       		.byte	0
 1292 01c0 20       		.uleb128 0x20
 1293 01c1 34       		.uleb128 0x34
 1294 01c2 00       		.byte	0
 1295 01c3 03       		.uleb128 0x3
 1296 01c4 0E       		.uleb128 0xe
 1297 01c5 3A       		.uleb128 0x3a
 1298 01c6 0B       		.uleb128 0xb
 1299 01c7 3B       		.uleb128 0x3b
 1300 01c8 05       		.uleb128 0x5
 1301 01c9 49       		.uleb128 0x49
 1302 01ca 13       		.uleb128 0x13
 1303 01cb 02       		.uleb128 0x2
 1304 01cc 17       		.uleb128 0x17
 1305 01cd 00       		.byte	0
 1306 01ce 00       		.byte	0
 1307 01cf 21       		.uleb128 0x21
 1308 01d0 2E       		.uleb128 0x2e
 1309 01d1 00       		.byte	0
 1310 01d2 31       		.uleb128 0x31
 1311 01d3 13       		.uleb128 0x13
 1312 01d4 11       		.uleb128 0x11
 1313 01d5 01       		.uleb128 0x1
 1314 01d6 12       		.uleb128 0x12
 1315 01d7 06       		.uleb128 0x6
 1316 01d8 40       		.uleb128 0x40
 1317 01d9 18       		.uleb128 0x18
 1318 01da 9742     		.uleb128 0x2117
 1319 01dc 19       		.uleb128 0x19
 1320 01dd 00       		.byte	0
 1321 01de 00       		.byte	0
 1322 01df 22       		.uleb128 0x22
 1323 01e0 2E       		.uleb128 0x2e
 1324 01e1 00       		.byte	0
 1325 01e2 3F       		.uleb128 0x3f
 1326 01e3 19       		.uleb128 0x19
 1327 01e4 03       		.uleb128 0x3
 1328 01e5 0E       		.uleb128 0xe
 1329 01e6 3A       		.uleb128 0x3a
 1330 01e7 0B       		.uleb128 0xb
 1331 01e8 3B       		.uleb128 0x3b
 1332 01e9 05       		.uleb128 0x5
ARM GAS  C:\Users\aupen\AppData\Local\Temp\ccT4drrU.s 			page 32


 1333 01ea 27       		.uleb128 0x27
 1334 01eb 19       		.uleb128 0x19
 1335 01ec 49       		.uleb128 0x49
 1336 01ed 13       		.uleb128 0x13
 1337 01ee 11       		.uleb128 0x11
 1338 01ef 01       		.uleb128 0x1
 1339 01f0 12       		.uleb128 0x12
 1340 01f1 06       		.uleb128 0x6
 1341 01f2 40       		.uleb128 0x40
 1342 01f3 18       		.uleb128 0x18
 1343 01f4 9742     		.uleb128 0x2117
 1344 01f6 19       		.uleb128 0x19
 1345 01f7 00       		.byte	0
 1346 01f8 00       		.byte	0
 1347 01f9 23       		.uleb128 0x23
 1348 01fa 2E       		.uleb128 0x2e
 1349 01fb 00       		.byte	0
 1350 01fc 3F       		.uleb128 0x3f
 1351 01fd 19       		.uleb128 0x19
 1352 01fe 03       		.uleb128 0x3
 1353 01ff 0E       		.uleb128 0xe
 1354 0200 3A       		.uleb128 0x3a
 1355 0201 0B       		.uleb128 0xb
 1356 0202 3B       		.uleb128 0x3b
 1357 0203 05       		.uleb128 0x5
 1358 0204 27       		.uleb128 0x27
 1359 0205 19       		.uleb128 0x19
 1360 0206 11       		.uleb128 0x11
 1361 0207 01       		.uleb128 0x1
 1362 0208 12       		.uleb128 0x12
 1363 0209 06       		.uleb128 0x6
 1364 020a 40       		.uleb128 0x40
 1365 020b 18       		.uleb128 0x18
 1366 020c 9742     		.uleb128 0x2117
 1367 020e 19       		.uleb128 0x19
 1368 020f 00       		.byte	0
 1369 0210 00       		.byte	0
 1370 0211 00       		.byte	0
 1371              		.section	.debug_loc,"",%progbits
 1372              	.Ldebug_loc0:
 1373              	.LLST0:
 1374 0000 06000000 		.4byte	.LVL0
 1375 0004 10000000 		.4byte	.LVL2
 1376 0008 0600     		.2byte	0x6
 1377 000a 03       		.byte	0x3
 1378 000b 00000000 		.4byte	ADC_SAR_IRQ_Interrupt
 1379 000f 9F       		.byte	0x9f
 1380 0010 00000000 		.4byte	0
 1381 0014 00000000 		.4byte	0
 1382              	.LLST1:
 1383 0018 0C000000 		.4byte	.LVL1
 1384 001c 10000000 		.4byte	.LVL2
 1385 0020 0100     		.2byte	0x1
 1386 0022 52       		.byte	0x52
 1387 0023 00000000 		.4byte	0
 1388 0027 00000000 		.4byte	0
 1389              	.LLST2:
ARM GAS  C:\Users\aupen\AppData\Local\Temp\ccT4drrU.s 			page 33


 1390 002b 10000000 		.4byte	.LVL2
 1391 002f 16000000 		.4byte	.LVL3
 1392 0033 0200     		.2byte	0x2
 1393 0035 37       		.byte	0x37
 1394 0036 9F       		.byte	0x9f
 1395 0037 00000000 		.4byte	0
 1396 003b 00000000 		.4byte	0
 1397              	.LLST3:
 1398 003f 06000000 		.4byte	.LVL5
 1399 0043 10000000 		.4byte	.LVL7
 1400 0047 0100     		.2byte	0x1
 1401 0049 50       		.byte	0x50
 1402 004a 00000000 		.4byte	0
 1403 004e 00000000 		.4byte	0
 1404              	.LLST4:
 1405 0052 0C000000 		.4byte	.LVL6
 1406 0056 10000000 		.4byte	.LVL7
 1407 005a 0100     		.2byte	0x1
 1408 005c 52       		.byte	0x52
 1409 005d 00000000 		.4byte	0
 1410 0061 00000000 		.4byte	0
 1411              	.LLST5:
 1412 0065 10000000 		.4byte	.LVL7
 1413 0069 14000000 		.4byte	.LVL8
 1414 006d 0200     		.2byte	0x2
 1415 006f 37       		.byte	0x37
 1416 0070 9F       		.byte	0x9f
 1417 0071 00000000 		.4byte	0
 1418 0075 00000000 		.4byte	0
 1419              	.LLST6:
 1420 0079 0C000000 		.4byte	.LVL10
 1421 007d 10000000 		.4byte	.LVL11
 1422 0081 0100     		.2byte	0x1
 1423 0083 53       		.byte	0x53
 1424 0084 00000000 		.4byte	0
 1425 0088 00000000 		.4byte	0
 1426              	.LLST7:
 1427 008c 00000000 		.4byte	.LVL14
 1428 0090 02000000 		.4byte	.LVL15
 1429 0094 0600     		.2byte	0x6
 1430 0096 11       		.byte	0x11
 1431 0097 88DA8380 		.sleb128 -536810232
 1431      7E
 1432 009c 02000000 		.4byte	.LVL15
 1433 00a0 04000000 		.4byte	.LVL16
 1434 00a4 0200     		.2byte	0x2
 1435 00a6 73       		.byte	0x73
 1436 00a7 00       		.sleb128 0
 1437 00a8 04000000 		.4byte	.LVL16
 1438 00ac 0C000000 		.4byte	.LFE5
 1439 00b0 0100     		.2byte	0x1
 1440 00b2 53       		.byte	0x53
 1441 00b3 00000000 		.4byte	0
 1442 00b7 00000000 		.4byte	0
 1443              	.LLST8:
 1444 00bb 00000000 		.4byte	.LVL17
 1445 00bf 02000000 		.4byte	.LVL18
ARM GAS  C:\Users\aupen\AppData\Local\Temp\ccT4drrU.s 			page 34


 1446 00c3 0100     		.2byte	0x1
 1447 00c5 50       		.byte	0x50
 1448 00c6 02000000 		.4byte	.LVL18
 1449 00ca 10000000 		.4byte	.LFE6
 1450 00ce 0400     		.2byte	0x4
 1451 00d0 F3       		.byte	0xf3
 1452 00d1 01       		.uleb128 0x1
 1453 00d2 50       		.byte	0x50
 1454 00d3 9F       		.byte	0x9f
 1455 00d4 00000000 		.4byte	0
 1456 00d8 00000000 		.4byte	0
 1457              	.LLST9:
 1458 00dc 04000000 		.4byte	.LVL19
 1459 00e0 06000000 		.4byte	.LVL20
 1460 00e4 0500     		.2byte	0x5
 1461 00e6 70       		.byte	0x70
 1462 00e7 00       		.sleb128 0
 1463 00e8 35       		.byte	0x35
 1464 00e9 25       		.byte	0x25
 1465 00ea 9F       		.byte	0x9f
 1466 00eb 00000000 		.4byte	0
 1467 00ef 00000000 		.4byte	0
 1468              		.section	.debug_aranges,"",%progbits
 1469 0000 7C000000 		.4byte	0x7c
 1470 0004 0200     		.2byte	0x2
 1471 0006 00000000 		.4byte	.Ldebug_info0
 1472 000a 04       		.byte	0x4
 1473 000b 00       		.byte	0
 1474 000c 0000     		.2byte	0
 1475 000e 0000     		.2byte	0
 1476 0010 00000000 		.4byte	.LFB3
 1477 0014 02000000 		.4byte	.LFE3-.LFB3
 1478 0018 00000000 		.4byte	.LFB0
 1479 001c 2C000000 		.4byte	.LFE0-.LFB0
 1480 0020 00000000 		.4byte	.LFB1
 1481 0024 24000000 		.4byte	.LFE1-.LFB1
 1482 0028 00000000 		.4byte	.LFB2
 1483 002c 1C000000 		.4byte	.LFE2-.LFB2
 1484 0030 00000000 		.4byte	.LFB4
 1485 0034 0C000000 		.4byte	.LFE4-.LFB4
 1486 0038 00000000 		.4byte	.LFB5
 1487 003c 0C000000 		.4byte	.LFE5-.LFB5
 1488 0040 00000000 		.4byte	.LFB6
 1489 0044 10000000 		.4byte	.LFE6-.LFB6
 1490 0048 00000000 		.4byte	.LFB7
 1491 004c 0C000000 		.4byte	.LFE7-.LFB7
 1492 0050 00000000 		.4byte	.LFB8
 1493 0054 0C000000 		.4byte	.LFE8-.LFB8
 1494 0058 00000000 		.4byte	.LFB9
 1495 005c 10000000 		.4byte	.LFE9-.LFB9
 1496 0060 00000000 		.4byte	.LFB10
 1497 0064 0C000000 		.4byte	.LFE10-.LFB10
 1498 0068 00000000 		.4byte	.LFB11
 1499 006c 0C000000 		.4byte	.LFE11-.LFB11
 1500 0070 00000000 		.4byte	.LFB12
 1501 0074 0C000000 		.4byte	.LFE12-.LFB12
 1502 0078 00000000 		.4byte	0
ARM GAS  C:\Users\aupen\AppData\Local\Temp\ccT4drrU.s 			page 35


 1503 007c 00000000 		.4byte	0
 1504              		.section	.debug_ranges,"",%progbits
 1505              	.Ldebug_ranges0:
 1506 0000 06000000 		.4byte	.LBB32
 1507 0004 0C000000 		.4byte	.LBE32
 1508 0008 0E000000 		.4byte	.LBB38
 1509 000c 10000000 		.4byte	.LBE38
 1510 0010 00000000 		.4byte	0
 1511 0014 00000000 		.4byte	0
 1512 0018 0C000000 		.4byte	.LBB35
 1513 001c 0E000000 		.4byte	.LBE35
 1514 0020 10000000 		.4byte	.LBB39
 1515 0024 14000000 		.4byte	.LBE39
 1516 0028 00000000 		.4byte	0
 1517 002c 00000000 		.4byte	0
 1518 0030 00000000 		.4byte	.LFB3
 1519 0034 02000000 		.4byte	.LFE3
 1520 0038 00000000 		.4byte	.LFB0
 1521 003c 2C000000 		.4byte	.LFE0
 1522 0040 00000000 		.4byte	.LFB1
 1523 0044 24000000 		.4byte	.LFE1
 1524 0048 00000000 		.4byte	.LFB2
 1525 004c 1C000000 		.4byte	.LFE2
 1526 0050 00000000 		.4byte	.LFB4
 1527 0054 0C000000 		.4byte	.LFE4
 1528 0058 00000000 		.4byte	.LFB5
 1529 005c 0C000000 		.4byte	.LFE5
 1530 0060 00000000 		.4byte	.LFB6
 1531 0064 10000000 		.4byte	.LFE6
 1532 0068 00000000 		.4byte	.LFB7
 1533 006c 0C000000 		.4byte	.LFE7
 1534 0070 00000000 		.4byte	.LFB8
 1535 0074 0C000000 		.4byte	.LFE8
 1536 0078 00000000 		.4byte	.LFB9
 1537 007c 10000000 		.4byte	.LFE9
 1538 0080 00000000 		.4byte	.LFB10
 1539 0084 0C000000 		.4byte	.LFE10
 1540 0088 00000000 		.4byte	.LFB11
 1541 008c 0C000000 		.4byte	.LFE11
 1542 0090 00000000 		.4byte	.LFB12
 1543 0094 0C000000 		.4byte	.LFE12
 1544 0098 00000000 		.4byte	0
 1545 009c 00000000 		.4byte	0
 1546              		.section	.debug_line,"",%progbits
 1547              	.Ldebug_line0:
 1548 0000 57010000 		.section	.debug_str,"MS",%progbits,1
 1548      02004800 
 1548      00000201 
 1548      FB0E0D00 
 1548      01010101 
 1549              	.LASF17:
 1550 0000 72656733 		.ascii	"reg32\000"
 1550      3200
 1551              	.LASF36:
 1552 0006 433A5C55 		.ascii	"C:\\Users\\aupen\\OneDrive\\Desktop\\robocode\\line"
 1552      73657273 
 1552      5C617570 
ARM GAS  C:\Users\aupen\AppData\Local\Temp\ccT4drrU.s 			page 36


 1552      656E5C4F 
 1552      6E654472 
 1553 0033 666F6C6C 		.ascii	"follower\\S1.cydsn\000"
 1553      6F776572 
 1553      5C53312E 
 1553      63796473 
 1553      6E00
 1554              	.LASF6:
 1555 0045 73686F72 		.ascii	"short unsigned int\000"
 1555      7420756E 
 1555      7369676E 
 1555      65642069 
 1555      6E7400
 1556              	.LASF0:
 1557 0058 756E7369 		.ascii	"unsigned int\000"
 1557      676E6564 
 1557      20696E74 
 1557      00
 1558              	.LASF26:
 1559 0065 4144435F 		.ascii	"ADC_SAR_IRQ_StartEx\000"
 1559      5341525F 
 1559      4952515F 
 1559      53746172 
 1559      74457800 
 1560              	.LASF20:
 1561 0079 4144435F 		.ascii	"ADC_SAR_IRQ_SetVector\000"
 1561      5341525F 
 1561      4952515F 
 1561      53657456 
 1561      6563746F 
 1562              	.LASF14:
 1563 008f 666C6F61 		.ascii	"float\000"
 1563      7400
 1564              	.LASF32:
 1565 0095 4144435F 		.ascii	"ADC_SAR_IRQ_SetPending\000"
 1565      5341525F 
 1565      4952515F 
 1565      53657450 
 1565      656E6469 
 1566              	.LASF4:
 1567 00ac 756E7369 		.ascii	"unsigned char\000"
 1567      676E6564 
 1567      20636861 
 1567      7200
 1568              	.LASF16:
 1569 00ba 72656738 		.ascii	"reg8\000"
 1569      00
 1570              	.LASF23:
 1571 00bf 4144435F 		.ascii	"ADC_SAR_IRQ_Enable\000"
 1571      5341525F 
 1571      4952515F 
 1571      456E6162 
 1571      6C6500
 1572              	.LASF34:
 1573 00d2 474E5520 		.ascii	"GNU C11 5.4.1 20160609 (release) [ARM/embedded-5-br"
 1573      43313120 
 1573      352E342E 
ARM GAS  C:\Users\aupen\AppData\Local\Temp\ccT4drrU.s 			page 37


 1573      31203230 
 1573      31363036 
 1574 0105 616E6368 		.ascii	"anch revision 237715] -mcpu=cortex-m3 -mthumb -g -O"
 1574      20726576 
 1574      6973696F 
 1574      6E203233 
 1574      37373135 
 1575 0138 73202D66 		.ascii	"s -ffunction-sections -ffat-lto-objects\000"
 1575      66756E63 
 1575      74696F6E 
 1575      2D736563 
 1575      74696F6E 
 1576              	.LASF12:
 1577 0160 75696E74 		.ascii	"uint8\000"
 1577      3800
 1578              	.LASF24:
 1579 0166 4144435F 		.ascii	"ADC_SAR_IRQ_Disable\000"
 1579      5341525F 
 1579      4952515F 
 1579      44697361 
 1579      626C6500 
 1580              	.LASF21:
 1581 017a 7072696F 		.ascii	"priority\000"
 1581      72697479 
 1581      00
 1582              	.LASF15:
 1583 0183 646F7562 		.ascii	"double\000"
 1583      6C6500
 1584              	.LASF5:
 1585 018a 73686F72 		.ascii	"short int\000"
 1585      7420696E 
 1585      7400
 1586              	.LASF33:
 1587 0194 4144435F 		.ascii	"ADC_SAR_IRQ_ClearPending\000"
 1587      5341525F 
 1587      4952515F 
 1587      436C6561 
 1587      7250656E 
 1588              	.LASF19:
 1589 01ad 4144435F 		.ascii	"ADC_SAR_IRQ_SetPriority\000"
 1589      5341525F 
 1589      4952515F 
 1589      53657450 
 1589      72696F72 
 1590              	.LASF27:
 1591 01c5 4144435F 		.ascii	"ADC_SAR_IRQ_Stop\000"
 1591      5341525F 
 1591      4952515F 
 1591      53746F70 
 1591      00
 1592              	.LASF25:
 1593 01d6 4144435F 		.ascii	"ADC_SAR_IRQ_Start\000"
 1593      5341525F 
 1593      4952515F 
 1593      53746172 
 1593      7400
 1594              	.LASF13:
ARM GAS  C:\Users\aupen\AppData\Local\Temp\ccT4drrU.s 			page 38


 1595 01e8 75696E74 		.ascii	"uint32\000"
 1595      333200
 1596              	.LASF8:
 1597 01ef 6C6F6E67 		.ascii	"long unsigned int\000"
 1597      20756E73 
 1597      69676E65 
 1597      6420696E 
 1597      7400
 1598              	.LASF35:
 1599 0201 47656E65 		.ascii	"Generated_Source\\PSoC5\\ADC_SAR_IRQ.c\000"
 1599      72617465 
 1599      645F536F 
 1599      75726365 
 1599      5C50536F 
 1600              	.LASF22:
 1601 0226 61646472 		.ascii	"address\000"
 1601      65737300 
 1602              	.LASF9:
 1603 022e 6C6F6E67 		.ascii	"long long unsigned int\000"
 1603      206C6F6E 
 1603      6720756E 
 1603      7369676E 
 1603      65642069 
 1604              	.LASF28:
 1605 0245 4144435F 		.ascii	"ADC_SAR_IRQ_GetVector\000"
 1605      5341525F 
 1605      4952515F 
 1605      47657456 
 1605      6563746F 
 1606              	.LASF18:
 1607 025b 63796973 		.ascii	"cyisraddress\000"
 1607      72616464 
 1607      72657373 
 1607      00
 1608              	.LASF10:
 1609 0268 73697A65 		.ascii	"sizetype\000"
 1609      74797065 
 1609      00
 1610              	.LASF1:
 1611 0271 6C6F6E67 		.ascii	"long long int\000"
 1611      206C6F6E 
 1611      6720696E 
 1611      7400
 1612              	.LASF11:
 1613 027f 63686172 		.ascii	"char\000"
 1613      00
 1614              	.LASF30:
 1615 0284 72616D56 		.ascii	"ramVectorTable\000"
 1615      6563746F 
 1615      72546162 
 1615      6C6500
 1616              	.LASF31:
 1617 0293 4144435F 		.ascii	"ADC_SAR_IRQ_Interrupt\000"
 1617      5341525F 
 1617      4952515F 
 1617      496E7465 
 1617      72727570 
ARM GAS  C:\Users\aupen\AppData\Local\Temp\ccT4drrU.s 			page 39


 1618              	.LASF37:
 1619 02a9 4144435F 		.ascii	"ADC_SAR_IRQ_GetState\000"
 1619      5341525F 
 1619      4952515F 
 1619      47657453 
 1619      74617465 
 1620              	.LASF29:
 1621 02be 4144435F 		.ascii	"ADC_SAR_IRQ_GetPriority\000"
 1621      5341525F 
 1621      4952515F 
 1621      47657450 
 1621      72696F72 
 1622              	.LASF7:
 1623 02d6 6C6F6E67 		.ascii	"long int\000"
 1623      20696E74 
 1623      00
 1624              	.LASF2:
 1625 02df 6C6F6E67 		.ascii	"long double\000"
 1625      20646F75 
 1625      626C6500 
 1626              	.LASF3:
 1627 02eb 7369676E 		.ascii	"signed char\000"
 1627      65642063 
 1627      68617200 
 1628              		.ident	"GCC: (GNU Tools for ARM Embedded Processors) 5.4.1 20160609 (release) [ARM/embedded-5-bran
