ARM GAS  C:\Users\aupen\AppData\Local\Temp\cc9dMVob.s 			page 1


   1              		.syntax unified
   2              		.cpu cortex-m3
   3              		.fpu softvfp
   4              		.eabi_attribute 20, 1
   5              		.eabi_attribute 21, 1
   6              		.eabi_attribute 23, 3
   7              		.eabi_attribute 24, 1
   8              		.eabi_attribute 25, 1
   9              		.eabi_attribute 26, 1
  10              		.eabi_attribute 30, 4
  11              		.eabi_attribute 34, 1
  12              		.eabi_attribute 18, 4
  13              		.thumb
  14              		.syntax unified
  15              		.file	"main.c"
  16              		.text
  17              	.Ltext0:
  18              		.cfi_sections	.debug_frame
  19              		.section	.text.Go,"ax",%progbits
  20              		.align	1
  21              		.global	Go
  22              		.thumb
  23              		.thumb_func
  24              		.type	Go, %function
  25              	Go:
  26              	.LFB1:
  27              		.file 1 "main.c"
   1:main.c        **** /* ========================================
   2:main.c        ****  *
   3:main.c        ****  * Copyright YOUR COMPANY, THE YEAR
   4:main.c        ****  * All Rights Reserved
   5:main.c        ****  * UNPUBLISHED, LICENSED SOFTWARE.
   6:main.c        ****  *
   7:main.c        ****  * CONFIDENTIAL AND PROPRIETARY INFORMATION
   8:main.c        ****  * WHICH IS THE PROPERTY OF your company.
   9:main.c        ****  *
  10:main.c        ****  * ========================================
  11:main.c        **** */
  12:main.c        **** #include "project.h"
  13:main.c        **** #include <stdlib.h>
  14:main.c        **** #include "stdio.h"
  15:main.c        **** #include "sensors.h"
  16:main.c        **** #include "drive.h"
  17:main.c        **** #include "console.h"
  18:main.c        **** #include "esc.h"
  19:main.c        **** #include "timer_time.h"
  20:main.c        **** #include "RCsensors.h"
  21:main.c        **** #include "bt_app.h"
  22:main.c        **** #include "esc_control.h"
  23:main.c        **** 
  24:main.c        **** 
  25:main.c        **** 
  26:main.c        **** unsigned int sensorValues[10];
  27:main.c        **** int32_t motorSpeed;
  28:main.c        **** int Kp = 6;
  29:main.c        **** int Kd = 40;//100
  30:main.c        **** int baseSpeed = 50;
ARM GAS  C:\Users\aupen\AppData\Local\Temp\cc9dMVob.s 			page 2


  31:main.c        **** int turnSpeed = 50;
  32:main.c        **** int lastError = 0; 
  33:main.c        **** int errorbaseSpeed = 0;
  34:main.c        **** int stop = 0;
  35:main.c        **** 
  36:main.c        **** 
  37:main.c        **** 
  38:main.c        **** 
  39:main.c        **** 
  40:main.c        **** void Go(long motorSpeed) // Braukšanas funkcija (motorSpeed ir PID izrēķinātā vērtība)
  41:main.c        **** {
  28              		.loc 1 41 0
  29              		.cfi_startproc
  30              		@ args = 0, pretend = 0, frame = 0
  31              		@ frame_needed = 0, uses_anonymous_args = 0
  32              		@ link register save eliminated.
  33              	.LVL0:
  34 0000 024B     		ldr	r3, .L3
  42:main.c        ****   if (motorSpeed >= 0)
  43:main.c        ****   {
  44:main.c        ****     if (motorSpeed <= errorbaseSpeed)
  35              		.loc 1 44 0
  36 0002 1B68     		ldr	r3, [r3]
  45:main.c        ****     {
  46:main.c        ****       //leftm.drive(baseSpeed - motorSpeed);
  47:main.c        ****       //rightm.drive(baseSpeed); 
  48:main.c        ****         drive_motors(errorbaseSpeed - motorSpeed, errorbaseSpeed + motorSpeed);
  49:main.c        ****     }
  50:main.c        ****     else
  51:main.c        ****     {
  52:main.c        ****       //leftm.drive(-(motorSpeed - baseSpeed));
  53:main.c        ****       //rightm.drive(baseSpeed); 
  54:main.c        ****         drive_motors(-(motorSpeed - errorbaseSpeed), errorbaseSpeed + motorSpeed);
  37              		.loc 1 54 0
  38 0004 C118     		adds	r1, r0, r3
  39 0006 181A     		subs	r0, r3, r0
  40              	.LVL1:
  41              	.LBB4:
  42              	.LBB5:
  55:main.c        ****     }
  56:main.c        ****   }
  57:main.c        **** 
  58:main.c        ****   if (motorSpeed < 0)
  59:main.c        ****   {
  60:main.c        ****     if (abs(motorSpeed) <= errorbaseSpeed)
  61:main.c        ****     {
  62:main.c        ****       //leftm(baseSpeed);
  63:main.c        ****       //rightm(baseSpeed - abs(motorSpeed));
  64:main.c        ****         drive_motors(errorbaseSpeed + abs(motorSpeed), errorbaseSpeed - abs(motorSpeed));
  65:main.c        ****     }
  66:main.c        ****     else
  67:main.c        ****     {
  68:main.c        ****       //leftm(baseSpeed);
  69:main.c        ****       //rightm(-(abs(motorSpeed) - baseSpeed));
  70:main.c        ****     drive_motors(errorbaseSpeed + abs(motorSpeed), -(abs(motorSpeed) - errorbaseSpeed));
  43              		.loc 1 70 0
  44 0008 FFF7FEBF 		b	drive_motors
ARM GAS  C:\Users\aupen\AppData\Local\Temp\cc9dMVob.s 			page 3


  45              	.LVL2:
  46              	.L4:
  47              		.align	2
  48              	.L3:
  49 000c 00000000 		.word	.LANCHOR0
  50              	.LBE5:
  51              	.LBE4:
  52              		.cfi_endproc
  53              	.LFE1:
  54              		.size	Go, .-Go
  55              		.section	.text.startup.main,"ax",%progbits
  56              		.align	1
  57              		.global	main
  58              		.thumb
  59              		.thumb_func
  60              		.type	main, %function
  61              	main:
  62              	.LFB2:
  71:main.c        ****     }
  72:main.c        ****   }
  73:main.c        **** }
  74:main.c        **** 
  75:main.c        **** int main(void)
  76:main.c        **** {
  63              		.loc 1 76 0
  64              		.cfi_startproc
  65              		@ args = 0, pretend = 0, frame = 0
  66              		@ frame_needed = 0, uses_anonymous_args = 0
  67 0000 2DE9F047 		push	{r4, r5, r6, r7, r8, r9, r10, lr}
  68              		.cfi_def_cfa_offset 32
  69              		.cfi_offset 4, -32
  70              		.cfi_offset 5, -28
  71              		.cfi_offset 6, -24
  72              		.cfi_offset 7, -20
  73              		.cfi_offset 8, -16
  74              		.cfi_offset 9, -12
  75              		.cfi_offset 10, -8
  76              		.cfi_offset 14, -4
  77:main.c        ****     Motor_Init();
  77              		.loc 1 77 0
  78 0004 FFF7FEFF 		bl	Motor_Init
  79              	.LVL3:
  78:main.c        ****     Servo_Start();
  80              		.loc 1 78 0
  81 0008 FFF7FEFF 		bl	Servo_Start
  82              	.LVL4:
  79:main.c        ****     CyGlobalIntEnable; /* Enable global interrupts. */
  83              		.loc 1 79 0
  84              		.syntax unified
  85              	@ 79 "main.c" 1
  86 000c 62B6     		CPSIE   i
  87              	@ 0 "" 2
  80:main.c        ****     EscArm();
  88              		.loc 1 80 0
  89              		.thumb
  90              		.syntax unified
  91 000e FFF7FEFF 		bl	EscArm
ARM GAS  C:\Users\aupen\AppData\Local\Temp\cc9dMVob.s 			page 4


  92              	.LVL5:
  81:main.c        ****     //EscStop();
  82:main.c        ****     //console_start();
  83:main.c        ****     BT_Init();
  93              		.loc 1 83 0
  94 0012 FFF7FEFF 		bl	BT_Init
  95              	.LVL6:
  84:main.c        ****     ADC_SAR_Start();
  96              		.loc 1 84 0
  97 0016 FFF7FEFF 		bl	ADC_SAR_Start
  98              	.LVL7:
  85:main.c        ****     ADC_SAR_StartConvert();
  99              		.loc 1 85 0
 100 001a FFF7FEFF 		bl	ADC_SAR_StartConvert
 101              	.LVL8:
  86:main.c        ****     time_start();
 102              		.loc 1 86 0
 103 001e FFF7FEFF 		bl	time_start
 104              	.LVL9:
  87:main.c        ****     
  88:main.c        ****     //console_println("####LINEFOLLOWER####");
  89:main.c        ****     //console_print_int(microseconds());
  90:main.c        ****     
  91:main.c        ****     btValue.baseSpeed = baseSpeed;
 105              		.loc 1 91 0
 106 0022 3B4B     		ldr	r3, .L21
 107 0024 3B4C     		ldr	r4, .L21+4
 108 0026 1A68     		ldr	r2, [r3]
  92:main.c        ****     btValue.Kd = Kd;
  93:main.c        ****     btValue.Kp = Kp;
  94:main.c        ****     btValue.escSpeed = 1800 ;
  95:main.c        ****     btValue.turnSpeed = turnSpeed;
  96:main.c        ****     int oESC = 0;
  97:main.c        ****     
  98:main.c        ****     drive_forward(0,0);
 109              		.loc 1 98 0
 110 0028 0021     		movs	r1, #0
  91:main.c        ****     btValue.Kd = Kd;
 111              		.loc 1 91 0
 112 002a A260     		str	r2, [r4, #8]
  92:main.c        ****     btValue.Kd = Kd;
 113              		.loc 1 92 0
 114 002c 5A68     		ldr	r2, [r3, #4]
 115              		.loc 1 98 0
 116 002e 0846     		mov	r0, r1
  92:main.c        ****     btValue.Kd = Kd;
 117              		.loc 1 92 0
 118 0030 6260     		str	r2, [r4, #4]
  93:main.c        ****     btValue.escSpeed = 1800 ;
 119              		.loc 1 93 0
 120 0032 9A68     		ldr	r2, [r3, #8]
  95:main.c        ****     int oESC = 0;
 121              		.loc 1 95 0
 122 0034 DB68     		ldr	r3, [r3, #12]
  93:main.c        ****     btValue.escSpeed = 1800 ;
 123              		.loc 1 93 0
 124 0036 2260     		str	r2, [r4]
ARM GAS  C:\Users\aupen\AppData\Local\Temp\cc9dMVob.s 			page 5


  99:main.c        **** 
 100:main.c        ****     CyDelay(2000);
 101:main.c        ****     
 102:main.c        ****     for(;;)
 103:main.c        ****     {
 104:main.c        ****         if (Button_Read() == 0)
 105:main.c        ****         {
 106:main.c        ****             drive_forward(50,50);
 107:main.c        ****         }
 108:main.c        ****         else 
 109:main.c        ****         {
 110:main.c        ****             drive_forward(0,0);    
 111:main.c        ****         }
 112:main.c        ****             
 113:main.c        ****         
 114:main.c        ****         checkBtData();
 115:main.c        ****         //sensorsRawConsole();
 116:main.c        ****         if(btComands.escSpinning == 1)
 125              		.loc 1 116 0
 126 0038 374D     		ldr	r5, .L21+8
  94:main.c        ****     btValue.turnSpeed = turnSpeed;
 127              		.loc 1 94 0
 128 003a 4FF4E162 		mov	r2, #1800
 129 003e 2261     		str	r2, [r4, #16]
  95:main.c        ****     int oESC = 0;
 130              		.loc 1 95 0
 131 0040 E360     		str	r3, [r4, #12]
 132              	.LVL10:
  98:main.c        **** 
 133              		.loc 1 98 0
 134 0042 FFF7FEFF 		bl	drive_forward
 135              	.LVL11:
 100:main.c        ****     
 136              		.loc 1 100 0
 137 0046 4FF4FA60 		mov	r0, #2000
 138 004a FFF7FEFF 		bl	CyDelay
 139              	.LVL12:
 140 004e A846     		mov	r8, r5
 141 0050 A946     		mov	r9, r5
 142              	.L11:
 104:main.c        ****         {
 143              		.loc 1 104 0
 144 0052 FFF7FEFF 		bl	Button_Read
 145              	.LVL13:
 146 0056 08B9     		cbnz	r0, .L6
 106:main.c        ****         }
 147              		.loc 1 106 0
 148 0058 3221     		movs	r1, #50
 149 005a 00E0     		b	.L18
 150              	.L6:
 110:main.c        ****         }
 151              		.loc 1 110 0
 152 005c 0021     		movs	r1, #0
 153              	.L18:
 154 005e 0846     		mov	r0, r1
 155 0060 FFF7FEFF 		bl	drive_forward
 156              	.LVL14:
ARM GAS  C:\Users\aupen\AppData\Local\Temp\cc9dMVob.s 			page 6


 114:main.c        ****         //sensorsRawConsole();
 157              		.loc 1 114 0
 158 0064 FFF7FEFF 		bl	checkBtData
 159              	.LVL15:
 160              		.loc 1 116 0
 161 0068 6B68     		ldr	r3, [r5, #4]
 162 006a 012B     		cmp	r3, #1
 163 006c 02D1     		bne	.L8
 117:main.c        ****         {
 118:main.c        ****             escSpin();    
 164              		.loc 1 118 0
 165 006e FFF7FEFF 		bl	escSpin
 166              	.LVL16:
 167 0072 01E0     		b	.L9
 168              	.L8:
 119:main.c        ****         }
 120:main.c        ****         else 
 121:main.c        ****         {
 122:main.c        ****             EscStop();    
 169              		.loc 1 122 0
 170 0074 FFF7FEFF 		bl	EscStop
 171              	.LVL17:
 172              	.L9:
 123:main.c        ****         }
 124:main.c        ****         
 125:main.c        ****         
 126:main.c        ****         if (btComands.driving == 1)
 173              		.loc 1 126 0
 174 0078 D8F80030 		ldr	r3, [r8]
 175 007c 012B     		cmp	r3, #1
 176 007e E8D1     		bne	.L11
 177              	.LBB6:
 127:main.c        ****         {
 128:main.c        ****             while (btComands.driving == 1)
 129:main.c        ****             {        
 130:main.c        ****                 checkBtStop();
 131:main.c        ****                 int position = checkSensors(); // Šito pašam jāsarēķina
 132:main.c        ****         	    int error = (position - 7500); // 3500 ir vidējā vērtība
 133:main.c        ****                 
 134:main.c        ****                 if (abs(error) > 3500 )
 135:main.c        ****                 {
 136:main.c        ****                     errorbaseSpeed = btValue.baseSpeed ;
 178              		.loc 1 136 0
 179 0080 264E     		ldr	r6, .L21+12
 180 0082 244F     		ldr	r7, .L21+4
 137:main.c        ****                 }
 138:main.c        ****                 else 
 139:main.c        ****                 {
 140:main.c        ****                     errorbaseSpeed = btValue.baseSpeed ;
 141:main.c        ****                 }
 142:main.c        ****         	    motorSpeed = (btValue.Kp * error + btValue.Kd * (error - lastError)) / 2000; // / 500 
 181              		.loc 1 142 0
 182 0084 DFF898A0 		ldr	r10, .L21+16
 183              	.L10:
 184              	.LBE6:
 128:main.c        ****             {        
 185              		.loc 1 128 0
ARM GAS  C:\Users\aupen\AppData\Local\Temp\cc9dMVob.s 			page 7


 186 0088 D9F80030 		ldr	r3, [r9]
 187 008c 012B     		cmp	r3, #1
 188 008e 31D1     		bne	.L20
 189              	.LBB7:
 130:main.c        ****                 int position = checkSensors(); // Šito pašam jāsarēķina
 190              		.loc 1 130 0
 191 0090 FFF7FEFF 		bl	checkBtStop
 192              	.LVL18:
 131:main.c        ****         	    int error = (position - 7500); // 3500 ir vidējā vērtība
 193              		.loc 1 131 0
 194 0094 FFF7FEFF 		bl	checkSensors
 195              	.LVL19:
 136:main.c        ****                 }
 196              		.loc 1 136 0
 197 0098 A368     		ldr	r3, [r4, #8]
 132:main.c        ****                 
 198              		.loc 1 132 0
 199 009a A0F5EA52 		sub	r2, r0, #7488
 200              		.loc 1 142 0
 201 009e 2168     		ldr	r1, [r4]
 132:main.c        ****                 
 202              		.loc 1 132 0
 203 00a0 0C3A     		subs	r2, r2, #12
 204              	.LVL20:
 205              		.loc 1 142 0
 206 00a2 5143     		muls	r1, r2, r1
 136:main.c        ****                 }
 207              		.loc 1 136 0
 208 00a4 3360     		str	r3, [r6]
 209              		.loc 1 142 0
 210 00a6 7368     		ldr	r3, [r6, #4]
 143:main.c        ****         	    lastError = error;
 144:main.c        ****                 
 145:main.c        ****                 if (position <= 0 )
 211              		.loc 1 145 0
 212 00a8 0028     		cmp	r0, #0
 142:main.c        ****         	    lastError = error;
 213              		.loc 1 142 0
 214 00aa C3EB020E 		rsb	lr, r3, r2
 215 00ae 6368     		ldr	r3, [r4, #4]
 143:main.c        ****         	    lastError = error;
 216              		.loc 1 143 0
 217 00b0 7260     		str	r2, [r6, #4]
 142:main.c        ****         	    lastError = error;
 218              		.loc 1 142 0
 219 00b2 03FB0E13 		mla	r3, r3, lr, r1
 220 00b6 4FF4FA61 		mov	r1, #2000
 221 00ba 93FBF1F3 		sdiv	r3, r3, r1
 222 00be CAF80030 		str	r3, [r10]
 223              		.loc 1 145 0
 224 00c2 05DC     		bgt	.L12
 146:main.c        ****                 {
 147:main.c        ****                     turn_right(btValue.turnSpeed, btValue.turnSpeed - 10);
 225              		.loc 1 147 0
 226 00c4 F868     		ldr	r0, [r7, #12]
 227              	.LVL21:
 228 00c6 A0F10A01 		sub	r1, r0, #10
ARM GAS  C:\Users\aupen\AppData\Local\Temp\cc9dMVob.s 			page 8


 229 00ca FFF7FEFF 		bl	turn_right
 230              	.LVL22:
 231 00ce 0CE0     		b	.L13
 232              	.LVL23:
 233              	.L12:
 148:main.c        ****                 }
 149:main.c        ****                 else if (position >= 15000 )
 234              		.loc 1 149 0
 235 00d0 43F69722 		movw	r2, #14999
 236              	.LVL24:
 237 00d4 9042     		cmp	r0, r2
 238 00d6 05DD     		ble	.L14
 150:main.c        ****                 {
 151:main.c        ****                     turn_left(btValue.turnSpeed - 10, btValue.turnSpeed);
 239              		.loc 1 151 0
 240 00d8 F968     		ldr	r1, [r7, #12]
 241 00da A1F10A00 		sub	r0, r1, #10
 242              	.LVL25:
 243 00de FFF7FEFF 		bl	turn_left
 244              	.LVL26:
 245 00e2 02E0     		b	.L13
 246              	.LVL27:
 247              	.L14:
 152:main.c        ****                 }
 153:main.c        ****                 else 
 154:main.c        ****                 {              
 155:main.c        ****         	    Go(motorSpeed);               
 248              		.loc 1 155 0
 249 00e4 1846     		mov	r0, r3
 250              	.LVL28:
 251 00e6 FFF7FEFF 		bl	Go
 252              	.LVL29:
 253              	.L13:
 156:main.c        ****                 }
 157:main.c        ****                 
 158:main.c        ****                 CyDelayUs(2560); 
 254              		.loc 1 158 0
 255 00ea 4FF42060 		mov	r0, #2560
 256 00ee FFF7FEFF 		bl	CyDelayUs
 257              	.LVL30:
 258 00f2 C9E7     		b	.L10
 259              	.L20:
 260              	.LBE7:
 159:main.c        ****             }
 160:main.c        ****             
 161:main.c        ****             EscStop();
 261              		.loc 1 161 0
 262 00f4 FFF7FEFF 		bl	EscStop
 263              	.LVL31:
 162:main.c        ****             drive_backward(50,50);
 264              		.loc 1 162 0
 265 00f8 3221     		movs	r1, #50
 266 00fa 0846     		mov	r0, r1
 267 00fc FFF7FEFF 		bl	drive_backward
 268              	.LVL32:
 163:main.c        ****             CyDelay(100);
 269              		.loc 1 163 0
ARM GAS  C:\Users\aupen\AppData\Local\Temp\cc9dMVob.s 			page 9


 270 0100 6420     		movs	r0, #100
 271 0102 FFF7FEFF 		bl	CyDelay
 272              	.LVL33:
 164:main.c        ****             drive_forward(0,0);
 273              		.loc 1 164 0
 274 0106 0021     		movs	r1, #0
 275 0108 0846     		mov	r0, r1
 276 010a FFF7FEFF 		bl	drive_forward
 277              	.LVL34:
 278 010e A0E7     		b	.L11
 279              	.L22:
 280              		.align	2
 281              	.L21:
 282 0110 00000000 		.word	.LANCHOR1
 283 0114 00000000 		.word	btValue
 284 0118 00000000 		.word	btComands
 285 011c 00000000 		.word	.LANCHOR0
 286 0120 00000000 		.word	motorSpeed
 287              		.cfi_endproc
 288              	.LFE2:
 289              		.size	main, .-main
 290              		.global	stop
 291              		.global	errorbaseSpeed
 292              		.global	lastError
 293              		.global	turnSpeed
 294              		.global	baseSpeed
 295              		.global	Kd
 296              		.global	Kp
 297              		.comm	motorSpeed,4,4
 298              		.comm	sensorValues,40,4
 299              		.comm	btValue,20,4
 300              		.comm	btComands,8,4
 301              		.comm	gMotor,16,4
 302              		.comm	gSensors,180,4
 303              		.data
 304              		.align	2
 305              		.set	.LANCHOR1,. + 0
 306              		.type	baseSpeed, %object
 307              		.size	baseSpeed, 4
 308              	baseSpeed:
 309 0000 32000000 		.word	50
 310              		.type	Kd, %object
 311              		.size	Kd, 4
 312              	Kd:
 313 0004 28000000 		.word	40
 314              		.type	Kp, %object
 315              		.size	Kp, 4
 316              	Kp:
 317 0008 06000000 		.word	6
 318              		.type	turnSpeed, %object
 319              		.size	turnSpeed, 4
 320              	turnSpeed:
 321 000c 32000000 		.word	50
 322              		.bss
 323              		.align	2
 324              		.set	.LANCHOR0,. + 0
 325              		.type	errorbaseSpeed, %object
ARM GAS  C:\Users\aupen\AppData\Local\Temp\cc9dMVob.s 			page 10


 326              		.size	errorbaseSpeed, 4
 327              	errorbaseSpeed:
 328 0000 00000000 		.space	4
 329              		.type	lastError, %object
 330              		.size	lastError, 4
 331              	lastError:
 332 0004 00000000 		.space	4
 333              		.type	stop, %object
 334              		.size	stop, 4
 335              	stop:
 336 0008 00000000 		.space	4
 337              		.text
 338              	.Letext0:
 339              		.file 2 "c:\\program files (x86)\\cypress\\psoc creator\\4.1\\psoc creator\\import\\gnu\\arm\\5.4.
 340              		.file 3 "c:\\program files (x86)\\cypress\\psoc creator\\4.1\\psoc creator\\import\\gnu\\arm\\5.4.
 341              		.file 4 "sensors.h"
 342              		.file 5 "drive.h"
 343              		.file 6 "bt_app.h"
 344              		.file 7 "Generated_Source\\PSoC5/CyLib.h"
 345              		.file 8 "Generated_Source\\PSoC5/Servo.h"
 346              		.file 9 "esc_control.h"
 347              		.file 10 "Generated_Source\\PSoC5/ADC_SAR.h"
 348              		.file 11 "timer_time.h"
 349              		.file 12 "Generated_Source\\PSoC5/Button.h"
 350              		.section	.debug_info,"",%progbits
 351              	.Ldebug_info0:
 352 0000 12050000 		.4byte	0x512
 353 0004 0400     		.2byte	0x4
 354 0006 00000000 		.4byte	.Ldebug_abbrev0
 355 000a 04       		.byte	0x4
 356 000b 01       		.uleb128 0x1
 357 000c D5010000 		.4byte	.LASF62
 358 0010 0C       		.byte	0xc
 359 0011 EB020000 		.4byte	.LASF63
 360 0015 10000000 		.4byte	.LASF64
 361 0019 18000000 		.4byte	.Ldebug_ranges0+0x18
 362 001d 00000000 		.4byte	0
 363 0021 00000000 		.4byte	.Ldebug_line0
 364 0025 02       		.uleb128 0x2
 365 0026 01       		.byte	0x1
 366 0027 06       		.byte	0x6
 367 0028 74010000 		.4byte	.LASF0
 368 002c 02       		.uleb128 0x2
 369 002d 01       		.byte	0x1
 370 002e 08       		.byte	0x8
 371 002f 50010000 		.4byte	.LASF1
 372 0033 02       		.uleb128 0x2
 373 0034 02       		.byte	0x2
 374 0035 05       		.byte	0x5
 375 0036 73000000 		.4byte	.LASF2
 376 003a 02       		.uleb128 0x2
 377 003b 02       		.byte	0x2
 378 003c 07       		.byte	0x7
 379 003d 63020000 		.4byte	.LASF3
 380 0041 03       		.uleb128 0x3
 381 0042 24030000 		.4byte	.LASF9
 382 0046 02       		.byte	0x2
ARM GAS  C:\Users\aupen\AppData\Local\Temp\cc9dMVob.s 			page 11


 383 0047 3F       		.byte	0x3f
 384 0048 4C000000 		.4byte	0x4c
 385 004c 02       		.uleb128 0x2
 386 004d 04       		.byte	0x4
 387 004e 05       		.byte	0x5
 388 004f F1000000 		.4byte	.LASF4
 389 0053 02       		.uleb128 0x2
 390 0054 04       		.byte	0x4
 391 0055 07       		.byte	0x7
 392 0056 C3010000 		.4byte	.LASF5
 393 005a 02       		.uleb128 0x2
 394 005b 08       		.byte	0x8
 395 005c 05       		.byte	0x5
 396 005d E3000000 		.4byte	.LASF6
 397 0061 02       		.uleb128 0x2
 398 0062 08       		.byte	0x8
 399 0063 07       		.byte	0x7
 400 0064 80010000 		.4byte	.LASF7
 401 0068 04       		.uleb128 0x4
 402 0069 04       		.byte	0x4
 403 006a 05       		.byte	0x5
 404 006b 696E7400 		.ascii	"int\000"
 405 006f 02       		.uleb128 0x2
 406 0070 04       		.byte	0x4
 407 0071 07       		.byte	0x7
 408 0072 A3010000 		.4byte	.LASF8
 409 0076 03       		.uleb128 0x3
 410 0077 8D020000 		.4byte	.LASF10
 411 007b 03       		.byte	0x3
 412 007c 2C       		.byte	0x2c
 413 007d 41000000 		.4byte	0x41
 414 0081 02       		.uleb128 0x2
 415 0082 04       		.byte	0x4
 416 0083 04       		.byte	0x4
 417 0084 DD000000 		.4byte	.LASF11
 418 0088 02       		.uleb128 0x2
 419 0089 08       		.byte	0x8
 420 008a 04       		.byte	0x4
 421 008b 08030000 		.4byte	.LASF12
 422 008f 02       		.uleb128 0x2
 423 0090 01       		.byte	0x1
 424 0091 08       		.byte	0x8
 425 0092 7B020000 		.4byte	.LASF13
 426 0096 02       		.uleb128 0x2
 427 0097 08       		.byte	0x8
 428 0098 04       		.byte	0x4
 429 0099 30010000 		.4byte	.LASF14
 430 009d 02       		.uleb128 0x2
 431 009e 04       		.byte	0x4
 432 009f 07       		.byte	0x7
 433 00a0 88000000 		.4byte	.LASF15
 434 00a4 05       		.uleb128 0x5
 435 00a5 FA000000 		.4byte	.LASF19
 436 00a9 B4       		.byte	0xb4
 437 00aa 04       		.byte	0x4
 438 00ab 11       		.byte	0x11
 439 00ac D5000000 		.4byte	0xd5
ARM GAS  C:\Users\aupen\AppData\Local\Temp\cc9dMVob.s 			page 12


 440 00b0 06       		.uleb128 0x6
 441 00b1 D3000000 		.4byte	.LASF16
 442 00b5 04       		.byte	0x4
 443 00b6 13       		.byte	0x13
 444 00b7 D5000000 		.4byte	0xd5
 445 00bb 00       		.byte	0
 446 00bc 06       		.uleb128 0x6
 447 00bd 37030000 		.4byte	.LASF17
 448 00c1 04       		.byte	0x4
 449 00c2 14       		.byte	0x14
 450 00c3 D5000000 		.4byte	0xd5
 451 00c7 3C       		.byte	0x3c
 452 00c8 06       		.uleb128 0x6
 453 00c9 00000000 		.4byte	.LASF18
 454 00cd 04       		.byte	0x4
 455 00ce 15       		.byte	0x15
 456 00cf D5000000 		.4byte	0xd5
 457 00d3 78       		.byte	0x78
 458 00d4 00       		.byte	0
 459 00d5 07       		.uleb128 0x7
 460 00d6 68000000 		.4byte	0x68
 461 00da E5000000 		.4byte	0xe5
 462 00de 08       		.uleb128 0x8
 463 00df 9D000000 		.4byte	0x9d
 464 00e3 0E       		.byte	0xe
 465 00e4 00       		.byte	0
 466 00e5 05       		.uleb128 0x5
 467 00e6 5E000000 		.4byte	.LASF20
 468 00ea 10       		.byte	0x10
 469 00eb 05       		.byte	0x5
 470 00ec 11       		.byte	0x11
 471 00ed 22010000 		.4byte	0x122
 472 00f1 06       		.uleb128 0x6
 473 00f2 70030000 		.4byte	.LASF21
 474 00f6 05       		.byte	0x5
 475 00f7 13       		.byte	0x13
 476 00f8 68000000 		.4byte	0x68
 477 00fc 00       		.byte	0
 478 00fd 06       		.uleb128 0x6
 479 00fe FD020000 		.4byte	.LASF22
 480 0102 05       		.byte	0x5
 481 0103 14       		.byte	0x14
 482 0104 68000000 		.4byte	0x68
 483 0108 04       		.byte	0x4
 484 0109 06       		.uleb128 0x6
 485 010a 95020000 		.4byte	.LASF23
 486 010e 05       		.byte	0x5
 487 010f 15       		.byte	0x15
 488 0110 68000000 		.4byte	0x68
 489 0114 08       		.byte	0x8
 490 0115 06       		.uleb128 0x6
 491 0116 A7020000 		.4byte	.LASF24
 492 011a 05       		.byte	0x5
 493 011b 16       		.byte	0x16
 494 011c 68000000 		.4byte	0x68
 495 0120 0C       		.byte	0xc
 496 0121 00       		.byte	0
ARM GAS  C:\Users\aupen\AppData\Local\Temp\cc9dMVob.s 			page 13


 497 0122 05       		.uleb128 0x5
 498 0123 4B030000 		.4byte	.LASF25
 499 0127 08       		.byte	0x8
 500 0128 06       		.byte	0x6
 501 0129 10       		.byte	0x10
 502 012a 47010000 		.4byte	0x147
 503 012e 06       		.uleb128 0x6
 504 012f 6C010000 		.4byte	.LASF26
 505 0133 06       		.byte	0x6
 506 0134 12       		.byte	0x12
 507 0135 68000000 		.4byte	0x68
 508 0139 00       		.byte	0
 509 013a 06       		.uleb128 0x6
 510 013b 0F010000 		.4byte	.LASF27
 511 013f 06       		.byte	0x6
 512 0140 13       		.byte	0x13
 513 0141 68000000 		.4byte	0x68
 514 0145 04       		.byte	0x4
 515 0146 00       		.byte	0
 516 0147 05       		.uleb128 0x5
 517 0148 1C030000 		.4byte	.LASF28
 518 014c 14       		.byte	0x14
 519 014d 06       		.byte	0x6
 520 014e 16       		.byte	0x16
 521 014f 8E010000 		.4byte	0x18e
 522 0153 09       		.uleb128 0x9
 523 0154 4B7000   		.ascii	"Kp\000"
 524 0157 06       		.byte	0x6
 525 0158 18       		.byte	0x18
 526 0159 68000000 		.4byte	0x68
 527 015d 00       		.byte	0
 528 015e 09       		.uleb128 0x9
 529 015f 4B6400   		.ascii	"Kd\000"
 530 0162 06       		.byte	0x6
 531 0163 19       		.byte	0x19
 532 0164 68000000 		.4byte	0x68
 533 0168 04       		.byte	0x4
 534 0169 06       		.uleb128 0x6
 535 016a 3C010000 		.4byte	.LASF29
 536 016e 06       		.byte	0x6
 537 016f 1A       		.byte	0x1a
 538 0170 68000000 		.4byte	0x68
 539 0174 08       		.byte	0x8
 540 0175 06       		.uleb128 0x6
 541 0176 05010000 		.4byte	.LASF30
 542 017a 06       		.byte	0x6
 543 017b 1B       		.byte	0x1b
 544 017c 68000000 		.4byte	0x68
 545 0180 0C       		.byte	0xc
 546 0181 06       		.uleb128 0x6
 547 0182 1B010000 		.4byte	.LASF31
 548 0186 06       		.byte	0x6
 549 0187 1C       		.byte	0x1c
 550 0188 68000000 		.4byte	0x68
 551 018c 10       		.byte	0x10
 552 018d 00       		.byte	0
 553 018e 0A       		.uleb128 0xa
ARM GAS  C:\Users\aupen\AppData\Local\Temp\cc9dMVob.s 			page 14


 554 018f 476F00   		.ascii	"Go\000"
 555 0192 01       		.byte	0x1
 556 0193 28       		.byte	0x28
 557 0194 01       		.byte	0x1
 558 0195 A5010000 		.4byte	0x1a5
 559 0199 0B       		.uleb128 0xb
 560 019a 7D000000 		.4byte	.LASF38
 561 019e 01       		.byte	0x1
 562 019f 28       		.byte	0x28
 563 01a0 4C000000 		.4byte	0x4c
 564 01a4 00       		.byte	0
 565 01a5 0C       		.uleb128 0xc
 566 01a6 8E010000 		.4byte	0x18e
 567 01aa 00000000 		.4byte	.LFB1
 568 01ae 10000000 		.4byte	.LFE1-.LFB1
 569 01b2 01       		.uleb128 0x1
 570 01b3 9C       		.byte	0x9c
 571 01b4 DE010000 		.4byte	0x1de
 572 01b8 0D       		.uleb128 0xd
 573 01b9 99010000 		.4byte	0x199
 574 01bd 00000000 		.4byte	.LLST0
 575 01c1 0E       		.uleb128 0xe
 576 01c2 08000000 		.4byte	.LBB4
 577 01c6 08000000 		.4byte	.LBE4-.LBB4
 578 01ca 0D       		.uleb128 0xd
 579 01cb 99010000 		.4byte	0x199
 580 01cf 21000000 		.4byte	.LLST1
 581 01d3 0F       		.uleb128 0xf
 582 01d4 0C000000 		.4byte	.LVL2
 583 01d8 39040000 		.4byte	0x439
 584 01dc 00       		.byte	0
 585 01dd 00       		.byte	0
 586 01de 10       		.uleb128 0x10
 587 01df A0000000 		.4byte	.LASF65
 588 01e3 01       		.byte	0x1
 589 01e4 4B       		.byte	0x4b
 590 01e5 68000000 		.4byte	0x68
 591 01e9 00000000 		.4byte	.LFB2
 592 01ed 24010000 		.4byte	.LFE2-.LFB2
 593 01f1 01       		.uleb128 0x1
 594 01f2 9C       		.byte	0x9c
 595 01f3 4E030000 		.4byte	0x34e
 596 01f7 11       		.uleb128 0x11
 597 01f8 46030000 		.4byte	.LASF32
 598 01fc 01       		.byte	0x1
 599 01fd 60       		.byte	0x60
 600 01fe 68000000 		.4byte	0x68
 601 0202 00       		.byte	0
 602 0203 12       		.uleb128 0x12
 603 0204 00000000 		.4byte	.Ldebug_ranges0+0
 604 0208 69020000 		.4byte	0x269
 605 020c 13       		.uleb128 0x13
 606 020d 5F030000 		.4byte	.LASF33
 607 0211 01       		.byte	0x1
 608 0212 83       		.byte	0x83
 609 0213 68000000 		.4byte	0x68
 610 0217 34000000 		.4byte	.LLST2
ARM GAS  C:\Users\aupen\AppData\Local\Temp\cc9dMVob.s 			page 15


 611 021b 13       		.uleb128 0x13
 612 021c B0010000 		.4byte	.LASF34
 613 0220 01       		.byte	0x1
 614 0221 84       		.byte	0x84
 615 0222 68000000 		.4byte	0x68
 616 0226 93000000 		.4byte	.LLST3
 617 022a 14       		.uleb128 0x14
 618 022b 94000000 		.4byte	.LVL18
 619 022f 44040000 		.4byte	0x444
 620 0233 14       		.uleb128 0x14
 621 0234 98000000 		.4byte	.LVL19
 622 0238 4F040000 		.4byte	0x44f
 623 023c 14       		.uleb128 0x14
 624 023d CE000000 		.4byte	.LVL22
 625 0241 5A040000 		.4byte	0x45a
 626 0245 14       		.uleb128 0x14
 627 0246 E2000000 		.4byte	.LVL26
 628 024a 65040000 		.4byte	0x465
 629 024e 14       		.uleb128 0x14
 630 024f EA000000 		.4byte	.LVL29
 631 0253 8E010000 		.4byte	0x18e
 632 0257 15       		.uleb128 0x15
 633 0258 F2000000 		.4byte	.LVL30
 634 025c 70040000 		.4byte	0x470
 635 0260 16       		.uleb128 0x16
 636 0261 01       		.uleb128 0x1
 637 0262 50       		.byte	0x50
 638 0263 03       		.uleb128 0x3
 639 0264 0A       		.byte	0xa
 640 0265 000A     		.2byte	0xa00
 641 0267 00       		.byte	0
 642 0268 00       		.byte	0
 643 0269 14       		.uleb128 0x14
 644 026a 08000000 		.4byte	.LVL3
 645 026e 7B040000 		.4byte	0x47b
 646 0272 14       		.uleb128 0x14
 647 0273 0C000000 		.4byte	.LVL4
 648 0277 86040000 		.4byte	0x486
 649 027b 14       		.uleb128 0x14
 650 027c 12000000 		.4byte	.LVL5
 651 0280 91040000 		.4byte	0x491
 652 0284 14       		.uleb128 0x14
 653 0285 16000000 		.4byte	.LVL6
 654 0289 9C040000 		.4byte	0x49c
 655 028d 14       		.uleb128 0x14
 656 028e 1A000000 		.4byte	.LVL7
 657 0292 A7040000 		.4byte	0x4a7
 658 0296 14       		.uleb128 0x14
 659 0297 1E000000 		.4byte	.LVL8
 660 029b B2040000 		.4byte	0x4b2
 661 029f 14       		.uleb128 0x14
 662 02a0 22000000 		.4byte	.LVL9
 663 02a4 BD040000 		.4byte	0x4bd
 664 02a8 17       		.uleb128 0x17
 665 02a9 46000000 		.4byte	.LVL11
 666 02ad C8040000 		.4byte	0x4c8
 667 02b1 C0020000 		.4byte	0x2c0
ARM GAS  C:\Users\aupen\AppData\Local\Temp\cc9dMVob.s 			page 16


 668 02b5 16       		.uleb128 0x16
 669 02b6 01       		.uleb128 0x1
 670 02b7 50       		.byte	0x50
 671 02b8 01       		.uleb128 0x1
 672 02b9 30       		.byte	0x30
 673 02ba 16       		.uleb128 0x16
 674 02bb 01       		.uleb128 0x1
 675 02bc 51       		.byte	0x51
 676 02bd 01       		.uleb128 0x1
 677 02be 30       		.byte	0x30
 678 02bf 00       		.byte	0
 679 02c0 17       		.uleb128 0x17
 680 02c1 4E000000 		.4byte	.LVL12
 681 02c5 D3040000 		.4byte	0x4d3
 682 02c9 D5020000 		.4byte	0x2d5
 683 02cd 16       		.uleb128 0x16
 684 02ce 01       		.uleb128 0x1
 685 02cf 50       		.byte	0x50
 686 02d0 03       		.uleb128 0x3
 687 02d1 0A       		.byte	0xa
 688 02d2 D007     		.2byte	0x7d0
 689 02d4 00       		.byte	0
 690 02d5 14       		.uleb128 0x14
 691 02d6 56000000 		.4byte	.LVL13
 692 02da DE040000 		.4byte	0x4de
 693 02de 14       		.uleb128 0x14
 694 02df 64000000 		.4byte	.LVL14
 695 02e3 C8040000 		.4byte	0x4c8
 696 02e7 14       		.uleb128 0x14
 697 02e8 68000000 		.4byte	.LVL15
 698 02ec E9040000 		.4byte	0x4e9
 699 02f0 14       		.uleb128 0x14
 700 02f1 72000000 		.4byte	.LVL16
 701 02f5 F4040000 		.4byte	0x4f4
 702 02f9 14       		.uleb128 0x14
 703 02fa 78000000 		.4byte	.LVL17
 704 02fe FF040000 		.4byte	0x4ff
 705 0302 14       		.uleb128 0x14
 706 0303 F8000000 		.4byte	.LVL31
 707 0307 FF040000 		.4byte	0x4ff
 708 030b 17       		.uleb128 0x17
 709 030c 00010000 		.4byte	.LVL32
 710 0310 0A050000 		.4byte	0x50a
 711 0314 25030000 		.4byte	0x325
 712 0318 16       		.uleb128 0x16
 713 0319 01       		.uleb128 0x1
 714 031a 50       		.byte	0x50
 715 031b 02       		.uleb128 0x2
 716 031c 08       		.byte	0x8
 717 031d 32       		.byte	0x32
 718 031e 16       		.uleb128 0x16
 719 031f 01       		.uleb128 0x1
 720 0320 51       		.byte	0x51
 721 0321 02       		.uleb128 0x2
 722 0322 08       		.byte	0x8
 723 0323 32       		.byte	0x32
 724 0324 00       		.byte	0
ARM GAS  C:\Users\aupen\AppData\Local\Temp\cc9dMVob.s 			page 17


 725 0325 17       		.uleb128 0x17
 726 0326 06010000 		.4byte	.LVL33
 727 032a D3040000 		.4byte	0x4d3
 728 032e 39030000 		.4byte	0x339
 729 0332 16       		.uleb128 0x16
 730 0333 01       		.uleb128 0x1
 731 0334 50       		.byte	0x50
 732 0335 02       		.uleb128 0x2
 733 0336 08       		.byte	0x8
 734 0337 64       		.byte	0x64
 735 0338 00       		.byte	0
 736 0339 15       		.uleb128 0x15
 737 033a 0E010000 		.4byte	.LVL34
 738 033e C8040000 		.4byte	0x4c8
 739 0342 16       		.uleb128 0x16
 740 0343 01       		.uleb128 0x1
 741 0344 50       		.byte	0x50
 742 0345 01       		.uleb128 0x1
 743 0346 30       		.byte	0x30
 744 0347 16       		.uleb128 0x16
 745 0348 01       		.uleb128 0x1
 746 0349 51       		.byte	0x51
 747 034a 01       		.uleb128 0x1
 748 034b 30       		.byte	0x30
 749 034c 00       		.byte	0
 750 034d 00       		.byte	0
 751 034e 18       		.uleb128 0x18
 752 034f 2E030000 		.4byte	.LASF35
 753 0353 04       		.byte	0x4
 754 0354 16       		.byte	0x16
 755 0355 A4000000 		.4byte	0xa4
 756 0359 05       		.uleb128 0x5
 757 035a 03       		.byte	0x3
 758 035b 00000000 		.4byte	gSensors
 759 035f 18       		.uleb128 0x18
 760 0360 4F000000 		.4byte	.LASF36
 761 0364 05       		.byte	0x5
 762 0365 17       		.byte	0x17
 763 0366 E5000000 		.4byte	0xe5
 764 036a 05       		.uleb128 0x5
 765 036b 03       		.byte	0x3
 766 036c 00000000 		.4byte	gMotor
 767 0370 18       		.uleb128 0x18
 768 0371 4B030000 		.4byte	.LASF25
 769 0375 06       		.byte	0x6
 770 0376 14       		.byte	0x14
 771 0377 22010000 		.4byte	0x122
 772 037b 05       		.uleb128 0x5
 773 037c 03       		.byte	0x3
 774 037d 00000000 		.4byte	btComands
 775 0381 18       		.uleb128 0x18
 776 0382 1C030000 		.4byte	.LASF28
 777 0386 06       		.byte	0x6
 778 0387 1D       		.byte	0x1d
 779 0388 47010000 		.4byte	0x147
 780 038c 05       		.uleb128 0x5
 781 038d 03       		.byte	0x3
ARM GAS  C:\Users\aupen\AppData\Local\Temp\cc9dMVob.s 			page 18


 782 038e 00000000 		.4byte	btValue
 783 0392 07       		.uleb128 0x7
 784 0393 6F000000 		.4byte	0x6f
 785 0397 A2030000 		.4byte	0x3a2
 786 039b 08       		.uleb128 0x8
 787 039c 9D000000 		.4byte	0x9d
 788 03a0 09       		.byte	0x9
 789 03a1 00       		.byte	0
 790 03a2 18       		.uleb128 0x18
 791 03a3 B6010000 		.4byte	.LASF37
 792 03a7 01       		.byte	0x1
 793 03a8 1A       		.byte	0x1a
 794 03a9 92030000 		.4byte	0x392
 795 03ad 05       		.uleb128 0x5
 796 03ae 03       		.byte	0x3
 797 03af 00000000 		.4byte	sensorValues
 798 03b3 18       		.uleb128 0x18
 799 03b4 7D000000 		.4byte	.LASF38
 800 03b8 01       		.byte	0x1
 801 03b9 1B       		.byte	0x1b
 802 03ba 76000000 		.4byte	0x76
 803 03be 05       		.uleb128 0x5
 804 03bf 03       		.byte	0x3
 805 03c0 00000000 		.4byte	motorSpeed
 806 03c4 19       		.uleb128 0x19
 807 03c5 4B7000   		.ascii	"Kp\000"
 808 03c8 01       		.byte	0x1
 809 03c9 1C       		.byte	0x1c
 810 03ca 68000000 		.4byte	0x68
 811 03ce 05       		.uleb128 0x5
 812 03cf 03       		.byte	0x3
 813 03d0 00000000 		.4byte	Kp
 814 03d4 19       		.uleb128 0x19
 815 03d5 4B6400   		.ascii	"Kd\000"
 816 03d8 01       		.byte	0x1
 817 03d9 1D       		.byte	0x1d
 818 03da 68000000 		.4byte	0x68
 819 03de 05       		.uleb128 0x5
 820 03df 03       		.byte	0x3
 821 03e0 00000000 		.4byte	Kd
 822 03e4 18       		.uleb128 0x18
 823 03e5 3C010000 		.4byte	.LASF29
 824 03e9 01       		.byte	0x1
 825 03ea 1E       		.byte	0x1e
 826 03eb 68000000 		.4byte	0x68
 827 03ef 05       		.uleb128 0x5
 828 03f0 03       		.byte	0x3
 829 03f1 00000000 		.4byte	baseSpeed
 830 03f5 18       		.uleb128 0x18
 831 03f6 05010000 		.4byte	.LASF30
 832 03fa 01       		.byte	0x1
 833 03fb 1F       		.byte	0x1f
 834 03fc 68000000 		.4byte	0x68
 835 0400 05       		.uleb128 0x5
 836 0401 03       		.byte	0x3
 837 0402 00000000 		.4byte	turnSpeed
 838 0406 18       		.uleb128 0x18
ARM GAS  C:\Users\aupen\AppData\Local\Temp\cc9dMVob.s 			page 19


 839 0407 69000000 		.4byte	.LASF39
 840 040b 01       		.byte	0x1
 841 040c 20       		.byte	0x20
 842 040d 68000000 		.4byte	0x68
 843 0411 05       		.uleb128 0x5
 844 0412 03       		.byte	0x3
 845 0413 00000000 		.4byte	lastError
 846 0417 18       		.uleb128 0x18
 847 0418 91000000 		.4byte	.LASF40
 848 041c 01       		.byte	0x1
 849 041d 21       		.byte	0x21
 850 041e 68000000 		.4byte	0x68
 851 0422 05       		.uleb128 0x5
 852 0423 03       		.byte	0x3
 853 0424 00000000 		.4byte	errorbaseSpeed
 854 0428 18       		.uleb128 0x18
 855 0429 76020000 		.4byte	.LASF41
 856 042d 01       		.byte	0x1
 857 042e 22       		.byte	0x22
 858 042f 68000000 		.4byte	0x68
 859 0433 05       		.uleb128 0x5
 860 0434 03       		.byte	0x3
 861 0435 00000000 		.4byte	stop
 862 0439 1A       		.uleb128 0x1a
 863 043a 80020000 		.4byte	.LASF42
 864 043e 80020000 		.4byte	.LASF42
 865 0442 05       		.byte	0x5
 866 0443 19       		.byte	0x19
 867 0444 1A       		.uleb128 0x1a
 868 0445 7C030000 		.4byte	.LASF43
 869 0449 7C030000 		.4byte	.LASF43
 870 044d 06       		.byte	0x6
 871 044e 21       		.byte	0x21
 872 044f 1A       		.uleb128 0x1a
 873 0450 0F030000 		.4byte	.LASF44
 874 0454 0F030000 		.4byte	.LASF44
 875 0458 04       		.byte	0x4
 876 0459 19       		.byte	0x19
 877 045a 1A       		.uleb128 0x1a
 878 045b AC000000 		.4byte	.LASF45
 879 045f AC000000 		.4byte	.LASF45
 880 0463 05       		.byte	0x5
 881 0464 1D       		.byte	0x1d
 882 0465 1A       		.uleb128 0x1a
 883 0466 55030000 		.4byte	.LASF46
 884 046a 55030000 		.4byte	.LASF46
 885 046e 05       		.byte	0x5
 886 046f 1E       		.byte	0x1e
 887 0470 1A       		.uleb128 0x1a
 888 0471 46010000 		.4byte	.LASF47
 889 0475 46010000 		.4byte	.LASF47
 890 0479 07       		.byte	0x7
 891 047a 77       		.byte	0x77
 892 047b 1A       		.uleb128 0x1a
 893 047c 88030000 		.4byte	.LASF48
 894 0480 88030000 		.4byte	.LASF48
 895 0484 05       		.byte	0x5
ARM GAS  C:\Users\aupen\AppData\Local\Temp\cc9dMVob.s 			page 20


 896 0485 1A       		.byte	0x1a
 897 0486 1A       		.uleb128 0x1a
 898 0487 BF000000 		.4byte	.LASF49
 899 048b BF000000 		.4byte	.LASF49
 900 048f 08       		.byte	0x8
 901 0490 92       		.byte	0x92
 902 0491 1A       		.uleb128 0x1a
 903 0492 A5000000 		.4byte	.LASF50
 904 0496 A5000000 		.4byte	.LASF50
 905 049a 09       		.byte	0x9
 906 049b 0E       		.byte	0xe
 907 049c 1A       		.uleb128 0x1a
 908 049d B7000000 		.4byte	.LASF51
 909 04a1 B7000000 		.4byte	.LASF51
 910 04a5 06       		.byte	0x6
 911 04a6 20       		.byte	0x20
 912 04a7 1A       		.uleb128 0x1a
 913 04a8 5E010000 		.4byte	.LASF52
 914 04ac 5E010000 		.4byte	.LASF52
 915 04b0 0A       		.byte	0xa
 916 04b1 31       		.byte	0x31
 917 04b2 1A       		.uleb128 0x1a
 918 04b3 C8020000 		.4byte	.LASF53
 919 04b7 C8020000 		.4byte	.LASF53
 920 04bb 0A       		.byte	0xa
 921 04bc A1       		.byte	0xa1
 922 04bd 1A       		.uleb128 0x1a
 923 04be F2020000 		.4byte	.LASF54
 924 04c2 F2020000 		.4byte	.LASF54
 925 04c6 0B       		.byte	0xb
 926 04c7 14       		.byte	0x14
 927 04c8 1A       		.uleb128 0x1a
 928 04c9 DD020000 		.4byte	.LASF55
 929 04cd DD020000 		.4byte	.LASF55
 930 04d1 05       		.byte	0x5
 931 04d2 1B       		.byte	0x1b
 932 04d3 1A       		.uleb128 0x1a
 933 04d4 68030000 		.4byte	.LASF56
 934 04d8 68030000 		.4byte	.LASF56
 935 04dc 07       		.byte	0x7
 936 04dd 76       		.byte	0x76
 937 04de 1A       		.uleb128 0x1a
 938 04df 24010000 		.4byte	.LASF57
 939 04e3 24010000 		.4byte	.LASF57
 940 04e7 0C       		.byte	0xc
 941 04e8 29       		.byte	0x29
 942 04e9 1A       		.uleb128 0x1a
 943 04ea 97010000 		.4byte	.LASF58
 944 04ee 97010000 		.4byte	.LASF58
 945 04f2 06       		.byte	0x6
 946 04f3 1F       		.byte	0x1f
 947 04f4 1A       		.uleb128 0x1a
 948 04f5 CB000000 		.4byte	.LASF59
 949 04f9 CB000000 		.4byte	.LASF59
 950 04fd 09       		.byte	0x9
 951 04fe 13       		.byte	0x13
 952 04ff 1A       		.uleb128 0x1a
ARM GAS  C:\Users\aupen\AppData\Local\Temp\cc9dMVob.s 			page 21


 953 0500 56000000 		.4byte	.LASF60
 954 0504 56000000 		.4byte	.LASF60
 955 0508 09       		.byte	0x9
 956 0509 0F       		.byte	0xf
 957 050a 1A       		.uleb128 0x1a
 958 050b B9020000 		.4byte	.LASF61
 959 050f B9020000 		.4byte	.LASF61
 960 0513 05       		.byte	0x5
 961 0514 1C       		.byte	0x1c
 962 0515 00       		.byte	0
 963              		.section	.debug_abbrev,"",%progbits
 964              	.Ldebug_abbrev0:
 965 0000 01       		.uleb128 0x1
 966 0001 11       		.uleb128 0x11
 967 0002 01       		.byte	0x1
 968 0003 25       		.uleb128 0x25
 969 0004 0E       		.uleb128 0xe
 970 0005 13       		.uleb128 0x13
 971 0006 0B       		.uleb128 0xb
 972 0007 03       		.uleb128 0x3
 973 0008 0E       		.uleb128 0xe
 974 0009 1B       		.uleb128 0x1b
 975 000a 0E       		.uleb128 0xe
 976 000b 55       		.uleb128 0x55
 977 000c 17       		.uleb128 0x17
 978 000d 11       		.uleb128 0x11
 979 000e 01       		.uleb128 0x1
 980 000f 10       		.uleb128 0x10
 981 0010 17       		.uleb128 0x17
 982 0011 00       		.byte	0
 983 0012 00       		.byte	0
 984 0013 02       		.uleb128 0x2
 985 0014 24       		.uleb128 0x24
 986 0015 00       		.byte	0
 987 0016 0B       		.uleb128 0xb
 988 0017 0B       		.uleb128 0xb
 989 0018 3E       		.uleb128 0x3e
 990 0019 0B       		.uleb128 0xb
 991 001a 03       		.uleb128 0x3
 992 001b 0E       		.uleb128 0xe
 993 001c 00       		.byte	0
 994 001d 00       		.byte	0
 995 001e 03       		.uleb128 0x3
 996 001f 16       		.uleb128 0x16
 997 0020 00       		.byte	0
 998 0021 03       		.uleb128 0x3
 999 0022 0E       		.uleb128 0xe
 1000 0023 3A       		.uleb128 0x3a
 1001 0024 0B       		.uleb128 0xb
 1002 0025 3B       		.uleb128 0x3b
 1003 0026 0B       		.uleb128 0xb
 1004 0027 49       		.uleb128 0x49
 1005 0028 13       		.uleb128 0x13
 1006 0029 00       		.byte	0
 1007 002a 00       		.byte	0
 1008 002b 04       		.uleb128 0x4
 1009 002c 24       		.uleb128 0x24
ARM GAS  C:\Users\aupen\AppData\Local\Temp\cc9dMVob.s 			page 22


 1010 002d 00       		.byte	0
 1011 002e 0B       		.uleb128 0xb
 1012 002f 0B       		.uleb128 0xb
 1013 0030 3E       		.uleb128 0x3e
 1014 0031 0B       		.uleb128 0xb
 1015 0032 03       		.uleb128 0x3
 1016 0033 08       		.uleb128 0x8
 1017 0034 00       		.byte	0
 1018 0035 00       		.byte	0
 1019 0036 05       		.uleb128 0x5
 1020 0037 13       		.uleb128 0x13
 1021 0038 01       		.byte	0x1
 1022 0039 03       		.uleb128 0x3
 1023 003a 0E       		.uleb128 0xe
 1024 003b 0B       		.uleb128 0xb
 1025 003c 0B       		.uleb128 0xb
 1026 003d 3A       		.uleb128 0x3a
 1027 003e 0B       		.uleb128 0xb
 1028 003f 3B       		.uleb128 0x3b
 1029 0040 0B       		.uleb128 0xb
 1030 0041 01       		.uleb128 0x1
 1031 0042 13       		.uleb128 0x13
 1032 0043 00       		.byte	0
 1033 0044 00       		.byte	0
 1034 0045 06       		.uleb128 0x6
 1035 0046 0D       		.uleb128 0xd
 1036 0047 00       		.byte	0
 1037 0048 03       		.uleb128 0x3
 1038 0049 0E       		.uleb128 0xe
 1039 004a 3A       		.uleb128 0x3a
 1040 004b 0B       		.uleb128 0xb
 1041 004c 3B       		.uleb128 0x3b
 1042 004d 0B       		.uleb128 0xb
 1043 004e 49       		.uleb128 0x49
 1044 004f 13       		.uleb128 0x13
 1045 0050 38       		.uleb128 0x38
 1046 0051 0B       		.uleb128 0xb
 1047 0052 00       		.byte	0
 1048 0053 00       		.byte	0
 1049 0054 07       		.uleb128 0x7
 1050 0055 01       		.uleb128 0x1
 1051 0056 01       		.byte	0x1
 1052 0057 49       		.uleb128 0x49
 1053 0058 13       		.uleb128 0x13
 1054 0059 01       		.uleb128 0x1
 1055 005a 13       		.uleb128 0x13
 1056 005b 00       		.byte	0
 1057 005c 00       		.byte	0
 1058 005d 08       		.uleb128 0x8
 1059 005e 21       		.uleb128 0x21
 1060 005f 00       		.byte	0
 1061 0060 49       		.uleb128 0x49
 1062 0061 13       		.uleb128 0x13
 1063 0062 2F       		.uleb128 0x2f
 1064 0063 0B       		.uleb128 0xb
 1065 0064 00       		.byte	0
 1066 0065 00       		.byte	0
ARM GAS  C:\Users\aupen\AppData\Local\Temp\cc9dMVob.s 			page 23


 1067 0066 09       		.uleb128 0x9
 1068 0067 0D       		.uleb128 0xd
 1069 0068 00       		.byte	0
 1070 0069 03       		.uleb128 0x3
 1071 006a 08       		.uleb128 0x8
 1072 006b 3A       		.uleb128 0x3a
 1073 006c 0B       		.uleb128 0xb
 1074 006d 3B       		.uleb128 0x3b
 1075 006e 0B       		.uleb128 0xb
 1076 006f 49       		.uleb128 0x49
 1077 0070 13       		.uleb128 0x13
 1078 0071 38       		.uleb128 0x38
 1079 0072 0B       		.uleb128 0xb
 1080 0073 00       		.byte	0
 1081 0074 00       		.byte	0
 1082 0075 0A       		.uleb128 0xa
 1083 0076 2E       		.uleb128 0x2e
 1084 0077 01       		.byte	0x1
 1085 0078 3F       		.uleb128 0x3f
 1086 0079 19       		.uleb128 0x19
 1087 007a 03       		.uleb128 0x3
 1088 007b 08       		.uleb128 0x8
 1089 007c 3A       		.uleb128 0x3a
 1090 007d 0B       		.uleb128 0xb
 1091 007e 3B       		.uleb128 0x3b
 1092 007f 0B       		.uleb128 0xb
 1093 0080 27       		.uleb128 0x27
 1094 0081 19       		.uleb128 0x19
 1095 0082 20       		.uleb128 0x20
 1096 0083 0B       		.uleb128 0xb
 1097 0084 01       		.uleb128 0x1
 1098 0085 13       		.uleb128 0x13
 1099 0086 00       		.byte	0
 1100 0087 00       		.byte	0
 1101 0088 0B       		.uleb128 0xb
 1102 0089 05       		.uleb128 0x5
 1103 008a 00       		.byte	0
 1104 008b 03       		.uleb128 0x3
 1105 008c 0E       		.uleb128 0xe
 1106 008d 3A       		.uleb128 0x3a
 1107 008e 0B       		.uleb128 0xb
 1108 008f 3B       		.uleb128 0x3b
 1109 0090 0B       		.uleb128 0xb
 1110 0091 49       		.uleb128 0x49
 1111 0092 13       		.uleb128 0x13
 1112 0093 00       		.byte	0
 1113 0094 00       		.byte	0
 1114 0095 0C       		.uleb128 0xc
 1115 0096 2E       		.uleb128 0x2e
 1116 0097 01       		.byte	0x1
 1117 0098 31       		.uleb128 0x31
 1118 0099 13       		.uleb128 0x13
 1119 009a 11       		.uleb128 0x11
 1120 009b 01       		.uleb128 0x1
 1121 009c 12       		.uleb128 0x12
 1122 009d 06       		.uleb128 0x6
 1123 009e 40       		.uleb128 0x40
ARM GAS  C:\Users\aupen\AppData\Local\Temp\cc9dMVob.s 			page 24


 1124 009f 18       		.uleb128 0x18
 1125 00a0 9742     		.uleb128 0x2117
 1126 00a2 19       		.uleb128 0x19
 1127 00a3 01       		.uleb128 0x1
 1128 00a4 13       		.uleb128 0x13
 1129 00a5 00       		.byte	0
 1130 00a6 00       		.byte	0
 1131 00a7 0D       		.uleb128 0xd
 1132 00a8 05       		.uleb128 0x5
 1133 00a9 00       		.byte	0
 1134 00aa 31       		.uleb128 0x31
 1135 00ab 13       		.uleb128 0x13
 1136 00ac 02       		.uleb128 0x2
 1137 00ad 17       		.uleb128 0x17
 1138 00ae 00       		.byte	0
 1139 00af 00       		.byte	0
 1140 00b0 0E       		.uleb128 0xe
 1141 00b1 0B       		.uleb128 0xb
 1142 00b2 01       		.byte	0x1
 1143 00b3 11       		.uleb128 0x11
 1144 00b4 01       		.uleb128 0x1
 1145 00b5 12       		.uleb128 0x12
 1146 00b6 06       		.uleb128 0x6
 1147 00b7 00       		.byte	0
 1148 00b8 00       		.byte	0
 1149 00b9 0F       		.uleb128 0xf
 1150 00ba 898201   		.uleb128 0x4109
 1151 00bd 00       		.byte	0
 1152 00be 11       		.uleb128 0x11
 1153 00bf 01       		.uleb128 0x1
 1154 00c0 9542     		.uleb128 0x2115
 1155 00c2 19       		.uleb128 0x19
 1156 00c3 31       		.uleb128 0x31
 1157 00c4 13       		.uleb128 0x13
 1158 00c5 00       		.byte	0
 1159 00c6 00       		.byte	0
 1160 00c7 10       		.uleb128 0x10
 1161 00c8 2E       		.uleb128 0x2e
 1162 00c9 01       		.byte	0x1
 1163 00ca 3F       		.uleb128 0x3f
 1164 00cb 19       		.uleb128 0x19
 1165 00cc 03       		.uleb128 0x3
 1166 00cd 0E       		.uleb128 0xe
 1167 00ce 3A       		.uleb128 0x3a
 1168 00cf 0B       		.uleb128 0xb
 1169 00d0 3B       		.uleb128 0x3b
 1170 00d1 0B       		.uleb128 0xb
 1171 00d2 27       		.uleb128 0x27
 1172 00d3 19       		.uleb128 0x19
 1173 00d4 49       		.uleb128 0x49
 1174 00d5 13       		.uleb128 0x13
 1175 00d6 8701     		.uleb128 0x87
 1176 00d8 19       		.uleb128 0x19
 1177 00d9 11       		.uleb128 0x11
 1178 00da 01       		.uleb128 0x1
 1179 00db 12       		.uleb128 0x12
 1180 00dc 06       		.uleb128 0x6
ARM GAS  C:\Users\aupen\AppData\Local\Temp\cc9dMVob.s 			page 25


 1181 00dd 40       		.uleb128 0x40
 1182 00de 18       		.uleb128 0x18
 1183 00df 9742     		.uleb128 0x2117
 1184 00e1 19       		.uleb128 0x19
 1185 00e2 01       		.uleb128 0x1
 1186 00e3 13       		.uleb128 0x13
 1187 00e4 00       		.byte	0
 1188 00e5 00       		.byte	0
 1189 00e6 11       		.uleb128 0x11
 1190 00e7 34       		.uleb128 0x34
 1191 00e8 00       		.byte	0
 1192 00e9 03       		.uleb128 0x3
 1193 00ea 0E       		.uleb128 0xe
 1194 00eb 3A       		.uleb128 0x3a
 1195 00ec 0B       		.uleb128 0xb
 1196 00ed 3B       		.uleb128 0x3b
 1197 00ee 0B       		.uleb128 0xb
 1198 00ef 49       		.uleb128 0x49
 1199 00f0 13       		.uleb128 0x13
 1200 00f1 1C       		.uleb128 0x1c
 1201 00f2 0B       		.uleb128 0xb
 1202 00f3 00       		.byte	0
 1203 00f4 00       		.byte	0
 1204 00f5 12       		.uleb128 0x12
 1205 00f6 0B       		.uleb128 0xb
 1206 00f7 01       		.byte	0x1
 1207 00f8 55       		.uleb128 0x55
 1208 00f9 17       		.uleb128 0x17
 1209 00fa 01       		.uleb128 0x1
 1210 00fb 13       		.uleb128 0x13
 1211 00fc 00       		.byte	0
 1212 00fd 00       		.byte	0
 1213 00fe 13       		.uleb128 0x13
 1214 00ff 34       		.uleb128 0x34
 1215 0100 00       		.byte	0
 1216 0101 03       		.uleb128 0x3
 1217 0102 0E       		.uleb128 0xe
 1218 0103 3A       		.uleb128 0x3a
 1219 0104 0B       		.uleb128 0xb
 1220 0105 3B       		.uleb128 0x3b
 1221 0106 0B       		.uleb128 0xb
 1222 0107 49       		.uleb128 0x49
 1223 0108 13       		.uleb128 0x13
 1224 0109 02       		.uleb128 0x2
 1225 010a 17       		.uleb128 0x17
 1226 010b 00       		.byte	0
 1227 010c 00       		.byte	0
 1228 010d 14       		.uleb128 0x14
 1229 010e 898201   		.uleb128 0x4109
 1230 0111 00       		.byte	0
 1231 0112 11       		.uleb128 0x11
 1232 0113 01       		.uleb128 0x1
 1233 0114 31       		.uleb128 0x31
 1234 0115 13       		.uleb128 0x13
 1235 0116 00       		.byte	0
 1236 0117 00       		.byte	0
 1237 0118 15       		.uleb128 0x15
ARM GAS  C:\Users\aupen\AppData\Local\Temp\cc9dMVob.s 			page 26


 1238 0119 898201   		.uleb128 0x4109
 1239 011c 01       		.byte	0x1
 1240 011d 11       		.uleb128 0x11
 1241 011e 01       		.uleb128 0x1
 1242 011f 31       		.uleb128 0x31
 1243 0120 13       		.uleb128 0x13
 1244 0121 00       		.byte	0
 1245 0122 00       		.byte	0
 1246 0123 16       		.uleb128 0x16
 1247 0124 8A8201   		.uleb128 0x410a
 1248 0127 00       		.byte	0
 1249 0128 02       		.uleb128 0x2
 1250 0129 18       		.uleb128 0x18
 1251 012a 9142     		.uleb128 0x2111
 1252 012c 18       		.uleb128 0x18
 1253 012d 00       		.byte	0
 1254 012e 00       		.byte	0
 1255 012f 17       		.uleb128 0x17
 1256 0130 898201   		.uleb128 0x4109
 1257 0133 01       		.byte	0x1
 1258 0134 11       		.uleb128 0x11
 1259 0135 01       		.uleb128 0x1
 1260 0136 31       		.uleb128 0x31
 1261 0137 13       		.uleb128 0x13
 1262 0138 01       		.uleb128 0x1
 1263 0139 13       		.uleb128 0x13
 1264 013a 00       		.byte	0
 1265 013b 00       		.byte	0
 1266 013c 18       		.uleb128 0x18
 1267 013d 34       		.uleb128 0x34
 1268 013e 00       		.byte	0
 1269 013f 03       		.uleb128 0x3
 1270 0140 0E       		.uleb128 0xe
 1271 0141 3A       		.uleb128 0x3a
 1272 0142 0B       		.uleb128 0xb
 1273 0143 3B       		.uleb128 0x3b
 1274 0144 0B       		.uleb128 0xb
 1275 0145 49       		.uleb128 0x49
 1276 0146 13       		.uleb128 0x13
 1277 0147 3F       		.uleb128 0x3f
 1278 0148 19       		.uleb128 0x19
 1279 0149 02       		.uleb128 0x2
 1280 014a 18       		.uleb128 0x18
 1281 014b 00       		.byte	0
 1282 014c 00       		.byte	0
 1283 014d 19       		.uleb128 0x19
 1284 014e 34       		.uleb128 0x34
 1285 014f 00       		.byte	0
 1286 0150 03       		.uleb128 0x3
 1287 0151 08       		.uleb128 0x8
 1288 0152 3A       		.uleb128 0x3a
 1289 0153 0B       		.uleb128 0xb
 1290 0154 3B       		.uleb128 0x3b
 1291 0155 0B       		.uleb128 0xb
 1292 0156 49       		.uleb128 0x49
 1293 0157 13       		.uleb128 0x13
 1294 0158 3F       		.uleb128 0x3f
ARM GAS  C:\Users\aupen\AppData\Local\Temp\cc9dMVob.s 			page 27


 1295 0159 19       		.uleb128 0x19
 1296 015a 02       		.uleb128 0x2
 1297 015b 18       		.uleb128 0x18
 1298 015c 00       		.byte	0
 1299 015d 00       		.byte	0
 1300 015e 1A       		.uleb128 0x1a
 1301 015f 2E       		.uleb128 0x2e
 1302 0160 00       		.byte	0
 1303 0161 3F       		.uleb128 0x3f
 1304 0162 19       		.uleb128 0x19
 1305 0163 3C       		.uleb128 0x3c
 1306 0164 19       		.uleb128 0x19
 1307 0165 6E       		.uleb128 0x6e
 1308 0166 0E       		.uleb128 0xe
 1309 0167 03       		.uleb128 0x3
 1310 0168 0E       		.uleb128 0xe
 1311 0169 3A       		.uleb128 0x3a
 1312 016a 0B       		.uleb128 0xb
 1313 016b 3B       		.uleb128 0x3b
 1314 016c 0B       		.uleb128 0xb
 1315 016d 00       		.byte	0
 1316 016e 00       		.byte	0
 1317 016f 00       		.byte	0
 1318              		.section	.debug_loc,"",%progbits
 1319              	.Ldebug_loc0:
 1320              	.LLST0:
 1321 0000 00000000 		.4byte	.LVL0
 1322 0004 08000000 		.4byte	.LVL1
 1323 0008 0100     		.2byte	0x1
 1324 000a 50       		.byte	0x50
 1325 000b 08000000 		.4byte	.LVL1
 1326 000f 10000000 		.4byte	.LFE1
 1327 0013 0400     		.2byte	0x4
 1328 0015 F3       		.byte	0xf3
 1329 0016 01       		.uleb128 0x1
 1330 0017 50       		.byte	0x50
 1331 0018 9F       		.byte	0x9f
 1332 0019 00000000 		.4byte	0
 1333 001d 00000000 		.4byte	0
 1334              	.LLST1:
 1335 0021 08000000 		.4byte	.LVL1
 1336 0025 0B000000 		.4byte	.LVL2-1
 1337 0029 0100     		.2byte	0x1
 1338 002b 50       		.byte	0x50
 1339 002c 00000000 		.4byte	0
 1340 0030 00000000 		.4byte	0
 1341              	.LLST2:
 1342 0034 98000000 		.4byte	.LVL19
 1343 0038 C6000000 		.4byte	.LVL21
 1344 003c 0100     		.2byte	0x1
 1345 003e 50       		.byte	0x50
 1346 003f C6000000 		.4byte	.LVL21
 1347 0043 CD000000 		.4byte	.LVL22-1
 1348 0047 0400     		.2byte	0x4
 1349 0049 72       		.byte	0x72
 1350 004a CC3A     		.sleb128 7500
 1351 004c 9F       		.byte	0x9f
ARM GAS  C:\Users\aupen\AppData\Local\Temp\cc9dMVob.s 			page 28


 1352 004d D0000000 		.4byte	.LVL23
 1353 0051 DE000000 		.4byte	.LVL25
 1354 0055 0100     		.2byte	0x1
 1355 0057 50       		.byte	0x50
 1356 0058 DE000000 		.4byte	.LVL25
 1357 005c E1000000 		.4byte	.LVL26-1
 1358 0060 0A00     		.2byte	0xa
 1359 0062 03       		.byte	0x3
 1360 0063 00000000 		.4byte	lastError
 1361 0067 06       		.byte	0x6
 1362 0068 23       		.byte	0x23
 1363 0069 CC3A     		.uleb128 0x1d4c
 1364 006b 9F       		.byte	0x9f
 1365 006c E4000000 		.4byte	.LVL27
 1366 0070 E6000000 		.4byte	.LVL28
 1367 0074 0100     		.2byte	0x1
 1368 0076 50       		.byte	0x50
 1369 0077 E6000000 		.4byte	.LVL28
 1370 007b E9000000 		.4byte	.LVL29-1
 1371 007f 0A00     		.2byte	0xa
 1372 0081 03       		.byte	0x3
 1373 0082 00000000 		.4byte	lastError
 1374 0086 06       		.byte	0x6
 1375 0087 23       		.byte	0x23
 1376 0088 CC3A     		.uleb128 0x1d4c
 1377 008a 9F       		.byte	0x9f
 1378 008b 00000000 		.4byte	0
 1379 008f 00000000 		.4byte	0
 1380              	.LLST3:
 1381 0093 A2000000 		.4byte	.LVL20
 1382 0097 CD000000 		.4byte	.LVL22-1
 1383 009b 0100     		.2byte	0x1
 1384 009d 52       		.byte	0x52
 1385 009e D0000000 		.4byte	.LVL23
 1386 00a2 D4000000 		.4byte	.LVL24
 1387 00a6 0100     		.2byte	0x1
 1388 00a8 52       		.byte	0x52
 1389 00a9 D4000000 		.4byte	.LVL24
 1390 00ad E1000000 		.4byte	.LVL26-1
 1391 00b1 0500     		.2byte	0x5
 1392 00b3 03       		.byte	0x3
 1393 00b4 00000000 		.4byte	lastError
 1394 00b8 E4000000 		.4byte	.LVL27
 1395 00bc E9000000 		.4byte	.LVL29-1
 1396 00c0 0500     		.2byte	0x5
 1397 00c2 03       		.byte	0x3
 1398 00c3 00000000 		.4byte	lastError
 1399 00c7 00000000 		.4byte	0
 1400 00cb 00000000 		.4byte	0
 1401              		.section	.debug_aranges,"",%progbits
 1402 0000 24000000 		.4byte	0x24
 1403 0004 0200     		.2byte	0x2
 1404 0006 00000000 		.4byte	.Ldebug_info0
 1405 000a 04       		.byte	0x4
 1406 000b 00       		.byte	0
 1407 000c 0000     		.2byte	0
 1408 000e 0000     		.2byte	0
ARM GAS  C:\Users\aupen\AppData\Local\Temp\cc9dMVob.s 			page 29


 1409 0010 00000000 		.4byte	.LFB1
 1410 0014 10000000 		.4byte	.LFE1-.LFB1
 1411 0018 00000000 		.4byte	.LFB2
 1412 001c 24010000 		.4byte	.LFE2-.LFB2
 1413 0020 00000000 		.4byte	0
 1414 0024 00000000 		.4byte	0
 1415              		.section	.debug_ranges,"",%progbits
 1416              	.Ldebug_ranges0:
 1417 0000 80000000 		.4byte	.LBB6
 1418 0004 88000000 		.4byte	.LBE6
 1419 0008 90000000 		.4byte	.LBB7
 1420 000c F4000000 		.4byte	.LBE7
 1421 0010 00000000 		.4byte	0
 1422 0014 00000000 		.4byte	0
 1423 0018 00000000 		.4byte	.LFB1
 1424 001c 10000000 		.4byte	.LFE1
 1425 0020 00000000 		.4byte	.LFB2
 1426 0024 24010000 		.4byte	.LFE2
 1427 0028 00000000 		.4byte	0
 1428 002c 00000000 		.4byte	0
 1429              		.section	.debug_line,"",%progbits
 1430              	.Ldebug_line0:
 1431 0000 1D020000 		.section	.debug_str,"MS",%progbits,1
 1431      0200A501 
 1431      00000201 
 1431      FB0E0D00 
 1431      01010101 
 1432              	.LASF18:
 1433 0000 64657465 		.ascii	"detectedSensors\000"
 1433      63746564 
 1433      53656E73 
 1433      6F727300 
 1434              	.LASF64:
 1435 0010 433A5C55 		.ascii	"C:\\Users\\aupen\\OneDrive\\Desktop\\robocode\\line"
 1435      73657273 
 1435      5C617570 
 1435      656E5C4F 
 1435      6E654472 
 1436 003d 666F6C6C 		.ascii	"follower\\S1.cydsn\000"
 1436      6F776572 
 1436      5C53312E 
 1436      63796473 
 1436      6E00
 1437              	.LASF36:
 1438 004f 674D6F74 		.ascii	"gMotor\000"
 1438      6F7200
 1439              	.LASF60:
 1440 0056 45736353 		.ascii	"EscStop\000"
 1440      746F7000 
 1441              	.LASF20:
 1442 005e 67447269 		.ascii	"gDrivevars\000"
 1442      76657661 
 1442      727300
 1443              	.LASF39:
 1444 0069 6C617374 		.ascii	"lastError\000"
 1444      4572726F 
 1444      7200
ARM GAS  C:\Users\aupen\AppData\Local\Temp\cc9dMVob.s 			page 30


 1445              	.LASF2:
 1446 0073 73686F72 		.ascii	"short int\000"
 1446      7420696E 
 1446      7400
 1447              	.LASF38:
 1448 007d 6D6F746F 		.ascii	"motorSpeed\000"
 1448      72537065 
 1448      656400
 1449              	.LASF15:
 1450 0088 73697A65 		.ascii	"sizetype\000"
 1450      74797065 
 1450      00
 1451              	.LASF40:
 1452 0091 6572726F 		.ascii	"errorbaseSpeed\000"
 1452      72626173 
 1452      65537065 
 1452      656400
 1453              	.LASF65:
 1454 00a0 6D61696E 		.ascii	"main\000"
 1454      00
 1455              	.LASF50:
 1456 00a5 45736341 		.ascii	"EscArm\000"
 1456      726D00
 1457              	.LASF45:
 1458 00ac 7475726E 		.ascii	"turn_right\000"
 1458      5F726967 
 1458      687400
 1459              	.LASF51:
 1460 00b7 42545F49 		.ascii	"BT_Init\000"
 1460      6E697400 
 1461              	.LASF49:
 1462 00bf 53657276 		.ascii	"Servo_Start\000"
 1462      6F5F5374 
 1462      61727400 
 1463              	.LASF59:
 1464 00cb 65736353 		.ascii	"escSpin\000"
 1464      70696E00 
 1465              	.LASF16:
 1466 00d3 72656164 		.ascii	"readValue\000"
 1466      56616C75 
 1466      6500
 1467              	.LASF11:
 1468 00dd 666C6F61 		.ascii	"float\000"
 1468      7400
 1469              	.LASF6:
 1470 00e3 6C6F6E67 		.ascii	"long long int\000"
 1470      206C6F6E 
 1470      6720696E 
 1470      7400
 1471              	.LASF4:
 1472 00f1 6C6F6E67 		.ascii	"long int\000"
 1472      20696E74 
 1472      00
 1473              	.LASF19:
 1474 00fa 6C696E65 		.ascii	"lineSenors\000"
 1474      53656E6F 
 1474      727300
ARM GAS  C:\Users\aupen\AppData\Local\Temp\cc9dMVob.s 			page 31


 1475              	.LASF30:
 1476 0105 7475726E 		.ascii	"turnSpeed\000"
 1476      53706565 
 1476      6400
 1477              	.LASF27:
 1478 010f 65736353 		.ascii	"escSpinning\000"
 1478      70696E6E 
 1478      696E6700 
 1479              	.LASF31:
 1480 011b 65736353 		.ascii	"escSpeed\000"
 1480      70656564 
 1480      00
 1481              	.LASF57:
 1482 0124 42757474 		.ascii	"Button_Read\000"
 1482      6F6E5F52 
 1482      65616400 
 1483              	.LASF14:
 1484 0130 6C6F6E67 		.ascii	"long double\000"
 1484      20646F75 
 1484      626C6500 
 1485              	.LASF29:
 1486 013c 62617365 		.ascii	"baseSpeed\000"
 1486      53706565 
 1486      6400
 1487              	.LASF47:
 1488 0146 43794465 		.ascii	"CyDelayUs\000"
 1488      6C617955 
 1488      7300
 1489              	.LASF1:
 1490 0150 756E7369 		.ascii	"unsigned char\000"
 1490      676E6564 
 1490      20636861 
 1490      7200
 1491              	.LASF52:
 1492 015e 4144435F 		.ascii	"ADC_SAR_Start\000"
 1492      5341525F 
 1492      53746172 
 1492      7400
 1493              	.LASF26:
 1494 016c 64726976 		.ascii	"driving\000"
 1494      696E6700 
 1495              	.LASF0:
 1496 0174 7369676E 		.ascii	"signed char\000"
 1496      65642063 
 1496      68617200 
 1497              	.LASF7:
 1498 0180 6C6F6E67 		.ascii	"long long unsigned int\000"
 1498      206C6F6E 
 1498      6720756E 
 1498      7369676E 
 1498      65642069 
 1499              	.LASF58:
 1500 0197 63686563 		.ascii	"checkBtData\000"
 1500      6B427444 
 1500      61746100 
 1501              	.LASF8:
 1502 01a3 756E7369 		.ascii	"unsigned int\000"
ARM GAS  C:\Users\aupen\AppData\Local\Temp\cc9dMVob.s 			page 32


 1502      676E6564 
 1502      20696E74 
 1502      00
 1503              	.LASF34:
 1504 01b0 6572726F 		.ascii	"error\000"
 1504      7200
 1505              	.LASF37:
 1506 01b6 73656E73 		.ascii	"sensorValues\000"
 1506      6F725661 
 1506      6C756573 
 1506      00
 1507              	.LASF5:
 1508 01c3 6C6F6E67 		.ascii	"long unsigned int\000"
 1508      20756E73 
 1508      69676E65 
 1508      6420696E 
 1508      7400
 1509              	.LASF62:
 1510 01d5 474E5520 		.ascii	"GNU C11 5.4.1 20160609 (release) [ARM/embedded-5-br"
 1510      43313120 
 1510      352E342E 
 1510      31203230 
 1510      31363036 
 1511 0208 616E6368 		.ascii	"anch revision 237715] -mcpu=cortex-m3 -mthumb -g -O"
 1511      20726576 
 1511      6973696F 
 1511      6E203233 
 1511      37373135 
 1512 023b 73202D66 		.ascii	"s -ffunction-sections -ffat-lto-objects\000"
 1512      66756E63 
 1512      74696F6E 
 1512      2D736563 
 1512      74696F6E 
 1513              	.LASF3:
 1514 0263 73686F72 		.ascii	"short unsigned int\000"
 1514      7420756E 
 1514      7369676E 
 1514      65642069 
 1514      6E7400
 1515              	.LASF41:
 1516 0276 73746F70 		.ascii	"stop\000"
 1516      00
 1517              	.LASF13:
 1518 027b 63686172 		.ascii	"char\000"
 1518      00
 1519              	.LASF42:
 1520 0280 64726976 		.ascii	"drive_motors\000"
 1520      655F6D6F 
 1520      746F7273 
 1520      00
 1521              	.LASF10:
 1522 028d 696E7433 		.ascii	"int32_t\000"
 1522      325F7400 
 1523              	.LASF23:
 1524 0295 6D61785F 		.ascii	"max_pwm_Limited_L\000"
 1524      70776D5F 
 1524      4C696D69 
ARM GAS  C:\Users\aupen\AppData\Local\Temp\cc9dMVob.s 			page 33


 1524      7465645F 
 1524      4C00
 1525              	.LASF24:
 1526 02a7 6D61785F 		.ascii	"max_pwm_Limited_R\000"
 1526      70776D5F 
 1526      4C696D69 
 1526      7465645F 
 1526      5200
 1527              	.LASF61:
 1528 02b9 64726976 		.ascii	"drive_backward\000"
 1528      655F6261 
 1528      636B7761 
 1528      726400
 1529              	.LASF53:
 1530 02c8 4144435F 		.ascii	"ADC_SAR_StartConvert\000"
 1530      5341525F 
 1530      53746172 
 1530      74436F6E 
 1530      76657274 
 1531              	.LASF55:
 1532 02dd 64726976 		.ascii	"drive_forward\000"
 1532      655F666F 
 1532      72776172 
 1532      6400
 1533              	.LASF63:
 1534 02eb 6D61696E 		.ascii	"main.c\000"
 1534      2E6300
 1535              	.LASF54:
 1536 02f2 74696D65 		.ascii	"time_start\000"
 1536      5F737461 
 1536      727400
 1537              	.LASF22:
 1538 02fd 7475726E 		.ascii	"turn_speed\000"
 1538      5F737065 
 1538      656400
 1539              	.LASF12:
 1540 0308 646F7562 		.ascii	"double\000"
 1540      6C6500
 1541              	.LASF44:
 1542 030f 63686563 		.ascii	"checkSensors\000"
 1542      6B53656E 
 1542      736F7273 
 1542      00
 1543              	.LASF28:
 1544 031c 62745661 		.ascii	"btValue\000"
 1544      6C756500 
 1545              	.LASF9:
 1546 0324 5F5F696E 		.ascii	"__int32_t\000"
 1546      7433325F 
 1546      7400
 1547              	.LASF35:
 1548 032e 6753656E 		.ascii	"gSensors\000"
 1548      736F7273 
 1548      00
 1549              	.LASF17:
 1550 0337 74687265 		.ascii	"thresholdValue\000"
 1550      73686F6C 
ARM GAS  C:\Users\aupen\AppData\Local\Temp\cc9dMVob.s 			page 34


 1550      6456616C 
 1550      756500
 1551              	.LASF32:
 1552 0346 6F455343 		.ascii	"oESC\000"
 1552      00
 1553              	.LASF25:
 1554 034b 6274436F 		.ascii	"btComands\000"
 1554      6D616E64 
 1554      7300
 1555              	.LASF46:
 1556 0355 7475726E 		.ascii	"turn_left\000"
 1556      5F6C6566 
 1556      7400
 1557              	.LASF33:
 1558 035f 706F7369 		.ascii	"position\000"
 1558      74696F6E 
 1558      00
 1559              	.LASF56:
 1560 0368 43794465 		.ascii	"CyDelay\000"
 1560      6C617900 
 1561              	.LASF21:
 1562 0370 62617369 		.ascii	"basic_speed\000"
 1562      635F7370 
 1562      65656400 
 1563              	.LASF43:
 1564 037c 63686563 		.ascii	"checkBtStop\000"
 1564      6B427453 
 1564      746F7000 
 1565              	.LASF48:
 1566 0388 4D6F746F 		.ascii	"Motor_Init\000"
 1566      725F496E 
 1566      697400
 1567              		.ident	"GCC: (GNU Tools for ARM Embedded Processors) 5.4.1 20160609 (release) [ARM/embedded-5-bran
