ARM GAS  C:\Users\aupen\AppData\Local\Temp\cc0orRvf.s 			page 1


   1              		.syntax unified
   2              		.cpu cortex-m3
   3              		.fpu softvfp
   4              		.eabi_attribute 20, 1
   5              		.eabi_attribute 21, 1
   6              		.eabi_attribute 23, 3
   7              		.eabi_attribute 24, 1
   8              		.eabi_attribute 25, 1
   9              		.eabi_attribute 26, 1
  10              		.eabi_attribute 30, 4
  11              		.eabi_attribute 34, 1
  12              		.eabi_attribute 18, 4
  13              		.thumb
  14              		.syntax unified
  15              		.file	"MOT_PWM_PM.c"
  16              		.text
  17              	.Ltext0:
  18              		.cfi_sections	.debug_frame
  19              		.section	.text.MOT_PWM_SaveConfig,"ax",%progbits
  20              		.align	1
  21              		.global	MOT_PWM_SaveConfig
  22              		.thumb
  23              		.thumb_func
  24              		.type	MOT_PWM_SaveConfig, %function
  25              	MOT_PWM_SaveConfig:
  26              	.LFB0:
  27              		.file 1 "Generated_Source\\PSoC5\\MOT_PWM_PM.c"
   1:Generated_Source\PSoC5/MOT_PWM_PM.c **** /*******************************************************************************
   2:Generated_Source\PSoC5/MOT_PWM_PM.c **** * File Name: MOT_PWM_PM.c
   3:Generated_Source\PSoC5/MOT_PWM_PM.c **** * Version 3.30
   4:Generated_Source\PSoC5/MOT_PWM_PM.c **** *
   5:Generated_Source\PSoC5/MOT_PWM_PM.c **** * Description:
   6:Generated_Source\PSoC5/MOT_PWM_PM.c **** *  This file provides the power management source code to API for the
   7:Generated_Source\PSoC5/MOT_PWM_PM.c **** *  PWM.
   8:Generated_Source\PSoC5/MOT_PWM_PM.c **** *
   9:Generated_Source\PSoC5/MOT_PWM_PM.c **** * Note:
  10:Generated_Source\PSoC5/MOT_PWM_PM.c **** *
  11:Generated_Source\PSoC5/MOT_PWM_PM.c **** ********************************************************************************
  12:Generated_Source\PSoC5/MOT_PWM_PM.c **** * Copyright 2008-2014, Cypress Semiconductor Corporation.  All rights reserved.
  13:Generated_Source\PSoC5/MOT_PWM_PM.c **** * You may use this file only in accordance with the license, terms, conditions,
  14:Generated_Source\PSoC5/MOT_PWM_PM.c **** * disclaimers, and limitations in the end user license agreement accompanying
  15:Generated_Source\PSoC5/MOT_PWM_PM.c **** * the software package with which this file was provided.
  16:Generated_Source\PSoC5/MOT_PWM_PM.c **** *******************************************************************************/
  17:Generated_Source\PSoC5/MOT_PWM_PM.c **** 
  18:Generated_Source\PSoC5/MOT_PWM_PM.c **** #include "MOT_PWM.h"
  19:Generated_Source\PSoC5/MOT_PWM_PM.c **** 
  20:Generated_Source\PSoC5/MOT_PWM_PM.c **** static MOT_PWM_backupStruct MOT_PWM_backup;
  21:Generated_Source\PSoC5/MOT_PWM_PM.c **** 
  22:Generated_Source\PSoC5/MOT_PWM_PM.c **** 
  23:Generated_Source\PSoC5/MOT_PWM_PM.c **** /*******************************************************************************
  24:Generated_Source\PSoC5/MOT_PWM_PM.c **** * Function Name: MOT_PWM_SaveConfig
  25:Generated_Source\PSoC5/MOT_PWM_PM.c **** ********************************************************************************
  26:Generated_Source\PSoC5/MOT_PWM_PM.c **** *
  27:Generated_Source\PSoC5/MOT_PWM_PM.c **** * Summary:
  28:Generated_Source\PSoC5/MOT_PWM_PM.c **** *  Saves the current user configuration of the component.
  29:Generated_Source\PSoC5/MOT_PWM_PM.c **** *
  30:Generated_Source\PSoC5/MOT_PWM_PM.c **** * Parameters:
ARM GAS  C:\Users\aupen\AppData\Local\Temp\cc0orRvf.s 			page 2


  31:Generated_Source\PSoC5/MOT_PWM_PM.c **** *  None
  32:Generated_Source\PSoC5/MOT_PWM_PM.c **** *
  33:Generated_Source\PSoC5/MOT_PWM_PM.c **** * Return:
  34:Generated_Source\PSoC5/MOT_PWM_PM.c **** *  None
  35:Generated_Source\PSoC5/MOT_PWM_PM.c **** *
  36:Generated_Source\PSoC5/MOT_PWM_PM.c **** * Global variables:
  37:Generated_Source\PSoC5/MOT_PWM_PM.c **** *  MOT_PWM_backup:  Variables of this global structure are modified to
  38:Generated_Source\PSoC5/MOT_PWM_PM.c **** *  store the values of non retention configuration registers when Sleep() API is
  39:Generated_Source\PSoC5/MOT_PWM_PM.c **** *  called.
  40:Generated_Source\PSoC5/MOT_PWM_PM.c **** *
  41:Generated_Source\PSoC5/MOT_PWM_PM.c **** *******************************************************************************/
  42:Generated_Source\PSoC5/MOT_PWM_PM.c **** void MOT_PWM_SaveConfig(void) 
  43:Generated_Source\PSoC5/MOT_PWM_PM.c **** {
  28              		.loc 1 43 0
  29              		.cfi_startproc
  30              		@ args = 0, pretend = 0, frame = 0
  31              		@ frame_needed = 0, uses_anonymous_args = 0
  32 0000 10B5     		push	{r4, lr}
  33              		.cfi_def_cfa_offset 8
  34              		.cfi_offset 4, -8
  35              		.cfi_offset 14, -4
  44:Generated_Source\PSoC5/MOT_PWM_PM.c **** 
  45:Generated_Source\PSoC5/MOT_PWM_PM.c ****     #if(!MOT_PWM_UsingFixedFunction)
  46:Generated_Source\PSoC5/MOT_PWM_PM.c ****         #if(!MOT_PWM_PWMModeIsCenterAligned)
  47:Generated_Source\PSoC5/MOT_PWM_PM.c ****             MOT_PWM_backup.PWMPeriod = MOT_PWM_ReadPeriod();
  36              		.loc 1 47 0
  37 0002 FFF7FEFF 		bl	MOT_PWM_ReadPeriod
  38              	.LVL0:
  39 0006 064C     		ldr	r4, .L2
  40 0008 A070     		strb	r0, [r4, #2]
  48:Generated_Source\PSoC5/MOT_PWM_PM.c ****         #endif /* (!MOT_PWM_PWMModeIsCenterAligned) */
  49:Generated_Source\PSoC5/MOT_PWM_PM.c ****         MOT_PWM_backup.PWMUdb = MOT_PWM_ReadCounter();
  41              		.loc 1 49 0
  42 000a FFF7FEFF 		bl	MOT_PWM_ReadCounter
  43              	.LVL1:
  44 000e 6070     		strb	r0, [r4, #1]
  50:Generated_Source\PSoC5/MOT_PWM_PM.c ****         #if (MOT_PWM_UseStatus)
  51:Generated_Source\PSoC5/MOT_PWM_PM.c ****             MOT_PWM_backup.InterruptMaskValue = MOT_PWM_STATUS_MASK;
  52:Generated_Source\PSoC5/MOT_PWM_PM.c ****         #endif /* (MOT_PWM_UseStatus) */
  53:Generated_Source\PSoC5/MOT_PWM_PM.c **** 
  54:Generated_Source\PSoC5/MOT_PWM_PM.c ****         #if(MOT_PWM_DeadBandMode == MOT_PWM__B_PWM__DBM_256_CLOCKS || \
  55:Generated_Source\PSoC5/MOT_PWM_PM.c ****             MOT_PWM_DeadBandMode == MOT_PWM__B_PWM__DBM_2_4_CLOCKS)
  56:Generated_Source\PSoC5/MOT_PWM_PM.c ****             MOT_PWM_backup.PWMdeadBandValue = MOT_PWM_ReadDeadTime();
  57:Generated_Source\PSoC5/MOT_PWM_PM.c ****         #endif /*  deadband count is either 2-4 clocks or 256 clocks */
  58:Generated_Source\PSoC5/MOT_PWM_PM.c **** 
  59:Generated_Source\PSoC5/MOT_PWM_PM.c ****         #if(MOT_PWM_KillModeMinTime)
  60:Generated_Source\PSoC5/MOT_PWM_PM.c ****              MOT_PWM_backup.PWMKillCounterPeriod = MOT_PWM_ReadKillTime();
  45              		.loc 1 60 0
  46 0010 FFF7FEFF 		bl	MOT_PWM_ReadKillTime
  47              	.LVL2:
  48 0014 E070     		strb	r0, [r4, #3]
  61:Generated_Source\PSoC5/MOT_PWM_PM.c ****         #endif /* (MOT_PWM_KillModeMinTime) */
  62:Generated_Source\PSoC5/MOT_PWM_PM.c **** 
  63:Generated_Source\PSoC5/MOT_PWM_PM.c ****         #if(MOT_PWM_UseControl)
  64:Generated_Source\PSoC5/MOT_PWM_PM.c ****             MOT_PWM_backup.PWMControlRegister = MOT_PWM_ReadControlRegister();
  49              		.loc 1 64 0
  50 0016 FFF7FEFF 		bl	MOT_PWM_ReadControlRegister
ARM GAS  C:\Users\aupen\AppData\Local\Temp\cc0orRvf.s 			page 3


  51              	.LVL3:
  52 001a 2071     		strb	r0, [r4, #4]
  53 001c 10BD     		pop	{r4, pc}
  54              	.L3:
  55 001e 00BF     		.align	2
  56              	.L2:
  57 0020 00000000 		.word	.LANCHOR0
  58              		.cfi_endproc
  59              	.LFE0:
  60              		.size	MOT_PWM_SaveConfig, .-MOT_PWM_SaveConfig
  61              		.section	.text.MOT_PWM_RestoreConfig,"ax",%progbits
  62              		.align	1
  63              		.global	MOT_PWM_RestoreConfig
  64              		.thumb
  65              		.thumb_func
  66              		.type	MOT_PWM_RestoreConfig, %function
  67              	MOT_PWM_RestoreConfig:
  68              	.LFB1:
  65:Generated_Source\PSoC5/MOT_PWM_PM.c ****         #endif /* (MOT_PWM_UseControl) */
  66:Generated_Source\PSoC5/MOT_PWM_PM.c ****     #endif  /* (!MOT_PWM_UsingFixedFunction) */
  67:Generated_Source\PSoC5/MOT_PWM_PM.c **** }
  68:Generated_Source\PSoC5/MOT_PWM_PM.c **** 
  69:Generated_Source\PSoC5/MOT_PWM_PM.c **** 
  70:Generated_Source\PSoC5/MOT_PWM_PM.c **** /*******************************************************************************
  71:Generated_Source\PSoC5/MOT_PWM_PM.c **** * Function Name: MOT_PWM_RestoreConfig
  72:Generated_Source\PSoC5/MOT_PWM_PM.c **** ********************************************************************************
  73:Generated_Source\PSoC5/MOT_PWM_PM.c **** *
  74:Generated_Source\PSoC5/MOT_PWM_PM.c **** * Summary:
  75:Generated_Source\PSoC5/MOT_PWM_PM.c **** *  Restores the current user configuration of the component.
  76:Generated_Source\PSoC5/MOT_PWM_PM.c **** *
  77:Generated_Source\PSoC5/MOT_PWM_PM.c **** * Parameters:
  78:Generated_Source\PSoC5/MOT_PWM_PM.c **** *  None
  79:Generated_Source\PSoC5/MOT_PWM_PM.c **** *
  80:Generated_Source\PSoC5/MOT_PWM_PM.c **** * Return:
  81:Generated_Source\PSoC5/MOT_PWM_PM.c **** *  None
  82:Generated_Source\PSoC5/MOT_PWM_PM.c **** *
  83:Generated_Source\PSoC5/MOT_PWM_PM.c **** * Global variables:
  84:Generated_Source\PSoC5/MOT_PWM_PM.c **** *  MOT_PWM_backup:  Variables of this global structure are used to
  85:Generated_Source\PSoC5/MOT_PWM_PM.c **** *  restore the values of non retention registers on wakeup from sleep mode.
  86:Generated_Source\PSoC5/MOT_PWM_PM.c **** *
  87:Generated_Source\PSoC5/MOT_PWM_PM.c **** *******************************************************************************/
  88:Generated_Source\PSoC5/MOT_PWM_PM.c **** void MOT_PWM_RestoreConfig(void) 
  89:Generated_Source\PSoC5/MOT_PWM_PM.c **** {
  69              		.loc 1 89 0
  70              		.cfi_startproc
  71              		@ args = 0, pretend = 0, frame = 0
  72              		@ frame_needed = 0, uses_anonymous_args = 0
  73 0000 10B5     		push	{r4, lr}
  74              		.cfi_def_cfa_offset 8
  75              		.cfi_offset 4, -8
  76              		.cfi_offset 14, -4
  90:Generated_Source\PSoC5/MOT_PWM_PM.c ****         #if(!MOT_PWM_UsingFixedFunction)
  91:Generated_Source\PSoC5/MOT_PWM_PM.c ****             #if(!MOT_PWM_PWMModeIsCenterAligned)
  92:Generated_Source\PSoC5/MOT_PWM_PM.c ****                 MOT_PWM_WritePeriod(MOT_PWM_backup.PWMPeriod);
  77              		.loc 1 92 0
  78 0002 074C     		ldr	r4, .L5
  79 0004 A078     		ldrb	r0, [r4, #2]	@ zero_extendqisi2
ARM GAS  C:\Users\aupen\AppData\Local\Temp\cc0orRvf.s 			page 4


  80 0006 FFF7FEFF 		bl	MOT_PWM_WritePeriod
  81              	.LVL4:
  93:Generated_Source\PSoC5/MOT_PWM_PM.c ****             #endif /* (!MOT_PWM_PWMModeIsCenterAligned) */
  94:Generated_Source\PSoC5/MOT_PWM_PM.c **** 
  95:Generated_Source\PSoC5/MOT_PWM_PM.c ****             MOT_PWM_WriteCounter(MOT_PWM_backup.PWMUdb);
  82              		.loc 1 95 0
  83 000a 6078     		ldrb	r0, [r4, #1]	@ zero_extendqisi2
  84 000c FFF7FEFF 		bl	MOT_PWM_WriteCounter
  85              	.LVL5:
  96:Generated_Source\PSoC5/MOT_PWM_PM.c **** 
  97:Generated_Source\PSoC5/MOT_PWM_PM.c ****             #if (MOT_PWM_UseStatus)
  98:Generated_Source\PSoC5/MOT_PWM_PM.c ****                 MOT_PWM_STATUS_MASK = MOT_PWM_backup.InterruptMaskValue;
  99:Generated_Source\PSoC5/MOT_PWM_PM.c ****             #endif /* (MOT_PWM_UseStatus) */
 100:Generated_Source\PSoC5/MOT_PWM_PM.c **** 
 101:Generated_Source\PSoC5/MOT_PWM_PM.c ****             #if(MOT_PWM_DeadBandMode == MOT_PWM__B_PWM__DBM_256_CLOCKS || \
 102:Generated_Source\PSoC5/MOT_PWM_PM.c ****                 MOT_PWM_DeadBandMode == MOT_PWM__B_PWM__DBM_2_4_CLOCKS)
 103:Generated_Source\PSoC5/MOT_PWM_PM.c ****                 MOT_PWM_WriteDeadTime(MOT_PWM_backup.PWMdeadBandValue);
 104:Generated_Source\PSoC5/MOT_PWM_PM.c ****             #endif /* deadband count is either 2-4 clocks or 256 clocks */
 105:Generated_Source\PSoC5/MOT_PWM_PM.c **** 
 106:Generated_Source\PSoC5/MOT_PWM_PM.c ****             #if(MOT_PWM_KillModeMinTime)
 107:Generated_Source\PSoC5/MOT_PWM_PM.c ****                 MOT_PWM_WriteKillTime(MOT_PWM_backup.PWMKillCounterPeriod);
  86              		.loc 1 107 0
  87 0010 E078     		ldrb	r0, [r4, #3]	@ zero_extendqisi2
  88 0012 FFF7FEFF 		bl	MOT_PWM_WriteKillTime
  89              	.LVL6:
 108:Generated_Source\PSoC5/MOT_PWM_PM.c ****             #endif /* (MOT_PWM_KillModeMinTime) */
 109:Generated_Source\PSoC5/MOT_PWM_PM.c **** 
 110:Generated_Source\PSoC5/MOT_PWM_PM.c ****             #if(MOT_PWM_UseControl)
 111:Generated_Source\PSoC5/MOT_PWM_PM.c ****                 MOT_PWM_WriteControlRegister(MOT_PWM_backup.PWMControlRegister);
  90              		.loc 1 111 0
  91 0016 2079     		ldrb	r0, [r4, #4]	@ zero_extendqisi2
 112:Generated_Source\PSoC5/MOT_PWM_PM.c ****             #endif /* (MOT_PWM_UseControl) */
 113:Generated_Source\PSoC5/MOT_PWM_PM.c ****         #endif  /* (!MOT_PWM_UsingFixedFunction) */
 114:Generated_Source\PSoC5/MOT_PWM_PM.c ****     }
  92              		.loc 1 114 0
  93 0018 BDE81040 		pop	{r4, lr}
  94              		.cfi_restore 14
  95              		.cfi_restore 4
  96              		.cfi_def_cfa_offset 0
 111:Generated_Source\PSoC5/MOT_PWM_PM.c ****             #endif /* (MOT_PWM_UseControl) */
  97              		.loc 1 111 0
  98 001c FFF7FEBF 		b	MOT_PWM_WriteControlRegister
  99              	.LVL7:
 100              	.L6:
 101              		.align	2
 102              	.L5:
 103 0020 00000000 		.word	.LANCHOR0
 104              		.cfi_endproc
 105              	.LFE1:
 106              		.size	MOT_PWM_RestoreConfig, .-MOT_PWM_RestoreConfig
 107              		.section	.text.MOT_PWM_Sleep,"ax",%progbits
 108              		.align	1
 109              		.global	MOT_PWM_Sleep
 110              		.thumb
 111              		.thumb_func
 112              		.type	MOT_PWM_Sleep, %function
 113              	MOT_PWM_Sleep:
ARM GAS  C:\Users\aupen\AppData\Local\Temp\cc0orRvf.s 			page 5


 114              	.LFB2:
 115:Generated_Source\PSoC5/MOT_PWM_PM.c **** 
 116:Generated_Source\PSoC5/MOT_PWM_PM.c **** 
 117:Generated_Source\PSoC5/MOT_PWM_PM.c **** /*******************************************************************************
 118:Generated_Source\PSoC5/MOT_PWM_PM.c **** * Function Name: MOT_PWM_Sleep
 119:Generated_Source\PSoC5/MOT_PWM_PM.c **** ********************************************************************************
 120:Generated_Source\PSoC5/MOT_PWM_PM.c **** *
 121:Generated_Source\PSoC5/MOT_PWM_PM.c **** * Summary:
 122:Generated_Source\PSoC5/MOT_PWM_PM.c **** *  Disables block's operation and saves the user configuration. Should be called
 123:Generated_Source\PSoC5/MOT_PWM_PM.c **** *  just prior to entering sleep.
 124:Generated_Source\PSoC5/MOT_PWM_PM.c **** *
 125:Generated_Source\PSoC5/MOT_PWM_PM.c **** * Parameters:
 126:Generated_Source\PSoC5/MOT_PWM_PM.c **** *  None
 127:Generated_Source\PSoC5/MOT_PWM_PM.c **** *
 128:Generated_Source\PSoC5/MOT_PWM_PM.c **** * Return:
 129:Generated_Source\PSoC5/MOT_PWM_PM.c **** *  None
 130:Generated_Source\PSoC5/MOT_PWM_PM.c **** *
 131:Generated_Source\PSoC5/MOT_PWM_PM.c **** * Global variables:
 132:Generated_Source\PSoC5/MOT_PWM_PM.c **** *  MOT_PWM_backup.PWMEnableState:  Is modified depending on the enable
 133:Generated_Source\PSoC5/MOT_PWM_PM.c **** *  state of the block before entering sleep mode.
 134:Generated_Source\PSoC5/MOT_PWM_PM.c **** *
 135:Generated_Source\PSoC5/MOT_PWM_PM.c **** *******************************************************************************/
 136:Generated_Source\PSoC5/MOT_PWM_PM.c **** void MOT_PWM_Sleep(void) 
 137:Generated_Source\PSoC5/MOT_PWM_PM.c **** {
 115              		.loc 1 137 0
 116              		.cfi_startproc
 117              		@ args = 0, pretend = 0, frame = 0
 118              		@ frame_needed = 0, uses_anonymous_args = 0
 119 0000 08B5     		push	{r3, lr}
 120              		.cfi_def_cfa_offset 8
 121              		.cfi_offset 3, -8
 122              		.cfi_offset 14, -4
 138:Generated_Source\PSoC5/MOT_PWM_PM.c ****     #if(MOT_PWM_UseControl)
 139:Generated_Source\PSoC5/MOT_PWM_PM.c ****         if(MOT_PWM_CTRL_ENABLE == (MOT_PWM_CONTROL & MOT_PWM_CTRL_ENABLE))
 123              		.loc 1 139 0
 124 0002 074B     		ldr	r3, .L11
 125 0004 1B78     		ldrb	r3, [r3]	@ zero_extendqisi2
 126 0006 13F0800F 		tst	r3, #128
 127 000a 064B     		ldr	r3, .L11+4
 140:Generated_Source\PSoC5/MOT_PWM_PM.c ****         {
 141:Generated_Source\PSoC5/MOT_PWM_PM.c ****             /*Component is enabled */
 142:Generated_Source\PSoC5/MOT_PWM_PM.c ****             MOT_PWM_backup.PWMEnableState = 1u;
 128              		.loc 1 142 0
 129 000c 14BF     		ite	ne
 130 000e 0122     		movne	r2, #1
 143:Generated_Source\PSoC5/MOT_PWM_PM.c ****         }
 144:Generated_Source\PSoC5/MOT_PWM_PM.c ****         else
 145:Generated_Source\PSoC5/MOT_PWM_PM.c ****         {
 146:Generated_Source\PSoC5/MOT_PWM_PM.c ****             /* Component is disabled */
 147:Generated_Source\PSoC5/MOT_PWM_PM.c ****             MOT_PWM_backup.PWMEnableState = 0u;
 131              		.loc 1 147 0
 132 0010 0022     		moveq	r2, #0
 133 0012 1A70     		strb	r2, [r3]
 148:Generated_Source\PSoC5/MOT_PWM_PM.c ****         }
 149:Generated_Source\PSoC5/MOT_PWM_PM.c ****     #endif /* (MOT_PWM_UseControl) */
 150:Generated_Source\PSoC5/MOT_PWM_PM.c **** 
 151:Generated_Source\PSoC5/MOT_PWM_PM.c ****     /* Stop component */
ARM GAS  C:\Users\aupen\AppData\Local\Temp\cc0orRvf.s 			page 6


 152:Generated_Source\PSoC5/MOT_PWM_PM.c ****     MOT_PWM_Stop();
 134              		.loc 1 152 0
 135 0014 FFF7FEFF 		bl	MOT_PWM_Stop
 136              	.LVL8:
 153:Generated_Source\PSoC5/MOT_PWM_PM.c **** 
 154:Generated_Source\PSoC5/MOT_PWM_PM.c ****     /* Save registers configuration */
 155:Generated_Source\PSoC5/MOT_PWM_PM.c ****     MOT_PWM_SaveConfig();
 156:Generated_Source\PSoC5/MOT_PWM_PM.c **** }
 137              		.loc 1 156 0
 138 0018 BDE80840 		pop	{r3, lr}
 139              		.cfi_restore 14
 140              		.cfi_restore 3
 141              		.cfi_def_cfa_offset 0
 155:Generated_Source\PSoC5/MOT_PWM_PM.c **** }
 142              		.loc 1 155 0
 143 001c FFF7FEBF 		b	MOT_PWM_SaveConfig
 144              	.LVL9:
 145              	.L12:
 146              		.align	2
 147              	.L11:
 148 0020 79640040 		.word	1073767545
 149 0024 00000000 		.word	.LANCHOR0
 150              		.cfi_endproc
 151              	.LFE2:
 152              		.size	MOT_PWM_Sleep, .-MOT_PWM_Sleep
 153              		.section	.text.MOT_PWM_Wakeup,"ax",%progbits
 154              		.align	1
 155              		.global	MOT_PWM_Wakeup
 156              		.thumb
 157              		.thumb_func
 158              		.type	MOT_PWM_Wakeup, %function
 159              	MOT_PWM_Wakeup:
 160              	.LFB3:
 157:Generated_Source\PSoC5/MOT_PWM_PM.c **** 
 158:Generated_Source\PSoC5/MOT_PWM_PM.c **** 
 159:Generated_Source\PSoC5/MOT_PWM_PM.c **** /*******************************************************************************
 160:Generated_Source\PSoC5/MOT_PWM_PM.c **** * Function Name: MOT_PWM_Wakeup
 161:Generated_Source\PSoC5/MOT_PWM_PM.c **** ********************************************************************************
 162:Generated_Source\PSoC5/MOT_PWM_PM.c **** *
 163:Generated_Source\PSoC5/MOT_PWM_PM.c **** * Summary:
 164:Generated_Source\PSoC5/MOT_PWM_PM.c **** *  Restores and enables the user configuration. Should be called just after
 165:Generated_Source\PSoC5/MOT_PWM_PM.c **** *  awaking from sleep.
 166:Generated_Source\PSoC5/MOT_PWM_PM.c **** *
 167:Generated_Source\PSoC5/MOT_PWM_PM.c **** * Parameters:
 168:Generated_Source\PSoC5/MOT_PWM_PM.c **** *  None
 169:Generated_Source\PSoC5/MOT_PWM_PM.c **** *
 170:Generated_Source\PSoC5/MOT_PWM_PM.c **** * Return:
 171:Generated_Source\PSoC5/MOT_PWM_PM.c **** *  None
 172:Generated_Source\PSoC5/MOT_PWM_PM.c **** *
 173:Generated_Source\PSoC5/MOT_PWM_PM.c **** * Global variables:
 174:Generated_Source\PSoC5/MOT_PWM_PM.c **** *  MOT_PWM_backup.pwmEnable:  Is used to restore the enable state of
 175:Generated_Source\PSoC5/MOT_PWM_PM.c **** *  block on wakeup from sleep mode.
 176:Generated_Source\PSoC5/MOT_PWM_PM.c **** *
 177:Generated_Source\PSoC5/MOT_PWM_PM.c **** *******************************************************************************/
 178:Generated_Source\PSoC5/MOT_PWM_PM.c **** void MOT_PWM_Wakeup(void) 
 179:Generated_Source\PSoC5/MOT_PWM_PM.c **** {
 161              		.loc 1 179 0
ARM GAS  C:\Users\aupen\AppData\Local\Temp\cc0orRvf.s 			page 7


 162              		.cfi_startproc
 163              		@ args = 0, pretend = 0, frame = 0
 164              		@ frame_needed = 0, uses_anonymous_args = 0
 165 0000 08B5     		push	{r3, lr}
 166              		.cfi_def_cfa_offset 8
 167              		.cfi_offset 3, -8
 168              		.cfi_offset 14, -4
 180:Generated_Source\PSoC5/MOT_PWM_PM.c ****      /* Restore registers values */
 181:Generated_Source\PSoC5/MOT_PWM_PM.c ****     MOT_PWM_RestoreConfig();
 169              		.loc 1 181 0
 170 0002 FFF7FEFF 		bl	MOT_PWM_RestoreConfig
 171              	.LVL10:
 182:Generated_Source\PSoC5/MOT_PWM_PM.c **** 
 183:Generated_Source\PSoC5/MOT_PWM_PM.c ****     if(MOT_PWM_backup.PWMEnableState != 0u)
 172              		.loc 1 183 0
 173 0006 044B     		ldr	r3, .L16
 174 0008 1B78     		ldrb	r3, [r3]	@ zero_extendqisi2
 175 000a 1BB1     		cbz	r3, .L13
 184:Generated_Source\PSoC5/MOT_PWM_PM.c ****     {
 185:Generated_Source\PSoC5/MOT_PWM_PM.c ****         /* Enable component's operation */
 186:Generated_Source\PSoC5/MOT_PWM_PM.c ****         MOT_PWM_Enable();
 187:Generated_Source\PSoC5/MOT_PWM_PM.c ****     } /* Do nothing if component's block was disabled before */
 188:Generated_Source\PSoC5/MOT_PWM_PM.c **** 
 189:Generated_Source\PSoC5/MOT_PWM_PM.c **** }
 176              		.loc 1 189 0
 177 000c BDE80840 		pop	{r3, lr}
 178              		.cfi_remember_state
 179              		.cfi_restore 14
 180              		.cfi_restore 3
 181              		.cfi_def_cfa_offset 0
 186:Generated_Source\PSoC5/MOT_PWM_PM.c ****     } /* Do nothing if component's block was disabled before */
 182              		.loc 1 186 0
 183 0010 FFF7FEBF 		b	MOT_PWM_Enable
 184              	.LVL11:
 185              	.L13:
 186              		.cfi_restore_state
 187 0014 08BD     		pop	{r3, pc}
 188              	.L17:
 189 0016 00BF     		.align	2
 190              	.L16:
 191 0018 00000000 		.word	.LANCHOR0
 192              		.cfi_endproc
 193              	.LFE3:
 194              		.size	MOT_PWM_Wakeup, .-MOT_PWM_Wakeup
 195              		.bss
 196              		.set	.LANCHOR0,. + 0
 197              		.type	MOT_PWM_backup, %object
 198              		.size	MOT_PWM_backup, 5
 199              	MOT_PWM_backup:
 200 0000 00000000 		.space	5
 200      00
 201              		.text
 202              	.Letext0:
 203              		.file 2 "Generated_Source\\PSoC5\\cytypes.h"
 204              		.file 3 "Generated_Source\\PSoC5\\MOT_PWM.h"
 205              		.section	.debug_info,"",%progbits
 206              	.Ldebug_info0:
ARM GAS  C:\Users\aupen\AppData\Local\Temp\cc0orRvf.s 			page 8


 207 0000 3B020000 		.4byte	0x23b
 208 0004 0400     		.2byte	0x4
 209 0006 00000000 		.4byte	.Ldebug_abbrev0
 210 000a 04       		.byte	0x4
 211 000b 01       		.uleb128 0x1
 212 000c 1F010000 		.4byte	.LASF36
 213 0010 0C       		.byte	0xc
 214 0011 BB020000 		.4byte	.LASF37
 215 0015 1C000000 		.4byte	.LASF38
 216 0019 00000000 		.4byte	.Ldebug_ranges0+0
 217 001d 00000000 		.4byte	0
 218 0021 00000000 		.4byte	.Ldebug_line0
 219 0025 02       		.uleb128 0x2
 220 0026 01       		.byte	0x1
 221 0027 06       		.byte	0x6
 222 0028 1D030000 		.4byte	.LASF0
 223 002c 02       		.uleb128 0x2
 224 002d 01       		.byte	0x1
 225 002e 08       		.byte	0x8
 226 002f E5000000 		.4byte	.LASF1
 227 0033 02       		.uleb128 0x2
 228 0034 02       		.byte	0x2
 229 0035 05       		.byte	0x5
 230 0036 B1020000 		.4byte	.LASF2
 231 003a 02       		.uleb128 0x2
 232 003b 02       		.byte	0x2
 233 003c 07       		.byte	0x7
 234 003d 74000000 		.4byte	.LASF3
 235 0041 02       		.uleb128 0x2
 236 0042 04       		.byte	0x4
 237 0043 05       		.byte	0x5
 238 0044 F3020000 		.4byte	.LASF4
 239 0048 02       		.uleb128 0x2
 240 0049 04       		.byte	0x4
 241 004a 07       		.byte	0x7
 242 004b 0C020000 		.4byte	.LASF5
 243 004f 02       		.uleb128 0x2
 244 0050 08       		.byte	0x8
 245 0051 05       		.byte	0x5
 246 0052 88020000 		.4byte	.LASF6
 247 0056 02       		.uleb128 0x2
 248 0057 08       		.byte	0x8
 249 0058 07       		.byte	0x7
 250 0059 40020000 		.4byte	.LASF7
 251 005d 03       		.uleb128 0x3
 252 005e 04       		.byte	0x4
 253 005f 05       		.byte	0x5
 254 0060 696E7400 		.ascii	"int\000"
 255 0064 02       		.uleb128 0x2
 256 0065 04       		.byte	0x4
 257 0066 07       		.byte	0x7
 258 0067 1E020000 		.4byte	.LASF8
 259 006b 04       		.uleb128 0x4
 260 006c AD010000 		.4byte	.LASF12
 261 0070 02       		.byte	0x2
 262 0071 9201     		.2byte	0x192
 263 0073 2C000000 		.4byte	0x2c
ARM GAS  C:\Users\aupen\AppData\Local\Temp\cc0orRvf.s 			page 9


 264 0077 02       		.uleb128 0x2
 265 0078 04       		.byte	0x4
 266 0079 04       		.byte	0x4
 267 007a CC000000 		.4byte	.LASF9
 268 007e 02       		.uleb128 0x2
 269 007f 08       		.byte	0x8
 270 0080 04       		.byte	0x4
 271 0081 F0010000 		.4byte	.LASF10
 272 0085 02       		.uleb128 0x2
 273 0086 01       		.byte	0x1
 274 0087 08       		.byte	0x8
 275 0088 AC020000 		.4byte	.LASF11
 276 008c 04       		.uleb128 0x4
 277 008d 7A020000 		.4byte	.LASF13
 278 0091 02       		.byte	0x2
 279 0092 3C02     		.2byte	0x23c
 280 0094 98000000 		.4byte	0x98
 281 0098 05       		.uleb128 0x5
 282 0099 6B000000 		.4byte	0x6b
 283 009d 02       		.uleb128 0x2
 284 009e 08       		.byte	0x8
 285 009f 04       		.byte	0x4
 286 00a0 11030000 		.4byte	.LASF14
 287 00a4 02       		.uleb128 0x2
 288 00a5 04       		.byte	0x4
 289 00a6 07       		.byte	0x7
 290 00a7 7F020000 		.4byte	.LASF15
 291 00ab 06       		.uleb128 0x6
 292 00ac 05       		.byte	0x5
 293 00ad 03       		.byte	0x3
 294 00ae 6B       		.byte	0x6b
 295 00af F0000000 		.4byte	0xf0
 296 00b3 07       		.uleb128 0x7
 297 00b4 F3000000 		.4byte	.LASF16
 298 00b8 03       		.byte	0x3
 299 00b9 6E       		.byte	0x6e
 300 00ba 6B000000 		.4byte	0x6b
 301 00be 00       		.byte	0
 302 00bf 07       		.uleb128 0x7
 303 00c0 00000000 		.4byte	.LASF17
 304 00c4 03       		.byte	0x3
 305 00c5 71       		.byte	0x71
 306 00c6 6B000000 		.4byte	0x6b
 307 00ca 01       		.byte	0x1
 308 00cb 07       		.uleb128 0x7
 309 00cc 5B000000 		.4byte	.LASF18
 310 00d0 03       		.byte	0x3
 311 00d1 73       		.byte	0x73
 312 00d2 6B000000 		.4byte	0x6b
 313 00d6 02       		.byte	0x2
 314 00d7 07       		.uleb128 0x7
 315 00d8 FC020000 		.4byte	.LASF19
 316 00dc 03       		.byte	0x3
 317 00dd 81       		.byte	0x81
 318 00de 6B000000 		.4byte	0x6b
 319 00e2 03       		.byte	0x3
 320 00e3 07       		.uleb128 0x7
ARM GAS  C:\Users\aupen\AppData\Local\Temp\cc0orRvf.s 			page 10


 321 00e4 D2000000 		.4byte	.LASF20
 322 00e8 03       		.byte	0x3
 323 00e9 86       		.byte	0x86
 324 00ea 6B000000 		.4byte	0x6b
 325 00ee 04       		.byte	0x4
 326 00ef 00       		.byte	0
 327 00f0 08       		.uleb128 0x8
 328 00f1 F7010000 		.4byte	.LASF21
 329 00f5 03       		.byte	0x3
 330 00f6 8B       		.byte	0x8b
 331 00f7 AB000000 		.4byte	0xab
 332 00fb 09       		.uleb128 0x9
 333 00fc B9000000 		.4byte	.LASF22
 334 0100 01       		.byte	0x1
 335 0101 2A       		.byte	0x2a
 336 0102 00000000 		.4byte	.LFB0
 337 0106 24000000 		.4byte	.LFE0-.LFB0
 338 010a 01       		.uleb128 0x1
 339 010b 9C       		.byte	0x9c
 340 010c 35010000 		.4byte	0x135
 341 0110 0A       		.uleb128 0xa
 342 0111 06000000 		.4byte	.LVL0
 343 0115 D0010000 		.4byte	0x1d0
 344 0119 0A       		.uleb128 0xa
 345 011a 0E000000 		.4byte	.LVL1
 346 011e DB010000 		.4byte	0x1db
 347 0122 0A       		.uleb128 0xa
 348 0123 14000000 		.4byte	.LVL2
 349 0127 E6010000 		.4byte	0x1e6
 350 012b 0A       		.uleb128 0xa
 351 012c 1A000000 		.4byte	.LVL3
 352 0130 F1010000 		.4byte	0x1f1
 353 0134 00       		.byte	0
 354 0135 09       		.uleb128 0x9
 355 0136 96020000 		.4byte	.LASF23
 356 013a 01       		.byte	0x1
 357 013b 58       		.byte	0x58
 358 013c 00000000 		.4byte	.LFB1
 359 0140 24000000 		.4byte	.LFE1-.LFB1
 360 0144 01       		.uleb128 0x1
 361 0145 9C       		.byte	0x9c
 362 0146 6F010000 		.4byte	0x16f
 363 014a 0A       		.uleb128 0xa
 364 014b 0A000000 		.4byte	.LVL4
 365 014f FC010000 		.4byte	0x1fc
 366 0153 0A       		.uleb128 0xa
 367 0154 10000000 		.4byte	.LVL5
 368 0158 07020000 		.4byte	0x207
 369 015c 0A       		.uleb128 0xa
 370 015d 16000000 		.4byte	.LVL6
 371 0161 12020000 		.4byte	0x212
 372 0165 0B       		.uleb128 0xb
 373 0166 20000000 		.4byte	.LVL7
 374 016a 1D020000 		.4byte	0x21d
 375 016e 00       		.byte	0
 376 016f 09       		.uleb128 0x9
 377 0170 E2010000 		.4byte	.LASF24
ARM GAS  C:\Users\aupen\AppData\Local\Temp\cc0orRvf.s 			page 11


 378 0174 01       		.byte	0x1
 379 0175 88       		.byte	0x88
 380 0176 00000000 		.4byte	.LFB2
 381 017a 28000000 		.4byte	.LFE2-.LFB2
 382 017e 01       		.uleb128 0x1
 383 017f 9C       		.byte	0x9c
 384 0180 97010000 		.4byte	0x197
 385 0184 0A       		.uleb128 0xa
 386 0185 18000000 		.4byte	.LVL8
 387 0189 28020000 		.4byte	0x228
 388 018d 0B       		.uleb128 0xb
 389 018e 20000000 		.4byte	.LVL9
 390 0192 FB000000 		.4byte	0xfb
 391 0196 00       		.byte	0
 392 0197 09       		.uleb128 0x9
 393 0198 6B020000 		.4byte	.LASF25
 394 019c 01       		.byte	0x1
 395 019d B2       		.byte	0xb2
 396 019e 00000000 		.4byte	.LFB3
 397 01a2 1C000000 		.4byte	.LFE3-.LFB3
 398 01a6 01       		.uleb128 0x1
 399 01a7 9C       		.byte	0x9c
 400 01a8 BF010000 		.4byte	0x1bf
 401 01ac 0A       		.uleb128 0xa
 402 01ad 06000000 		.4byte	.LVL10
 403 01b1 35010000 		.4byte	0x135
 404 01b5 0B       		.uleb128 0xb
 405 01b6 14000000 		.4byte	.LVL11
 406 01ba 33020000 		.4byte	0x233
 407 01be 00       		.byte	0
 408 01bf 0C       		.uleb128 0xc
 409 01c0 87000000 		.4byte	.LASF39
 410 01c4 01       		.byte	0x1
 411 01c5 14       		.byte	0x14
 412 01c6 F0000000 		.4byte	0xf0
 413 01ca 05       		.uleb128 0x5
 414 01cb 03       		.byte	0x3
 415 01cc 00000000 		.4byte	MOT_PWM_backup
 416 01d0 0D       		.uleb128 0xd
 417 01d1 CF010000 		.4byte	.LASF26
 418 01d5 CF010000 		.4byte	.LASF26
 419 01d9 03       		.byte	0x3
 420 01da C0       		.byte	0xc0
 421 01db 0D       		.uleb128 0xd
 422 01dc 57020000 		.4byte	.LASF27
 423 01e0 57020000 		.4byte	.LASF27
 424 01e4 03       		.byte	0x3
 425 01e5 B3       		.byte	0xb3
 426 01e6 0D       		.uleb128 0xd
 427 01e7 2B020000 		.4byte	.LASF28
 428 01eb 2B020000 		.4byte	.LASF28
 429 01ef 03       		.byte	0x3
 430 01f0 D7       		.byte	0xd7
 431 01f1 0D       		.uleb128 0xd
 432 01f2 B3010000 		.4byte	.LASF29
 433 01f6 B3010000 		.4byte	.LASF29
 434 01fa 03       		.byte	0x3
ARM GAS  C:\Users\aupen\AppData\Local\Temp\cc0orRvf.s 			page 12


 435 01fb 9D       		.byte	0x9d
 436 01fc 0D       		.uleb128 0xd
 437 01fd DF020000 		.4byte	.LASF30
 438 0201 DF020000 		.4byte	.LASF30
 439 0205 03       		.byte	0x3
 440 0206 BE       		.byte	0xbe
 441 0207 0D       		.uleb128 0xd
 442 0208 07000000 		.4byte	.LASF31
 443 020c 07000000 		.4byte	.LASF31
 444 0210 03       		.byte	0x3
 445 0211 BA       		.byte	0xba
 446 0212 0D       		.uleb128 0xd
 447 0213 96000000 		.4byte	.LASF32
 448 0217 96000000 		.4byte	.LASF32
 449 021b 03       		.byte	0x3
 450 021c D6       		.byte	0xd6
 451 021d 0D       		.uleb128 0xd
 452 021e 02010000 		.4byte	.LASF33
 453 0222 02010000 		.4byte	.LASF33
 454 0226 03       		.byte	0x3
 455 0227 9E       		.byte	0x9e
 456 0228 0D       		.uleb128 0xd
 457 0229 AC000000 		.4byte	.LASF34
 458 022d AC000000 		.4byte	.LASF34
 459 0231 03       		.byte	0x3
 460 0232 93       		.byte	0x93
 461 0233 0D       		.uleb128 0xd
 462 0234 65000000 		.4byte	.LASF35
 463 0238 65000000 		.4byte	.LASF35
 464 023c 03       		.byte	0x3
 465 023d DB       		.byte	0xdb
 466 023e 00       		.byte	0
 467              		.section	.debug_abbrev,"",%progbits
 468              	.Ldebug_abbrev0:
 469 0000 01       		.uleb128 0x1
 470 0001 11       		.uleb128 0x11
 471 0002 01       		.byte	0x1
 472 0003 25       		.uleb128 0x25
 473 0004 0E       		.uleb128 0xe
 474 0005 13       		.uleb128 0x13
 475 0006 0B       		.uleb128 0xb
 476 0007 03       		.uleb128 0x3
 477 0008 0E       		.uleb128 0xe
 478 0009 1B       		.uleb128 0x1b
 479 000a 0E       		.uleb128 0xe
 480 000b 55       		.uleb128 0x55
 481 000c 17       		.uleb128 0x17
 482 000d 11       		.uleb128 0x11
 483 000e 01       		.uleb128 0x1
 484 000f 10       		.uleb128 0x10
 485 0010 17       		.uleb128 0x17
 486 0011 00       		.byte	0
 487 0012 00       		.byte	0
 488 0013 02       		.uleb128 0x2
 489 0014 24       		.uleb128 0x24
 490 0015 00       		.byte	0
 491 0016 0B       		.uleb128 0xb
ARM GAS  C:\Users\aupen\AppData\Local\Temp\cc0orRvf.s 			page 13


 492 0017 0B       		.uleb128 0xb
 493 0018 3E       		.uleb128 0x3e
 494 0019 0B       		.uleb128 0xb
 495 001a 03       		.uleb128 0x3
 496 001b 0E       		.uleb128 0xe
 497 001c 00       		.byte	0
 498 001d 00       		.byte	0
 499 001e 03       		.uleb128 0x3
 500 001f 24       		.uleb128 0x24
 501 0020 00       		.byte	0
 502 0021 0B       		.uleb128 0xb
 503 0022 0B       		.uleb128 0xb
 504 0023 3E       		.uleb128 0x3e
 505 0024 0B       		.uleb128 0xb
 506 0025 03       		.uleb128 0x3
 507 0026 08       		.uleb128 0x8
 508 0027 00       		.byte	0
 509 0028 00       		.byte	0
 510 0029 04       		.uleb128 0x4
 511 002a 16       		.uleb128 0x16
 512 002b 00       		.byte	0
 513 002c 03       		.uleb128 0x3
 514 002d 0E       		.uleb128 0xe
 515 002e 3A       		.uleb128 0x3a
 516 002f 0B       		.uleb128 0xb
 517 0030 3B       		.uleb128 0x3b
 518 0031 05       		.uleb128 0x5
 519 0032 49       		.uleb128 0x49
 520 0033 13       		.uleb128 0x13
 521 0034 00       		.byte	0
 522 0035 00       		.byte	0
 523 0036 05       		.uleb128 0x5
 524 0037 35       		.uleb128 0x35
 525 0038 00       		.byte	0
 526 0039 49       		.uleb128 0x49
 527 003a 13       		.uleb128 0x13
 528 003b 00       		.byte	0
 529 003c 00       		.byte	0
 530 003d 06       		.uleb128 0x6
 531 003e 13       		.uleb128 0x13
 532 003f 01       		.byte	0x1
 533 0040 0B       		.uleb128 0xb
 534 0041 0B       		.uleb128 0xb
 535 0042 3A       		.uleb128 0x3a
 536 0043 0B       		.uleb128 0xb
 537 0044 3B       		.uleb128 0x3b
 538 0045 0B       		.uleb128 0xb
 539 0046 01       		.uleb128 0x1
 540 0047 13       		.uleb128 0x13
 541 0048 00       		.byte	0
 542 0049 00       		.byte	0
 543 004a 07       		.uleb128 0x7
 544 004b 0D       		.uleb128 0xd
 545 004c 00       		.byte	0
 546 004d 03       		.uleb128 0x3
 547 004e 0E       		.uleb128 0xe
 548 004f 3A       		.uleb128 0x3a
ARM GAS  C:\Users\aupen\AppData\Local\Temp\cc0orRvf.s 			page 14


 549 0050 0B       		.uleb128 0xb
 550 0051 3B       		.uleb128 0x3b
 551 0052 0B       		.uleb128 0xb
 552 0053 49       		.uleb128 0x49
 553 0054 13       		.uleb128 0x13
 554 0055 38       		.uleb128 0x38
 555 0056 0B       		.uleb128 0xb
 556 0057 00       		.byte	0
 557 0058 00       		.byte	0
 558 0059 08       		.uleb128 0x8
 559 005a 16       		.uleb128 0x16
 560 005b 00       		.byte	0
 561 005c 03       		.uleb128 0x3
 562 005d 0E       		.uleb128 0xe
 563 005e 3A       		.uleb128 0x3a
 564 005f 0B       		.uleb128 0xb
 565 0060 3B       		.uleb128 0x3b
 566 0061 0B       		.uleb128 0xb
 567 0062 49       		.uleb128 0x49
 568 0063 13       		.uleb128 0x13
 569 0064 00       		.byte	0
 570 0065 00       		.byte	0
 571 0066 09       		.uleb128 0x9
 572 0067 2E       		.uleb128 0x2e
 573 0068 01       		.byte	0x1
 574 0069 3F       		.uleb128 0x3f
 575 006a 19       		.uleb128 0x19
 576 006b 03       		.uleb128 0x3
 577 006c 0E       		.uleb128 0xe
 578 006d 3A       		.uleb128 0x3a
 579 006e 0B       		.uleb128 0xb
 580 006f 3B       		.uleb128 0x3b
 581 0070 0B       		.uleb128 0xb
 582 0071 27       		.uleb128 0x27
 583 0072 19       		.uleb128 0x19
 584 0073 11       		.uleb128 0x11
 585 0074 01       		.uleb128 0x1
 586 0075 12       		.uleb128 0x12
 587 0076 06       		.uleb128 0x6
 588 0077 40       		.uleb128 0x40
 589 0078 18       		.uleb128 0x18
 590 0079 9742     		.uleb128 0x2117
 591 007b 19       		.uleb128 0x19
 592 007c 01       		.uleb128 0x1
 593 007d 13       		.uleb128 0x13
 594 007e 00       		.byte	0
 595 007f 00       		.byte	0
 596 0080 0A       		.uleb128 0xa
 597 0081 898201   		.uleb128 0x4109
 598 0084 00       		.byte	0
 599 0085 11       		.uleb128 0x11
 600 0086 01       		.uleb128 0x1
 601 0087 31       		.uleb128 0x31
 602 0088 13       		.uleb128 0x13
 603 0089 00       		.byte	0
 604 008a 00       		.byte	0
 605 008b 0B       		.uleb128 0xb
ARM GAS  C:\Users\aupen\AppData\Local\Temp\cc0orRvf.s 			page 15


 606 008c 898201   		.uleb128 0x4109
 607 008f 00       		.byte	0
 608 0090 11       		.uleb128 0x11
 609 0091 01       		.uleb128 0x1
 610 0092 9542     		.uleb128 0x2115
 611 0094 19       		.uleb128 0x19
 612 0095 31       		.uleb128 0x31
 613 0096 13       		.uleb128 0x13
 614 0097 00       		.byte	0
 615 0098 00       		.byte	0
 616 0099 0C       		.uleb128 0xc
 617 009a 34       		.uleb128 0x34
 618 009b 00       		.byte	0
 619 009c 03       		.uleb128 0x3
 620 009d 0E       		.uleb128 0xe
 621 009e 3A       		.uleb128 0x3a
 622 009f 0B       		.uleb128 0xb
 623 00a0 3B       		.uleb128 0x3b
 624 00a1 0B       		.uleb128 0xb
 625 00a2 49       		.uleb128 0x49
 626 00a3 13       		.uleb128 0x13
 627 00a4 02       		.uleb128 0x2
 628 00a5 18       		.uleb128 0x18
 629 00a6 00       		.byte	0
 630 00a7 00       		.byte	0
 631 00a8 0D       		.uleb128 0xd
 632 00a9 2E       		.uleb128 0x2e
 633 00aa 00       		.byte	0
 634 00ab 3F       		.uleb128 0x3f
 635 00ac 19       		.uleb128 0x19
 636 00ad 3C       		.uleb128 0x3c
 637 00ae 19       		.uleb128 0x19
 638 00af 6E       		.uleb128 0x6e
 639 00b0 0E       		.uleb128 0xe
 640 00b1 03       		.uleb128 0x3
 641 00b2 0E       		.uleb128 0xe
 642 00b3 3A       		.uleb128 0x3a
 643 00b4 0B       		.uleb128 0xb
 644 00b5 3B       		.uleb128 0x3b
 645 00b6 0B       		.uleb128 0xb
 646 00b7 00       		.byte	0
 647 00b8 00       		.byte	0
 648 00b9 00       		.byte	0
 649              		.section	.debug_aranges,"",%progbits
 650 0000 34000000 		.4byte	0x34
 651 0004 0200     		.2byte	0x2
 652 0006 00000000 		.4byte	.Ldebug_info0
 653 000a 04       		.byte	0x4
 654 000b 00       		.byte	0
 655 000c 0000     		.2byte	0
 656 000e 0000     		.2byte	0
 657 0010 00000000 		.4byte	.LFB0
 658 0014 24000000 		.4byte	.LFE0-.LFB0
 659 0018 00000000 		.4byte	.LFB1
 660 001c 24000000 		.4byte	.LFE1-.LFB1
 661 0020 00000000 		.4byte	.LFB2
 662 0024 28000000 		.4byte	.LFE2-.LFB2
ARM GAS  C:\Users\aupen\AppData\Local\Temp\cc0orRvf.s 			page 16


 663 0028 00000000 		.4byte	.LFB3
 664 002c 1C000000 		.4byte	.LFE3-.LFB3
 665 0030 00000000 		.4byte	0
 666 0034 00000000 		.4byte	0
 667              		.section	.debug_ranges,"",%progbits
 668              	.Ldebug_ranges0:
 669 0000 00000000 		.4byte	.LFB0
 670 0004 24000000 		.4byte	.LFE0
 671 0008 00000000 		.4byte	.LFB1
 672 000c 24000000 		.4byte	.LFE1
 673 0010 00000000 		.4byte	.LFB2
 674 0014 28000000 		.4byte	.LFE2
 675 0018 00000000 		.4byte	.LFB3
 676 001c 1C000000 		.4byte	.LFE3
 677 0020 00000000 		.4byte	0
 678 0024 00000000 		.4byte	0
 679              		.section	.debug_line,"",%progbits
 680              	.Ldebug_line0:
 681 0000 B1000000 		.section	.debug_str,"MS",%progbits,1
 681      02005400 
 681      00000201 
 681      FB0E0D00 
 681      01010101 
 682              	.LASF17:
 683 0000 50574D55 		.ascii	"PWMUdb\000"
 683      646200
 684              	.LASF31:
 685 0007 4D4F545F 		.ascii	"MOT_PWM_WriteCounter\000"
 685      50574D5F 
 685      57726974 
 685      65436F75 
 685      6E746572 
 686              	.LASF38:
 687 001c 433A5C55 		.ascii	"C:\\Users\\aupen\\OneDrive\\Desktop\\robocode\\line"
 687      73657273 
 687      5C617570 
 687      656E5C4F 
 687      6E654472 
 688 0049 666F6C6C 		.ascii	"follower\\S1.cydsn\000"
 688      6F776572 
 688      5C53312E 
 688      63796473 
 688      6E00
 689              	.LASF18:
 690 005b 50574D50 		.ascii	"PWMPeriod\000"
 690      6572696F 
 690      6400
 691              	.LASF35:
 692 0065 4D4F545F 		.ascii	"MOT_PWM_Enable\000"
 692      50574D5F 
 692      456E6162 
 692      6C6500
 693              	.LASF3:
 694 0074 73686F72 		.ascii	"short unsigned int\000"
 694      7420756E 
 694      7369676E 
 694      65642069 
ARM GAS  C:\Users\aupen\AppData\Local\Temp\cc0orRvf.s 			page 17


 694      6E7400
 695              	.LASF39:
 696 0087 4D4F545F 		.ascii	"MOT_PWM_backup\000"
 696      50574D5F 
 696      6261636B 
 696      757000
 697              	.LASF32:
 698 0096 4D4F545F 		.ascii	"MOT_PWM_WriteKillTime\000"
 698      50574D5F 
 698      57726974 
 698      654B696C 
 698      6C54696D 
 699              	.LASF34:
 700 00ac 4D4F545F 		.ascii	"MOT_PWM_Stop\000"
 700      50574D5F 
 700      53746F70 
 700      00
 701              	.LASF22:
 702 00b9 4D4F545F 		.ascii	"MOT_PWM_SaveConfig\000"
 702      50574D5F 
 702      53617665 
 702      436F6E66 
 702      696700
 703              	.LASF9:
 704 00cc 666C6F61 		.ascii	"float\000"
 704      7400
 705              	.LASF20:
 706 00d2 50574D43 		.ascii	"PWMControlRegister\000"
 706      6F6E7472 
 706      6F6C5265 
 706      67697374 
 706      657200
 707              	.LASF1:
 708 00e5 756E7369 		.ascii	"unsigned char\000"
 708      676E6564 
 708      20636861 
 708      7200
 709              	.LASF16:
 710 00f3 50574D45 		.ascii	"PWMEnableState\000"
 710      6E61626C 
 710      65537461 
 710      746500
 711              	.LASF33:
 712 0102 4D4F545F 		.ascii	"MOT_PWM_WriteControlRegister\000"
 712      50574D5F 
 712      57726974 
 712      65436F6E 
 712      74726F6C 
 713              	.LASF36:
 714 011f 474E5520 		.ascii	"GNU C11 5.4.1 20160609 (release) [ARM/embedded-5-br"
 714      43313120 
 714      352E342E 
 714      31203230 
 714      31363036 
 715 0152 616E6368 		.ascii	"anch revision 237715] -mcpu=cortex-m3 -mthumb -g -O"
 715      20726576 
 715      6973696F 
ARM GAS  C:\Users\aupen\AppData\Local\Temp\cc0orRvf.s 			page 18


 715      6E203233 
 715      37373135 
 716 0185 73202D66 		.ascii	"s -ffunction-sections -ffat-lto-objects\000"
 716      66756E63 
 716      74696F6E 
 716      2D736563 
 716      74696F6E 
 717              	.LASF12:
 718 01ad 75696E74 		.ascii	"uint8\000"
 718      3800
 719              	.LASF29:
 720 01b3 4D4F545F 		.ascii	"MOT_PWM_ReadControlRegister\000"
 720      50574D5F 
 720      52656164 
 720      436F6E74 
 720      726F6C52 
 721              	.LASF26:
 722 01cf 4D4F545F 		.ascii	"MOT_PWM_ReadPeriod\000"
 722      50574D5F 
 722      52656164 
 722      50657269 
 722      6F6400
 723              	.LASF24:
 724 01e2 4D4F545F 		.ascii	"MOT_PWM_Sleep\000"
 724      50574D5F 
 724      536C6565 
 724      7000
 725              	.LASF10:
 726 01f0 646F7562 		.ascii	"double\000"
 726      6C6500
 727              	.LASF21:
 728 01f7 4D4F545F 		.ascii	"MOT_PWM_backupStruct\000"
 728      50574D5F 
 728      6261636B 
 728      75705374 
 728      72756374 
 729              	.LASF5:
 730 020c 6C6F6E67 		.ascii	"long unsigned int\000"
 730      20756E73 
 730      69676E65 
 730      6420696E 
 730      7400
 731              	.LASF8:
 732 021e 756E7369 		.ascii	"unsigned int\000"
 732      676E6564 
 732      20696E74 
 732      00
 733              	.LASF28:
 734 022b 4D4F545F 		.ascii	"MOT_PWM_ReadKillTime\000"
 734      50574D5F 
 734      52656164 
 734      4B696C6C 
 734      54696D65 
 735              	.LASF7:
 736 0240 6C6F6E67 		.ascii	"long long unsigned int\000"
 736      206C6F6E 
 736      6720756E 
ARM GAS  C:\Users\aupen\AppData\Local\Temp\cc0orRvf.s 			page 19


 736      7369676E 
 736      65642069 
 737              	.LASF27:
 738 0257 4D4F545F 		.ascii	"MOT_PWM_ReadCounter\000"
 738      50574D5F 
 738      52656164 
 738      436F756E 
 738      74657200 
 739              	.LASF25:
 740 026b 4D4F545F 		.ascii	"MOT_PWM_Wakeup\000"
 740      50574D5F 
 740      57616B65 
 740      757000
 741              	.LASF13:
 742 027a 72656738 		.ascii	"reg8\000"
 742      00
 743              	.LASF15:
 744 027f 73697A65 		.ascii	"sizetype\000"
 744      74797065 
 744      00
 745              	.LASF6:
 746 0288 6C6F6E67 		.ascii	"long long int\000"
 746      206C6F6E 
 746      6720696E 
 746      7400
 747              	.LASF23:
 748 0296 4D4F545F 		.ascii	"MOT_PWM_RestoreConfig\000"
 748      50574D5F 
 748      52657374 
 748      6F726543 
 748      6F6E6669 
 749              	.LASF11:
 750 02ac 63686172 		.ascii	"char\000"
 750      00
 751              	.LASF2:
 752 02b1 73686F72 		.ascii	"short int\000"
 752      7420696E 
 752      7400
 753              	.LASF37:
 754 02bb 47656E65 		.ascii	"Generated_Source\\PSoC5\\MOT_PWM_PM.c\000"
 754      72617465 
 754      645F536F 
 754      75726365 
 754      5C50536F 
 755              	.LASF30:
 756 02df 4D4F545F 		.ascii	"MOT_PWM_WritePeriod\000"
 756      50574D5F 
 756      57726974 
 756      65506572 
 756      696F6400 
 757              	.LASF4:
 758 02f3 6C6F6E67 		.ascii	"long int\000"
 758      20696E74 
 758      00
 759              	.LASF19:
 760 02fc 50574D4B 		.ascii	"PWMKillCounterPeriod\000"
 760      696C6C43 
ARM GAS  C:\Users\aupen\AppData\Local\Temp\cc0orRvf.s 			page 20


 760      6F756E74 
 760      65725065 
 760      72696F64 
 761              	.LASF14:
 762 0311 6C6F6E67 		.ascii	"long double\000"
 762      20646F75 
 762      626C6500 
 763              	.LASF0:
 764 031d 7369676E 		.ascii	"signed char\000"
 764      65642063 
 764      68617200 
 765              		.ident	"GCC: (GNU Tools for ARM Embedded Processors) 5.4.1 20160609 (release) [ARM/embedded-5-bran
