ARM GAS  C:\Users\MANSRO~1\AppData\Local\Temp\ccg9C0qD.s 			page 1


   1              		.syntax unified
   2              		.cpu cortex-m3
   3              		.fpu softvfp
   4              		.eabi_attribute 20, 1
   5              		.eabi_attribute 21, 1
   6              		.eabi_attribute 23, 3
   7              		.eabi_attribute 24, 1
   8              		.eabi_attribute 25, 1
   9              		.eabi_attribute 26, 1
  10              		.eabi_attribute 30, 1
  11              		.eabi_attribute 34, 1
  12              		.eabi_attribute 18, 4
  13              		.thumb
  14              		.syntax unified
  15              		.file	"cyutils.c"
  16              		.text
  17              	.Ltext0:
  18              		.cfi_sections	.debug_frame
  19              		.section	.text.CySetReg24,"ax",%progbits
  20              		.align	2
  21              		.global	CySetReg24
  22              		.thumb
  23              		.thumb_func
  24              		.type	CySetReg24, %function
  25              	CySetReg24:
  26              	.LFB0:
  27              		.file 1 "Generated_Source\\PSoC5\\cyutils.c"
   1:Generated_Source\PSoC5/cyutils.c **** /***************************************************************************//**
   2:Generated_Source\PSoC5/cyutils.c **** * \file cyutils.c
   3:Generated_Source\PSoC5/cyutils.c **** * \version 5.80
   4:Generated_Source\PSoC5/cyutils.c **** *
   5:Generated_Source\PSoC5/cyutils.c **** * \brief Provides a function to handle 24-bit value writes.
   6:Generated_Source\PSoC5/cyutils.c **** *
   7:Generated_Source\PSoC5/cyutils.c **** ********************************************************************************
   8:Generated_Source\PSoC5/cyutils.c **** * \copyright
   9:Generated_Source\PSoC5/cyutils.c **** * Copyright 2008-2018, Cypress Semiconductor Corporation.  All rights reserved.
  10:Generated_Source\PSoC5/cyutils.c **** * You may use this file only in accordance with the license, terms, conditions,
  11:Generated_Source\PSoC5/cyutils.c **** * disclaimers, and limitations in the end user license agreement accompanying
  12:Generated_Source\PSoC5/cyutils.c **** * the software package with which this file was provided.
  13:Generated_Source\PSoC5/cyutils.c **** *******************************************************************************/
  14:Generated_Source\PSoC5/cyutils.c **** 
  15:Generated_Source\PSoC5/cyutils.c **** #include "cytypes.h"
  16:Generated_Source\PSoC5/cyutils.c **** 
  17:Generated_Source\PSoC5/cyutils.c **** #if (!CY_PSOC3)
  18:Generated_Source\PSoC5/cyutils.c **** 
  19:Generated_Source\PSoC5/cyutils.c ****     /***************************************************************************
  20:Generated_Source\PSoC5/cyutils.c ****     * Function Name: CySetReg24
  21:Generated_Source\PSoC5/cyutils.c ****     ************************************************************************//**
  22:Generated_Source\PSoC5/cyutils.c ****     *
  23:Generated_Source\PSoC5/cyutils.c ****     * Writes a 24-bit value to the specified register.
  24:Generated_Source\PSoC5/cyutils.c ****     *
  25:Generated_Source\PSoC5/cyutils.c ****     * \param add The address where data must be written.
  26:Generated_Source\PSoC5/cyutils.c ****     * \param value The data that must be written.
  27:Generated_Source\PSoC5/cyutils.c ****     *
  28:Generated_Source\PSoC5/cyutils.c ****     * Reentrant:
  29:Generated_Source\PSoC5/cyutils.c ****     *  No
  30:Generated_Source\PSoC5/cyutils.c ****     *
ARM GAS  C:\Users\MANSRO~1\AppData\Local\Temp\ccg9C0qD.s 			page 2


  31:Generated_Source\PSoC5/cyutils.c ****     ***************************************************************************/
  32:Generated_Source\PSoC5/cyutils.c ****     void CySetReg24(uint32 volatile * addr, uint32 value)
  33:Generated_Source\PSoC5/cyutils.c ****     {
  28              		.loc 1 33 0
  29              		.cfi_startproc
  30              		@ args = 0, pretend = 0, frame = 0
  31              		@ frame_needed = 0, uses_anonymous_args = 0
  32              		@ link register save eliminated.
  33              	.LVL0:
  34:Generated_Source\PSoC5/cyutils.c ****         uint8 volatile *tmpAddr;
  35:Generated_Source\PSoC5/cyutils.c **** 
  36:Generated_Source\PSoC5/cyutils.c ****         tmpAddr = (uint8 volatile *) addr;
  37:Generated_Source\PSoC5/cyutils.c **** 
  38:Generated_Source\PSoC5/cyutils.c ****         tmpAddr[0u] = (uint8) value;
  34              		.loc 1 38 0
  35 0000 CBB2     		uxtb	r3, r1
  36 0002 0370     		strb	r3, [r0]
  39:Generated_Source\PSoC5/cyutils.c ****         tmpAddr[1u] = (uint8) (value >> 8u);
  37              		.loc 1 39 0
  38 0004 C1F30723 		ubfx	r3, r1, #8, #8
  39 0008 4370     		strb	r3, [r0, #1]
  40:Generated_Source\PSoC5/cyutils.c ****         tmpAddr[2u] = (uint8) (value >> 16u);
  40              		.loc 1 40 0
  41 000a C1F30741 		ubfx	r1, r1, #16, #8
  42              	.LVL1:
  43 000e 8170     		strb	r1, [r0, #2]
  44 0010 7047     		bx	lr
  45              		.cfi_endproc
  46              	.LFE0:
  47              		.size	CySetReg24, .-CySetReg24
  48 0012 00BF     		.text
  49              	.Letext0:
  50              		.file 2 "Generated_Source\\PSoC5\\cytypes.h"
  51              		.section	.debug_info,"",%progbits
  52              	.Ldebug_info0:
  53 0000 EA000000 		.4byte	0xea
  54 0004 0400     		.2byte	0x4
  55 0006 00000000 		.4byte	.Ldebug_abbrev0
  56 000a 04       		.byte	0x4
  57 000b 01       		.uleb128 0x1
  58 000c 30000000 		.4byte	.LASF16
  59 0010 0C       		.byte	0xc
  60 0011 E3000000 		.4byte	.LASF17
  61 0015 5B010000 		.4byte	.LASF18
  62 0019 00000000 		.4byte	.Ldebug_ranges0+0
  63 001d 00000000 		.4byte	0
  64 0021 00000000 		.4byte	.Ldebug_line0
  65 0025 02       		.uleb128 0x2
  66 0026 01       		.byte	0x1
  67 0027 06       		.byte	0x6
  68 0028 99010000 		.4byte	.LASF0
  69 002c 02       		.uleb128 0x2
  70 002d 01       		.byte	0x1
  71 002e 08       		.byte	0x8
  72 002f 22000000 		.4byte	.LASF1
  73 0033 02       		.uleb128 0x2
  74 0034 02       		.byte	0x2
ARM GAS  C:\Users\MANSRO~1\AppData\Local\Temp\ccg9C0qD.s 			page 3


  75 0035 05       		.byte	0x5
  76 0036 51010000 		.4byte	.LASF2
  77 003a 02       		.uleb128 0x2
  78 003b 02       		.byte	0x2
  79 003c 07       		.byte	0x7
  80 003d D0000000 		.4byte	.LASF3
  81 0041 02       		.uleb128 0x2
  82 0042 04       		.byte	0x4
  83 0043 05       		.byte	0x5
  84 0044 90010000 		.4byte	.LASF4
  85 0048 02       		.uleb128 0x2
  86 0049 04       		.byte	0x4
  87 004a 07       		.byte	0x7
  88 004b BE000000 		.4byte	.LASF5
  89 004f 02       		.uleb128 0x2
  90 0050 08       		.byte	0x8
  91 0051 05       		.byte	0x5
  92 0052 36010000 		.4byte	.LASF6
  93 0056 02       		.uleb128 0x2
  94 0057 08       		.byte	0x8
  95 0058 07       		.byte	0x7
  96 0059 1F010000 		.4byte	.LASF7
  97 005d 03       		.uleb128 0x3
  98 005e 04       		.byte	0x4
  99 005f 05       		.byte	0x5
 100 0060 696E7400 		.ascii	"int\000"
 101 0064 02       		.uleb128 0x2
 102 0065 04       		.byte	0x4
 103 0066 07       		.byte	0x7
 104 0067 12010000 		.4byte	.LASF8
 105 006b 04       		.uleb128 0x4
 106 006c 1C000000 		.4byte	.LASF9
 107 0070 02       		.byte	0x2
 108 0071 E401     		.2byte	0x1e4
 109 0073 2C000000 		.4byte	0x2c
 110 0077 04       		.uleb128 0x4
 111 0078 0B010000 		.4byte	.LASF10
 112 007c 02       		.byte	0x2
 113 007d E601     		.2byte	0x1e6
 114 007f 48000000 		.4byte	0x48
 115 0083 02       		.uleb128 0x2
 116 0084 04       		.byte	0x4
 117 0085 04       		.byte	0x4
 118 0086 16000000 		.4byte	.LASF11
 119 008a 02       		.uleb128 0x2
 120 008b 08       		.byte	0x8
 121 008c 04       		.byte	0x4
 122 008d 04010000 		.4byte	.LASF12
 123 0091 02       		.uleb128 0x2
 124 0092 01       		.byte	0x1
 125 0093 08       		.byte	0x8
 126 0094 4C010000 		.4byte	.LASF13
 127 0098 05       		.uleb128 0x5
 128 0099 6B000000 		.4byte	0x6b
 129 009d 05       		.uleb128 0x5
 130 009e 77000000 		.4byte	0x77
 131 00a2 06       		.uleb128 0x6
ARM GAS  C:\Users\MANSRO~1\AppData\Local\Temp\ccg9C0qD.s 			page 4


 132 00a3 06000000 		.4byte	.LASF19
 133 00a7 01       		.byte	0x1
 134 00a8 20       		.byte	0x20
 135 00a9 00000000 		.4byte	.LFB0
 136 00ad 12000000 		.4byte	.LFE0-.LFB0
 137 00b1 01       		.uleb128 0x1
 138 00b2 9C       		.byte	0x9c
 139 00b3 E1000000 		.4byte	0xe1
 140 00b7 07       		.uleb128 0x7
 141 00b8 11000000 		.4byte	.LASF14
 142 00bc 01       		.byte	0x1
 143 00bd 20       		.byte	0x20
 144 00be E1000000 		.4byte	0xe1
 145 00c2 01       		.uleb128 0x1
 146 00c3 50       		.byte	0x50
 147 00c4 08       		.uleb128 0x8
 148 00c5 00000000 		.4byte	.LASF15
 149 00c9 01       		.byte	0x1
 150 00ca 20       		.byte	0x20
 151 00cb 77000000 		.4byte	0x77
 152 00cf 00000000 		.4byte	.LLST0
 153 00d3 09       		.uleb128 0x9
 154 00d4 44010000 		.4byte	.LASF20
 155 00d8 01       		.byte	0x1
 156 00d9 22       		.byte	0x22
 157 00da E7000000 		.4byte	0xe7
 158 00de 01       		.uleb128 0x1
 159 00df 50       		.byte	0x50
 160 00e0 00       		.byte	0
 161 00e1 0A       		.uleb128 0xa
 162 00e2 04       		.byte	0x4
 163 00e3 9D000000 		.4byte	0x9d
 164 00e7 0A       		.uleb128 0xa
 165 00e8 04       		.byte	0x4
 166 00e9 98000000 		.4byte	0x98
 167 00ed 00       		.byte	0
 168              		.section	.debug_abbrev,"",%progbits
 169              	.Ldebug_abbrev0:
 170 0000 01       		.uleb128 0x1
 171 0001 11       		.uleb128 0x11
 172 0002 01       		.byte	0x1
 173 0003 25       		.uleb128 0x25
 174 0004 0E       		.uleb128 0xe
 175 0005 13       		.uleb128 0x13
 176 0006 0B       		.uleb128 0xb
 177 0007 03       		.uleb128 0x3
 178 0008 0E       		.uleb128 0xe
 179 0009 1B       		.uleb128 0x1b
 180 000a 0E       		.uleb128 0xe
 181 000b 55       		.uleb128 0x55
 182 000c 17       		.uleb128 0x17
 183 000d 11       		.uleb128 0x11
 184 000e 01       		.uleb128 0x1
 185 000f 10       		.uleb128 0x10
 186 0010 17       		.uleb128 0x17
 187 0011 00       		.byte	0
 188 0012 00       		.byte	0
ARM GAS  C:\Users\MANSRO~1\AppData\Local\Temp\ccg9C0qD.s 			page 5


 189 0013 02       		.uleb128 0x2
 190 0014 24       		.uleb128 0x24
 191 0015 00       		.byte	0
 192 0016 0B       		.uleb128 0xb
 193 0017 0B       		.uleb128 0xb
 194 0018 3E       		.uleb128 0x3e
 195 0019 0B       		.uleb128 0xb
 196 001a 03       		.uleb128 0x3
 197 001b 0E       		.uleb128 0xe
 198 001c 00       		.byte	0
 199 001d 00       		.byte	0
 200 001e 03       		.uleb128 0x3
 201 001f 24       		.uleb128 0x24
 202 0020 00       		.byte	0
 203 0021 0B       		.uleb128 0xb
 204 0022 0B       		.uleb128 0xb
 205 0023 3E       		.uleb128 0x3e
 206 0024 0B       		.uleb128 0xb
 207 0025 03       		.uleb128 0x3
 208 0026 08       		.uleb128 0x8
 209 0027 00       		.byte	0
 210 0028 00       		.byte	0
 211 0029 04       		.uleb128 0x4
 212 002a 16       		.uleb128 0x16
 213 002b 00       		.byte	0
 214 002c 03       		.uleb128 0x3
 215 002d 0E       		.uleb128 0xe
 216 002e 3A       		.uleb128 0x3a
 217 002f 0B       		.uleb128 0xb
 218 0030 3B       		.uleb128 0x3b
 219 0031 05       		.uleb128 0x5
 220 0032 49       		.uleb128 0x49
 221 0033 13       		.uleb128 0x13
 222 0034 00       		.byte	0
 223 0035 00       		.byte	0
 224 0036 05       		.uleb128 0x5
 225 0037 35       		.uleb128 0x35
 226 0038 00       		.byte	0
 227 0039 49       		.uleb128 0x49
 228 003a 13       		.uleb128 0x13
 229 003b 00       		.byte	0
 230 003c 00       		.byte	0
 231 003d 06       		.uleb128 0x6
 232 003e 2E       		.uleb128 0x2e
 233 003f 01       		.byte	0x1
 234 0040 3F       		.uleb128 0x3f
 235 0041 19       		.uleb128 0x19
 236 0042 03       		.uleb128 0x3
 237 0043 0E       		.uleb128 0xe
 238 0044 3A       		.uleb128 0x3a
 239 0045 0B       		.uleb128 0xb
 240 0046 3B       		.uleb128 0x3b
 241 0047 0B       		.uleb128 0xb
 242 0048 27       		.uleb128 0x27
 243 0049 19       		.uleb128 0x19
 244 004a 11       		.uleb128 0x11
 245 004b 01       		.uleb128 0x1
ARM GAS  C:\Users\MANSRO~1\AppData\Local\Temp\ccg9C0qD.s 			page 6


 246 004c 12       		.uleb128 0x12
 247 004d 06       		.uleb128 0x6
 248 004e 40       		.uleb128 0x40
 249 004f 18       		.uleb128 0x18
 250 0050 9742     		.uleb128 0x2117
 251 0052 19       		.uleb128 0x19
 252 0053 01       		.uleb128 0x1
 253 0054 13       		.uleb128 0x13
 254 0055 00       		.byte	0
 255 0056 00       		.byte	0
 256 0057 07       		.uleb128 0x7
 257 0058 05       		.uleb128 0x5
 258 0059 00       		.byte	0
 259 005a 03       		.uleb128 0x3
 260 005b 0E       		.uleb128 0xe
 261 005c 3A       		.uleb128 0x3a
 262 005d 0B       		.uleb128 0xb
 263 005e 3B       		.uleb128 0x3b
 264 005f 0B       		.uleb128 0xb
 265 0060 49       		.uleb128 0x49
 266 0061 13       		.uleb128 0x13
 267 0062 02       		.uleb128 0x2
 268 0063 18       		.uleb128 0x18
 269 0064 00       		.byte	0
 270 0065 00       		.byte	0
 271 0066 08       		.uleb128 0x8
 272 0067 05       		.uleb128 0x5
 273 0068 00       		.byte	0
 274 0069 03       		.uleb128 0x3
 275 006a 0E       		.uleb128 0xe
 276 006b 3A       		.uleb128 0x3a
 277 006c 0B       		.uleb128 0xb
 278 006d 3B       		.uleb128 0x3b
 279 006e 0B       		.uleb128 0xb
 280 006f 49       		.uleb128 0x49
 281 0070 13       		.uleb128 0x13
 282 0071 02       		.uleb128 0x2
 283 0072 17       		.uleb128 0x17
 284 0073 00       		.byte	0
 285 0074 00       		.byte	0
 286 0075 09       		.uleb128 0x9
 287 0076 34       		.uleb128 0x34
 288 0077 00       		.byte	0
 289 0078 03       		.uleb128 0x3
 290 0079 0E       		.uleb128 0xe
 291 007a 3A       		.uleb128 0x3a
 292 007b 0B       		.uleb128 0xb
 293 007c 3B       		.uleb128 0x3b
 294 007d 0B       		.uleb128 0xb
 295 007e 49       		.uleb128 0x49
 296 007f 13       		.uleb128 0x13
 297 0080 02       		.uleb128 0x2
 298 0081 18       		.uleb128 0x18
 299 0082 00       		.byte	0
 300 0083 00       		.byte	0
 301 0084 0A       		.uleb128 0xa
 302 0085 0F       		.uleb128 0xf
ARM GAS  C:\Users\MANSRO~1\AppData\Local\Temp\ccg9C0qD.s 			page 7


 303 0086 00       		.byte	0
 304 0087 0B       		.uleb128 0xb
 305 0088 0B       		.uleb128 0xb
 306 0089 49       		.uleb128 0x49
 307 008a 13       		.uleb128 0x13
 308 008b 00       		.byte	0
 309 008c 00       		.byte	0
 310 008d 00       		.byte	0
 311              		.section	.debug_loc,"",%progbits
 312              	.Ldebug_loc0:
 313              	.LLST0:
 314 0000 00000000 		.4byte	.LVL0
 315 0004 0E000000 		.4byte	.LVL1
 316 0008 0100     		.2byte	0x1
 317 000a 51       		.byte	0x51
 318 000b 0E000000 		.4byte	.LVL1
 319 000f 12000000 		.4byte	.LFE0
 320 0013 0400     		.2byte	0x4
 321 0015 F3       		.byte	0xf3
 322 0016 01       		.uleb128 0x1
 323 0017 51       		.byte	0x51
 324 0018 9F       		.byte	0x9f
 325 0019 00000000 		.4byte	0
 326 001d 00000000 		.4byte	0
 327              		.section	.debug_aranges,"",%progbits
 328 0000 1C000000 		.4byte	0x1c
 329 0004 0200     		.2byte	0x2
 330 0006 00000000 		.4byte	.Ldebug_info0
 331 000a 04       		.byte	0x4
 332 000b 00       		.byte	0
 333 000c 0000     		.2byte	0
 334 000e 0000     		.2byte	0
 335 0010 00000000 		.4byte	.LFB0
 336 0014 12000000 		.4byte	.LFE0-.LFB0
 337 0018 00000000 		.4byte	0
 338 001c 00000000 		.4byte	0
 339              		.section	.debug_ranges,"",%progbits
 340              	.Ldebug_ranges0:
 341 0000 00000000 		.4byte	.LFB0
 342 0004 12000000 		.4byte	.LFE0
 343 0008 00000000 		.4byte	0
 344 000c 00000000 		.4byte	0
 345              		.section	.debug_line,"",%progbits
 346              	.Ldebug_line0:
 347 0000 5C000000 		.section	.debug_str,"MS",%progbits,1
 347      02004400 
 347      00000201 
 347      FB0E0D00 
 347      01010101 
 348              	.LASF15:
 349 0000 76616C75 		.ascii	"value\000"
 349      6500
 350              	.LASF19:
 351 0006 43795365 		.ascii	"CySetReg24\000"
 351      74526567 
 351      323400
 352              	.LASF14:
ARM GAS  C:\Users\MANSRO~1\AppData\Local\Temp\ccg9C0qD.s 			page 8


 353 0011 61646472 		.ascii	"addr\000"
 353      00
 354              	.LASF11:
 355 0016 666C6F61 		.ascii	"float\000"
 355      7400
 356              	.LASF9:
 357 001c 75696E74 		.ascii	"uint8\000"
 357      3800
 358              	.LASF1:
 359 0022 756E7369 		.ascii	"unsigned char\000"
 359      676E6564 
 359      20636861 
 359      7200
 360              	.LASF16:
 361 0030 474E5520 		.ascii	"GNU C11 5.4.1 20160609 (release) [ARM/embedded-5-br"
 361      43313120 
 361      352E342E 
 361      31203230 
 361      31363036 
 362 0063 616E6368 		.ascii	"anch revision 237715] -mcpu=cortex-m3 -mthumb -g -O"
 362      20726576 
 362      6973696F 
 362      6E203233 
 362      37373135 
 363 0096 67202D66 		.ascii	"g -ffunction-sections -ffat-lto-objects\000"
 363      66756E63 
 363      74696F6E 
 363      2D736563 
 363      74696F6E 
 364              	.LASF5:
 365 00be 6C6F6E67 		.ascii	"long unsigned int\000"
 365      20756E73 
 365      69676E65 
 365      6420696E 
 365      7400
 366              	.LASF3:
 367 00d0 73686F72 		.ascii	"short unsigned int\000"
 367      7420756E 
 367      7369676E 
 367      65642069 
 367      6E7400
 368              	.LASF17:
 369 00e3 47656E65 		.ascii	"Generated_Source\\PSoC5\\cyutils.c\000"
 369      72617465 
 369      645F536F 
 369      75726365 
 369      5C50536F 
 370              	.LASF12:
 371 0104 646F7562 		.ascii	"double\000"
 371      6C6500
 372              	.LASF10:
 373 010b 75696E74 		.ascii	"uint32\000"
 373      333200
 374              	.LASF8:
 375 0112 756E7369 		.ascii	"unsigned int\000"
 375      676E6564 
 375      20696E74 
ARM GAS  C:\Users\MANSRO~1\AppData\Local\Temp\ccg9C0qD.s 			page 9


 375      00
 376              	.LASF7:
 377 011f 6C6F6E67 		.ascii	"long long unsigned int\000"
 377      206C6F6E 
 377      6720756E 
 377      7369676E 
 377      65642069 
 378              	.LASF6:
 379 0136 6C6F6E67 		.ascii	"long long int\000"
 379      206C6F6E 
 379      6720696E 
 379      7400
 380              	.LASF20:
 381 0144 746D7041 		.ascii	"tmpAddr\000"
 381      64647200 
 382              	.LASF13:
 383 014c 63686172 		.ascii	"char\000"
 383      00
 384              	.LASF2:
 385 0151 73686F72 		.ascii	"short int\000"
 385      7420696E 
 385      7400
 386              	.LASF18:
 387 015b 433A5C55 		.ascii	"C:\\Users\\Mans Robots\\Documents\\linefollower\\S1"
 387      73657273 
 387      5C4D616E 
 387      7320526F 
 387      626F7473 
 388 0189 2E637964 		.ascii	".cydsn\000"
 388      736E00
 389              	.LASF4:
 390 0190 6C6F6E67 		.ascii	"long int\000"
 390      20696E74 
 390      00
 391              	.LASF0:
 392 0199 7369676E 		.ascii	"signed char\000"
 392      65642063 
 392      68617200 
 393              		.ident	"GCC: (GNU Tools for ARM Embedded Processors) 5.4.1 20160609 (release) [ARM/embedded-5-bran
