ARM GAS  C:\Users\MANSRO~1\AppData\Local\Temp\ccsnke3N.s 			page 1


   1              		.syntax unified
   2              		.cpu cortex-m3
   3              		.fpu softvfp
   4              		.eabi_attribute 20, 1
   5              		.eabi_attribute 21, 1
   6              		.eabi_attribute 23, 3
   7              		.eabi_attribute 24, 1
   8              		.eabi_attribute 25, 1
   9              		.eabi_attribute 26, 1
  10              		.eabi_attribute 30, 1
  11              		.eabi_attribute 34, 1
  12              		.eabi_attribute 18, 4
  13              		.thumb
  14              		.syntax unified
  15              		.file	"timer_time.c"
  16              		.text
  17              	.Ltext0:
  18              		.cfi_sections	.debug_frame
  19              		.global	__aeabi_uldivmod
  20              		.section	.text.getMillis100th,"ax",%progbits
  21              		.align	2
  22              		.thumb
  23              		.thumb_func
  24              		.type	getMillis100th, %function
  25              	getMillis100th:
  26              	.LFB4:
  27              		.file 1 "timer_time.c"
   1:timer_time.c  **** /* ========================================
   2:timer_time.c  ****  * Copyright (c) RobotuSkola, 2018-2019
   3:timer_time.c  ****  * Written by
   4:timer_time.c  ****  * - Einars Deksnis <einaarsd@gmail.com>, 2016
   5:timer_time.c  ****  * - Maris Becs <maris.becs@gmail.com>, 2016-2019
   6:timer_time.c  ****  * All Rights Reserved
   7:timer_time.c  ****  *
   8:timer_time.c  ****  * Permission to use, copy, modify, and distribute
   9:timer_time.c  ****  * this software is freely granted, provided that
  10:timer_time.c  ****  * this notice is preserved.
  11:timer_time.c  ****  * ========================================
  12:timer_time.c  **** */
  13:timer_time.c  **** #include <project.h>
  14:timer_time.c  **** #include "timer_time.h"
  15:timer_time.c  **** #include "log2.h"
  16:timer_time.c  **** 
  17:timer_time.c  **** //=============================================================================
  18:timer_time.c  **** // Private defines and typedefs
  19:timer_time.c  **** //=============================================================================
  20:timer_time.c  **** #define TIMER_TC_VALUE      (50000)   // 0.5 sec at 100 kHz clock
  21:timer_time.c  **** 
  22:timer_time.c  **** const uint32_t SECOND = 1000u;
  23:timer_time.c  **** 
  24:timer_time.c  **** //=============================================================================
  25:timer_time.c  **** // Private function declarations
  26:timer_time.c  **** //=============================================================================
  27:timer_time.c  **** static uint16_t getMillis100th(void);
  28:timer_time.c  **** CY_ISR_PROTO(timer_tc_handler);
  29:timer_time.c  **** 
  30:timer_time.c  **** //=============================================================================
ARM GAS  C:\Users\MANSRO~1\AppData\Local\Temp\ccsnke3N.s 			page 2


  31:timer_time.c  **** // Private data definitions
  32:timer_time.c  **** //=============================================================================
  33:timer_time.c  **** volatile static uint64_t s_roughMillis100th = 0u; // +/- 500 ms
  34:timer_time.c  **** volatile static uint32_t s_roughMicros = 0u;
  35:timer_time.c  **** 
  36:timer_time.c  **** //=============================================================================
  37:timer_time.c  **** // Public function definitions
  38:timer_time.c  **** //=============================================================================
  39:timer_time.c  **** void time_Start(void)
  40:timer_time.c  **** {
  41:timer_time.c  ****     TIMER_MS_WritePeriod(TIMER_TC_VALUE);
  42:timer_time.c  ****     TIMER_MS_WriteCounter(TIMER_TC_VALUE);
  43:timer_time.c  ****     TIMER_MS_Start();
  44:timer_time.c  ****     isr_500ms_StartEx(timer_tc_handler);
  45:timer_time.c  ****     while (0 == TIMER_MS_ReadCounter() && TIMER_TC_VALUE <= TIMER_MS_ReadCounter()) {
  46:timer_time.c  ****         // wait an instant till timer starts counting
  47:timer_time.c  ****     };
  48:timer_time.c  **** }
  49:timer_time.c  **** 
  50:timer_time.c  **** void time_Reset(void)
  51:timer_time.c  **** {
  52:timer_time.c  ****     const uint16_t counter = TIMER_MS_ReadCounter();
  53:timer_time.c  ****     s_roughMillis100th = -(TIMER_TC_VALUE - counter);
  54:timer_time.c  ****     s_roughMicros = -(TIMER_TC_VALUE - counter);
  55:timer_time.c  **** 
  56:timer_time.c  ****     log_bt("@");  // log fight start time in rs_logger
  57:timer_time.c  **** }
  58:timer_time.c  **** 
  59:timer_time.c  **** uint32_t getMillis(void)
  60:timer_time.c  **** {
  61:timer_time.c  ****     // NB: Timer actually counts down from TIMER_TC_VALUE to zero
  62:timer_time.c  ****     return ((s_roughMillis100th + (TIMER_TC_VALUE - TIMER_MS_ReadCounter())) / 100);
  63:timer_time.c  **** }
  64:timer_time.c  **** 
  65:timer_time.c  **** uint16_t getMillis100th(void)
  66:timer_time.c  **** {
  28              		.loc 1 66 0
  29              		.cfi_startproc
  30              		@ args = 0, pretend = 0, frame = 0
  31              		@ frame_needed = 0, uses_anonymous_args = 0
  32 0000 2DE93048 		push	{r4, r5, fp, lr}
  33              		.cfi_def_cfa_offset 16
  34              		.cfi_offset 4, -16
  35              		.cfi_offset 5, -12
  36              		.cfi_offset 11, -8
  37              		.cfi_offset 14, -4
  67:timer_time.c  ****     // NB: Timer actually counts down from TIMER_TC_VALUE to zero
  68:timer_time.c  ****     return ((s_roughMillis100th + (TIMER_TC_VALUE - TIMER_MS_ReadCounter())) % 100);
  38              		.loc 1 68 0
  39 0004 FFF7FEFF 		bl	TIMER_MS_ReadCounter
  40              	.LVL0:
  41 0008 C0F54340 		rsb	r0, r0, #49920
  42 000c 5030     		adds	r0, r0, #80
  43 000e 084B     		ldr	r3, .L3
  44 0010 D3E90045 		ldrd	r4, [r3]
  45 0014 6422     		movs	r2, #100
  46 0016 0023     		movs	r3, #0
ARM GAS  C:\Users\MANSRO~1\AppData\Local\Temp\ccsnke3N.s 			page 3


  47 0018 14EB000B 		adds	fp, r4, r0
  48 001c 45EBE07C 		adc	ip, r5, r0, asr #31
  49 0020 5846     		mov	r0, fp
  50 0022 6146     		mov	r1, ip
  51 0024 FFF7FEFF 		bl	__aeabi_uldivmod
  52              	.LVL1:
  69:timer_time.c  **** }
  53              		.loc 1 69 0
  54 0028 90B2     		uxth	r0, r2
  55 002a BDE83088 		pop	{r4, r5, fp, pc}
  56              	.L4:
  57 002e 00BF     		.align	2
  58              	.L3:
  59 0030 00000000 		.word	.LANCHOR0
  60              		.cfi_endproc
  61              	.LFE4:
  62              		.size	getMillis100th, .-getMillis100th
  63              		.section	.text.timer_tc_handler,"ax",%progbits
  64              		.align	2
  65              		.global	timer_tc_handler
  66              		.thumb
  67              		.thumb_func
  68              		.type	timer_tc_handler, %function
  69              	timer_tc_handler:
  70              	.LFB7:
  70:timer_time.c  **** 
  71:timer_time.c  **** // NB: Will overflow after approximately 70 minutes!
  72:timer_time.c  **** //     Resolution is 10 microseconds!
  73:timer_time.c  **** uint32_t getMicros(void)
  74:timer_time.c  **** {
  75:timer_time.c  ****     return ((s_roughMicros + (TIMER_TC_VALUE - TIMER_MS_ReadCounter())) * 10);
  76:timer_time.c  **** }
  77:timer_time.c  **** 
  78:timer_time.c  **** psoc_time_t getTime(void)
  79:timer_time.c  **** {
  80:timer_time.c  ****     static psoc_time_t time = {0u, 0u, 0u};
  81:timer_time.c  **** 
  82:timer_time.c  ****     const uint32_t millis = getMillis();
  83:timer_time.c  **** 	time.sec = millis / SECOND;
  84:timer_time.c  **** 	time.ms = millis % SECOND;
  85:timer_time.c  ****     time.ms_100th = getMillis100th();
  86:timer_time.c  **** 
  87:timer_time.c  ****     return time;
  88:timer_time.c  **** }
  89:timer_time.c  **** 
  90:timer_time.c  **** //=============================================================================
  91:timer_time.c  **** // Private function definitions
  92:timer_time.c  **** //=============================================================================
  93:timer_time.c  **** CY_ISR(timer_tc_handler)
  94:timer_time.c  **** {
  71              		.loc 1 94 0
  72              		.cfi_startproc
  73              		@ args = 0, pretend = 0, frame = 0
  74              		@ frame_needed = 0, uses_anonymous_args = 0
  75 0000 38B5     		push	{r3, r4, r5, lr}
  76              		.cfi_def_cfa_offset 16
  77              		.cfi_offset 3, -16
ARM GAS  C:\Users\MANSRO~1\AppData\Local\Temp\ccsnke3N.s 			page 4


  78              		.cfi_offset 4, -12
  79              		.cfi_offset 5, -8
  80              		.cfi_offset 14, -4
  95:timer_time.c  ****     s_roughMillis100th += TIMER_TC_VALUE;
  81              		.loc 1 95 0
  82 0002 0A4A     		ldr	r2, .L7
  83 0004 D2E90045 		ldrd	r4, [r2]
  84 0008 4CF25030 		movw	r0, #50000
  85 000c 0021     		movs	r1, #0
  86 000e 0019     		adds	r0, r0, r4
  87 0010 6941     		adcs	r1, r1, r5
  88 0012 C2E90001 		strd	r0, [r2]
  96:timer_time.c  ****     s_roughMicros += TIMER_TC_VALUE;
  89              		.loc 1 96 0
  90 0016 9368     		ldr	r3, [r2, #8]
  91 0018 03F54343 		add	r3, r3, #49920
  92 001c 5033     		adds	r3, r3, #80
  93 001e 9360     		str	r3, [r2, #8]
  97:timer_time.c  ****     TIMER_MS_ReadStatusRegister();
  94              		.loc 1 97 0
  95 0020 FFF7FEFF 		bl	TIMER_MS_ReadStatusRegister
  96              	.LVL2:
  98:timer_time.c  ****     isr_500ms_ClearPending();
  97              		.loc 1 98 0
  98 0024 FFF7FEFF 		bl	isr_500ms_ClearPending
  99              	.LVL3:
 100 0028 38BD     		pop	{r3, r4, r5, pc}
 101              	.L8:
 102 002a 00BF     		.align	2
 103              	.L7:
 104 002c 00000000 		.word	.LANCHOR0
 105              		.cfi_endproc
 106              	.LFE7:
 107              		.size	timer_tc_handler, .-timer_tc_handler
 108              		.section	.text.time_Start,"ax",%progbits
 109              		.align	2
 110              		.global	time_Start
 111              		.thumb
 112              		.thumb_func
 113              		.type	time_Start, %function
 114              	time_Start:
 115              	.LFB1:
  40:timer_time.c  ****     TIMER_MS_WritePeriod(TIMER_TC_VALUE);
 116              		.loc 1 40 0
 117              		.cfi_startproc
 118              		@ args = 0, pretend = 0, frame = 0
 119              		@ frame_needed = 0, uses_anonymous_args = 0
 120 0000 08B5     		push	{r3, lr}
 121              		.cfi_def_cfa_offset 8
 122              		.cfi_offset 3, -8
 123              		.cfi_offset 14, -4
  41:timer_time.c  ****     TIMER_MS_WriteCounter(TIMER_TC_VALUE);
 124              		.loc 1 41 0
 125 0002 4CF25030 		movw	r0, #50000
 126 0006 FFF7FEFF 		bl	TIMER_MS_WritePeriod
 127              	.LVL4:
  42:timer_time.c  ****     TIMER_MS_Start();
ARM GAS  C:\Users\MANSRO~1\AppData\Local\Temp\ccsnke3N.s 			page 5


 128              		.loc 1 42 0
 129 000a 4CF25030 		movw	r0, #50000
 130 000e FFF7FEFF 		bl	TIMER_MS_WriteCounter
 131              	.LVL5:
  43:timer_time.c  ****     isr_500ms_StartEx(timer_tc_handler);
 132              		.loc 1 43 0
 133 0012 FFF7FEFF 		bl	TIMER_MS_Start
 134              	.LVL6:
  44:timer_time.c  ****     while (0 == TIMER_MS_ReadCounter() && TIMER_TC_VALUE <= TIMER_MS_ReadCounter()) {
 135              		.loc 1 44 0
 136 0016 0648     		ldr	r0, .L13
 137 0018 FFF7FEFF 		bl	isr_500ms_StartEx
 138              	.LVL7:
 139              	.L11:
  45:timer_time.c  ****         // wait an instant till timer starts counting
 140              		.loc 1 45 0 discriminator 2
 141 001c FFF7FEFF 		bl	TIMER_MS_ReadCounter
 142              	.LVL8:
 143 0020 28B9     		cbnz	r0, .L9
  45:timer_time.c  ****         // wait an instant till timer starts counting
 144              		.loc 1 45 0 is_stmt 0 discriminator 1
 145 0022 FFF7FEFF 		bl	TIMER_MS_ReadCounter
 146              	.LVL9:
 147 0026 4CF24F33 		movw	r3, #49999
 148 002a 9842     		cmp	r0, r3
 149 002c F6D8     		bhi	.L11
 150              	.L9:
 151 002e 08BD     		pop	{r3, pc}
 152              	.L14:
 153              		.align	2
 154              	.L13:
 155 0030 00000000 		.word	timer_tc_handler
 156              		.cfi_endproc
 157              	.LFE1:
 158              		.size	time_Start, .-time_Start
 159              		.section	.text.time_Reset,"ax",%progbits
 160              		.align	2
 161              		.global	time_Reset
 162              		.thumb
 163              		.thumb_func
 164              		.type	time_Reset, %function
 165              	time_Reset:
 166              	.LFB2:
  51:timer_time.c  ****     const uint16_t counter = TIMER_MS_ReadCounter();
 167              		.loc 1 51 0 is_stmt 1
 168              		.cfi_startproc
 169              		@ args = 0, pretend = 0, frame = 0
 170              		@ frame_needed = 0, uses_anonymous_args = 0
 171 0000 38B5     		push	{r3, r4, r5, lr}
 172              		.cfi_def_cfa_offset 16
 173              		.cfi_offset 3, -16
 174              		.cfi_offset 4, -12
 175              		.cfi_offset 5, -8
 176              		.cfi_offset 14, -4
  52:timer_time.c  ****     s_roughMillis100th = -(TIMER_TC_VALUE - counter);
 177              		.loc 1 52 0
 178 0002 FFF7FEFF 		bl	TIMER_MS_ReadCounter
ARM GAS  C:\Users\MANSRO~1\AppData\Local\Temp\ccsnke3N.s 			page 6


 179              	.LVL10:
  53:timer_time.c  ****     s_roughMicros = -(TIMER_TC_VALUE - counter);
 180              		.loc 1 53 0
 181 0006 A0F54340 		sub	r0, r0, #49920
 182              	.LVL11:
 183 000a 5038     		subs	r0, r0, #80
 184 000c 0446     		mov	r4, r0
 185 000e C517     		asrs	r5, r0, #31
 186 0010 044B     		ldr	r3, .L17
 187 0012 C3E90045 		strd	r4, [r3]
  54:timer_time.c  **** 
 188              		.loc 1 54 0
 189 0016 9860     		str	r0, [r3, #8]
  56:timer_time.c  **** }
 190              		.loc 1 56 0
 191 0018 0349     		ldr	r1, .L17+4
 192 001a 0220     		movs	r0, #2
 193 001c FFF7FEFF 		bl	log_log
 194              	.LVL12:
 195 0020 38BD     		pop	{r3, r4, r5, pc}
 196              	.L18:
 197 0022 00BF     		.align	2
 198              	.L17:
 199 0024 00000000 		.word	.LANCHOR0
 200 0028 00000000 		.word	.LC0
 201              		.cfi_endproc
 202              	.LFE2:
 203              		.size	time_Reset, .-time_Reset
 204              		.section	.text.getMillis,"ax",%progbits
 205              		.align	2
 206              		.global	getMillis
 207              		.thumb
 208              		.thumb_func
 209              		.type	getMillis, %function
 210              	getMillis:
 211              	.LFB3:
  60:timer_time.c  ****     // NB: Timer actually counts down from TIMER_TC_VALUE to zero
 212              		.loc 1 60 0
 213              		.cfi_startproc
 214              		@ args = 0, pretend = 0, frame = 0
 215              		@ frame_needed = 0, uses_anonymous_args = 0
 216 0000 2DE93048 		push	{r4, r5, fp, lr}
 217              		.cfi_def_cfa_offset 16
 218              		.cfi_offset 4, -16
 219              		.cfi_offset 5, -12
 220              		.cfi_offset 11, -8
 221              		.cfi_offset 14, -4
  62:timer_time.c  **** }
 222              		.loc 1 62 0
 223 0004 FFF7FEFF 		bl	TIMER_MS_ReadCounter
 224              	.LVL13:
 225 0008 C0F54340 		rsb	r0, r0, #49920
 226 000c 5030     		adds	r0, r0, #80
 227 000e 074B     		ldr	r3, .L21
 228 0010 D3E90045 		ldrd	r4, [r3]
 229 0014 6422     		movs	r2, #100
 230 0016 0023     		movs	r3, #0
ARM GAS  C:\Users\MANSRO~1\AppData\Local\Temp\ccsnke3N.s 			page 7


 231 0018 14EB000B 		adds	fp, r4, r0
 232 001c 45EBE07C 		adc	ip, r5, r0, asr #31
 233 0020 5846     		mov	r0, fp
 234 0022 6146     		mov	r1, ip
 235 0024 FFF7FEFF 		bl	__aeabi_uldivmod
 236              	.LVL14:
  63:timer_time.c  **** 
 237              		.loc 1 63 0
 238 0028 BDE83088 		pop	{r4, r5, fp, pc}
 239              	.L22:
 240              		.align	2
 241              	.L21:
 242 002c 00000000 		.word	.LANCHOR0
 243              		.cfi_endproc
 244              	.LFE3:
 245              		.size	getMillis, .-getMillis
 246              		.section	.text.getMicros,"ax",%progbits
 247              		.align	2
 248              		.global	getMicros
 249              		.thumb
 250              		.thumb_func
 251              		.type	getMicros, %function
 252              	getMicros:
 253              	.LFB5:
  74:timer_time.c  ****     return ((s_roughMicros + (TIMER_TC_VALUE - TIMER_MS_ReadCounter())) * 10);
 254              		.loc 1 74 0
 255              		.cfi_startproc
 256              		@ args = 0, pretend = 0, frame = 0
 257              		@ frame_needed = 0, uses_anonymous_args = 0
 258 0000 10B5     		push	{r4, lr}
 259              		.cfi_def_cfa_offset 8
 260              		.cfi_offset 4, -8
 261              		.cfi_offset 14, -4
  75:timer_time.c  **** }
 262              		.loc 1 75 0
 263 0002 064B     		ldr	r3, .L25
 264 0004 9C68     		ldr	r4, [r3, #8]
 265 0006 FFF7FEFF 		bl	TIMER_MS_ReadCounter
 266              	.LVL15:
 267 000a 201A     		subs	r0, r4, r0
 268 000c 00EB8003 		add	r3, r0, r0, lsl #2
 269 0010 5800     		lsls	r0, r3, #1
  76:timer_time.c  **** 
 270              		.loc 1 76 0
 271 0012 00F5F420 		add	r0, r0, #499712
 272 0016 00F59070 		add	r0, r0, #288
 273 001a 10BD     		pop	{r4, pc}
 274              	.L26:
 275              		.align	2
 276              	.L25:
 277 001c 00000000 		.word	.LANCHOR0
 278              		.cfi_endproc
 279              	.LFE5:
 280              		.size	getMicros, .-getMicros
 281              		.section	.text.getTime,"ax",%progbits
 282              		.align	2
 283              		.global	getTime
ARM GAS  C:\Users\MANSRO~1\AppData\Local\Temp\ccsnke3N.s 			page 8


 284              		.thumb
 285              		.thumb_func
 286              		.type	getTime, %function
 287              	getTime:
 288              	.LFB6:
  79:timer_time.c  ****     static psoc_time_t time = {0u, 0u, 0u};
 289              		.loc 1 79 0
 290              		.cfi_startproc
 291              		@ args = 0, pretend = 0, frame = 0
 292              		@ frame_needed = 0, uses_anonymous_args = 0
 293              	.LVL16:
 294 0000 38B5     		push	{r3, r4, r5, lr}
 295              		.cfi_def_cfa_offset 16
 296              		.cfi_offset 3, -16
 297              		.cfi_offset 4, -12
 298              		.cfi_offset 5, -8
 299              		.cfi_offset 14, -4
 300 0002 0546     		mov	r5, r0
  82:timer_time.c  **** 	time.sec = millis / SECOND;
 301              		.loc 1 82 0
 302 0004 FFF7FEFF 		bl	getMillis
 303              	.LVL17:
  83:timer_time.c  **** 	time.ms = millis % SECOND;
 304              		.loc 1 83 0
 305 0008 0A4B     		ldr	r3, .L29
 306 000a A3FB0023 		umull	r2, r3, r3, r0
 307 000e 9B09     		lsrs	r3, r3, #6
 308 0010 094C     		ldr	r4, .L29+4
 309 0012 A381     		strh	r3, [r4, #12]	@ movhi
  84:timer_time.c  ****     time.ms_100th = getMillis100th();
 310              		.loc 1 84 0
 311 0014 4FF47A72 		mov	r2, #1000
 312 0018 02FB1302 		mls	r2, r2, r3, r0
 313 001c E281     		strh	r2, [r4, #14]	@ movhi
  85:timer_time.c  **** 
 314              		.loc 1 85 0
 315 001e FFF7FEFF 		bl	getMillis100th
 316              	.LVL18:
 317 0022 2082     		strh	r0, [r4, #16]	@ movhi
  87:timer_time.c  **** }
 318              		.loc 1 87 0
 319 0024 54F80C0F 		ldr	r0, [r4, #12]!	@ unaligned
 320 0028 2860     		str	r0, [r5]	@ unaligned
 321 002a A388     		ldrh	r3, [r4, #4]	@ unaligned
 322 002c AB80     		strh	r3, [r5, #4]	@ unaligned
  88:timer_time.c  **** 
 323              		.loc 1 88 0
 324 002e 2846     		mov	r0, r5
 325 0030 38BD     		pop	{r3, r4, r5, pc}
 326              	.LVL19:
 327              	.L30:
 328 0032 00BF     		.align	2
 329              	.L29:
 330 0034 D34D6210 		.word	274877907
 331 0038 00000000 		.word	.LANCHOR0
 332              		.cfi_endproc
 333              	.LFE6:
ARM GAS  C:\Users\MANSRO~1\AppData\Local\Temp\ccsnke3N.s 			page 9


 334              		.size	getTime, .-getTime
 335              		.global	SECOND
 336              		.section	.rodata
 337              		.align	2
 338              		.type	SECOND, %object
 339              		.size	SECOND, 4
 340              	SECOND:
 341 0000 E8030000 		.word	1000
 342              		.section	.rodata.str1.4,"aMS",%progbits,1
 343              		.align	2
 344              	.LC0:
 345 0000 4000     		.ascii	"@\000"
 346              		.bss
 347              		.align	3
 348              		.set	.LANCHOR0,. + 0
 349              		.type	s_roughMillis100th, %object
 350              		.size	s_roughMillis100th, 8
 351              	s_roughMillis100th:
 352 0000 00000000 		.space	8
 352      00000000 
 353              		.type	s_roughMicros, %object
 354              		.size	s_roughMicros, 4
 355              	s_roughMicros:
 356 0008 00000000 		.space	4
 357              		.type	time.7322, %object
 358              		.size	time.7322, 6
 359              	time.7322:
 360 000c 00000000 		.space	6
 360      0000
 361              		.text
 362              	.Letext0:
 363              		.file 2 "c:\\program files (x86)\\cypress\\psoc creator\\4.2\\psoc creator\\import\\gnu\\arm\\5.4.
 364              		.file 3 "c:\\program files (x86)\\cypress\\psoc creator\\4.2\\psoc creator\\import\\gnu\\arm\\5.4.
 365              		.file 4 "timer_time.h"
 366              		.file 5 "Generated_Source\\PSoC5/TIMER_MS.h"
 367              		.file 6 "Generated_Source\\PSoC5/isr_500ms.h"
 368              		.file 7 "log2.h"
 369              		.section	.debug_info,"",%progbits
 370              	.Ldebug_info0:
 371 0000 63030000 		.4byte	0x363
 372 0004 0400     		.2byte	0x4
 373 0006 00000000 		.4byte	.Ldebug_abbrev0
 374 000a 04       		.byte	0x4
 375 000b 01       		.uleb128 0x1
 376 000c BD000000 		.4byte	.LASF46
 377 0010 0C       		.byte	0xc
 378 0011 B4010000 		.4byte	.LASF47
 379 0015 68020000 		.4byte	.LASF48
 380 0019 00000000 		.4byte	.Ldebug_ranges0+0
 381 001d 00000000 		.4byte	0
 382 0021 00000000 		.4byte	.Ldebug_line0
 383 0025 02       		.uleb128 0x2
 384 0026 01       		.byte	0x1
 385 0027 06       		.byte	0x6
 386 0028 A3000000 		.4byte	.LASF0
 387 002c 02       		.uleb128 0x2
 388 002d 01       		.byte	0x1
ARM GAS  C:\Users\MANSRO~1\AppData\Local\Temp\ccsnke3N.s 			page 10


 389 002e 08       		.byte	0x8
 390 002f AF000000 		.4byte	.LASF1
 391 0033 02       		.uleb128 0x2
 392 0034 02       		.byte	0x2
 393 0035 05       		.byte	0x5
 394 0036 4B020000 		.4byte	.LASF2
 395 003a 03       		.uleb128 0x3
 396 003b 82010000 		.4byte	.LASF5
 397 003f 02       		.byte	0x2
 398 0040 2B       		.byte	0x2b
 399 0041 45000000 		.4byte	0x45
 400 0045 02       		.uleb128 0x2
 401 0046 02       		.byte	0x2
 402 0047 07       		.byte	0x7
 403 0048 5D010000 		.4byte	.LASF3
 404 004c 02       		.uleb128 0x2
 405 004d 04       		.byte	0x4
 406 004e 05       		.byte	0x5
 407 004f C2020000 		.4byte	.LASF4
 408 0053 03       		.uleb128 0x3
 409 0054 A9010000 		.4byte	.LASF6
 410 0058 02       		.byte	0x2
 411 0059 41       		.byte	0x41
 412 005a 5E000000 		.4byte	0x5e
 413 005e 02       		.uleb128 0x2
 414 005f 04       		.byte	0x4
 415 0060 07       		.byte	0x7
 416 0061 4B010000 		.4byte	.LASF7
 417 0065 02       		.uleb128 0x2
 418 0066 08       		.byte	0x8
 419 0067 05       		.byte	0x5
 420 0068 25020000 		.4byte	.LASF8
 421 006c 03       		.uleb128 0x3
 422 006d 5D020000 		.4byte	.LASF9
 423 0071 02       		.byte	0x2
 424 0072 5B       		.byte	0x5b
 425 0073 77000000 		.4byte	0x77
 426 0077 02       		.uleb128 0x2
 427 0078 08       		.byte	0x8
 428 0079 07       		.byte	0x7
 429 007a D7010000 		.4byte	.LASF10
 430 007e 04       		.uleb128 0x4
 431 007f 04       		.byte	0x4
 432 0080 05       		.byte	0x5
 433 0081 696E7400 		.ascii	"int\000"
 434 0085 02       		.uleb128 0x2
 435 0086 04       		.byte	0x4
 436 0087 07       		.byte	0x7
 437 0088 C1010000 		.4byte	.LASF11
 438 008c 03       		.uleb128 0x3
 439 008d 42020000 		.4byte	.LASF12
 440 0091 03       		.byte	0x3
 441 0092 24       		.byte	0x24
 442 0093 3A000000 		.4byte	0x3a
 443 0097 03       		.uleb128 0x3
 444 0098 B9020000 		.4byte	.LASF13
 445 009c 03       		.byte	0x3
ARM GAS  C:\Users\MANSRO~1\AppData\Local\Temp\ccsnke3N.s 			page 11


 446 009d 30       		.byte	0x30
 447 009e 53000000 		.4byte	0x53
 448 00a2 03       		.uleb128 0x3
 449 00a3 6D000000 		.4byte	.LASF14
 450 00a7 03       		.byte	0x3
 451 00a8 3C       		.byte	0x3c
 452 00a9 6C000000 		.4byte	0x6c
 453 00ad 02       		.uleb128 0x2
 454 00ae 04       		.byte	0x4
 455 00af 04       		.byte	0x4
 456 00b0 88000000 		.4byte	.LASF15
 457 00b4 02       		.uleb128 0x2
 458 00b5 08       		.byte	0x8
 459 00b6 04       		.byte	0x4
 460 00b7 8D010000 		.4byte	.LASF16
 461 00bb 02       		.uleb128 0x2
 462 00bc 01       		.byte	0x1
 463 00bd 08       		.byte	0x8
 464 00be 33020000 		.4byte	.LASF17
 465 00c2 02       		.uleb128 0x2
 466 00c3 08       		.byte	0x8
 467 00c4 04       		.byte	0x4
 468 00c5 D2020000 		.4byte	.LASF18
 469 00c9 02       		.uleb128 0x2
 470 00ca 04       		.byte	0x4
 471 00cb 07       		.byte	0x7
 472 00cc 1C020000 		.4byte	.LASF19
 473 00d0 05       		.uleb128 0x5
 474 00d1 06       		.byte	0x6
 475 00d2 04       		.byte	0x4
 476 00d3 15       		.byte	0x15
 477 00d4 FC000000 		.4byte	0xfc
 478 00d8 06       		.uleb128 0x6
 479 00d9 73656300 		.ascii	"sec\000"
 480 00dd 04       		.byte	0x4
 481 00de 16       		.byte	0x16
 482 00df 8C000000 		.4byte	0x8c
 483 00e3 00       		.byte	0
 484 00e4 06       		.uleb128 0x6
 485 00e5 6D7300   		.ascii	"ms\000"
 486 00e8 04       		.byte	0x4
 487 00e9 17       		.byte	0x17
 488 00ea 8C000000 		.4byte	0x8c
 489 00ee 02       		.byte	0x2
 490 00ef 07       		.uleb128 0x7
 491 00f0 0C030000 		.4byte	.LASF20
 492 00f4 04       		.byte	0x4
 493 00f5 18       		.byte	0x18
 494 00f6 8C000000 		.4byte	0x8c
 495 00fa 04       		.byte	0x4
 496 00fb 00       		.byte	0
 497 00fc 03       		.uleb128 0x3
 498 00fd 00030000 		.4byte	.LASF21
 499 0101 04       		.byte	0x4
 500 0102 19       		.byte	0x19
 501 0103 D0000000 		.4byte	0xd0
 502 0107 08       		.uleb128 0x8
ARM GAS  C:\Users\MANSRO~1\AppData\Local\Temp\ccsnke3N.s 			page 12


 503 0108 01       		.byte	0x1
 504 0109 2C000000 		.4byte	0x2c
 505 010d 07       		.byte	0x7
 506 010e 14       		.byte	0x14
 507 010f 32010000 		.4byte	0x132
 508 0113 09       		.uleb128 0x9
 509 0114 15030000 		.4byte	.LASF22
 510 0118 00       		.byte	0
 511 0119 09       		.uleb128 0x9
 512 011a CE010000 		.4byte	.LASF23
 513 011e 01       		.byte	0x1
 514 011f 09       		.uleb128 0x9
 515 0120 1E000000 		.4byte	.LASF24
 516 0124 02       		.byte	0x2
 517 0125 09       		.uleb128 0x9
 518 0126 0E020000 		.4byte	.LASF25
 519 012a 03       		.byte	0x3
 520 012b 09       		.uleb128 0x9
 521 012c 50000000 		.4byte	.LASF26
 522 0130 04       		.byte	0x4
 523 0131 00       		.byte	0
 524 0132 0A       		.uleb128 0xa
 525 0133 EE010000 		.4byte	.LASF49
 526 0137 01       		.byte	0x1
 527 0138 41       		.byte	0x41
 528 0139 8C000000 		.4byte	0x8c
 529 013d 00000000 		.4byte	.LFB4
 530 0141 34000000 		.4byte	.LFE4-.LFB4
 531 0145 01       		.uleb128 0x1
 532 0146 9C       		.byte	0x9c
 533 0147 55010000 		.4byte	0x155
 534 014b 0B       		.uleb128 0xb
 535 014c 08000000 		.4byte	.LVL0
 536 0150 0E030000 		.4byte	0x30e
 537 0154 00       		.byte	0
 538 0155 0C       		.uleb128 0xc
 539 0156 FD010000 		.4byte	.LASF27
 540 015a 01       		.byte	0x1
 541 015b 5D       		.byte	0x5d
 542 015c 00000000 		.4byte	.LFB7
 543 0160 30000000 		.4byte	.LFE7-.LFB7
 544 0164 01       		.uleb128 0x1
 545 0165 9C       		.byte	0x9c
 546 0166 7D010000 		.4byte	0x17d
 547 016a 0B       		.uleb128 0xb
 548 016b 24000000 		.4byte	.LVL2
 549 016f 19030000 		.4byte	0x319
 550 0173 0B       		.uleb128 0xb
 551 0174 28000000 		.4byte	.LVL3
 552 0178 24030000 		.4byte	0x324
 553 017c 00       		.byte	0
 554 017d 0C       		.uleb128 0xc
 555 017e 1F030000 		.4byte	.LASF28
 556 0182 01       		.byte	0x1
 557 0183 27       		.byte	0x27
 558 0184 00000000 		.4byte	.LFB1
 559 0188 34000000 		.4byte	.LFE1-.LFB1
ARM GAS  C:\Users\MANSRO~1\AppData\Local\Temp\ccsnke3N.s 			page 13


 560 018c 01       		.uleb128 0x1
 561 018d 9C       		.byte	0x9c
 562 018e EF010000 		.4byte	0x1ef
 563 0192 0D       		.uleb128 0xd
 564 0193 0A000000 		.4byte	.LVL4
 565 0197 2F030000 		.4byte	0x32f
 566 019b A7010000 		.4byte	0x1a7
 567 019f 0E       		.uleb128 0xe
 568 01a0 01       		.uleb128 0x1
 569 01a1 50       		.byte	0x50
 570 01a2 03       		.uleb128 0x3
 571 01a3 0B       		.byte	0xb
 572 01a4 50C3     		.2byte	0xc350
 573 01a6 00       		.byte	0
 574 01a7 0D       		.uleb128 0xd
 575 01a8 12000000 		.4byte	.LVL5
 576 01ac 3A030000 		.4byte	0x33a
 577 01b0 BC010000 		.4byte	0x1bc
 578 01b4 0E       		.uleb128 0xe
 579 01b5 01       		.uleb128 0x1
 580 01b6 50       		.byte	0x50
 581 01b7 03       		.uleb128 0x3
 582 01b8 0B       		.byte	0xb
 583 01b9 50C3     		.2byte	0xc350
 584 01bb 00       		.byte	0
 585 01bc 0B       		.uleb128 0xb
 586 01bd 16000000 		.4byte	.LVL6
 587 01c1 45030000 		.4byte	0x345
 588 01c5 0D       		.uleb128 0xd
 589 01c6 1C000000 		.4byte	.LVL7
 590 01ca 50030000 		.4byte	0x350
 591 01ce DC010000 		.4byte	0x1dc
 592 01d2 0E       		.uleb128 0xe
 593 01d3 01       		.uleb128 0x1
 594 01d4 50       		.byte	0x50
 595 01d5 05       		.uleb128 0x5
 596 01d6 03       		.byte	0x3
 597 01d7 00000000 		.4byte	timer_tc_handler
 598 01db 00       		.byte	0
 599 01dc 0B       		.uleb128 0xb
 600 01dd 20000000 		.4byte	.LVL8
 601 01e1 0E030000 		.4byte	0x30e
 602 01e5 0B       		.uleb128 0xb
 603 01e6 26000000 		.4byte	.LVL9
 604 01ea 0E030000 		.4byte	0x30e
 605 01ee 00       		.byte	0
 606 01ef 0C       		.uleb128 0xc
 607 01f0 F5020000 		.4byte	.LASF29
 608 01f4 01       		.byte	0x1
 609 01f5 32       		.byte	0x32
 610 01f6 00000000 		.4byte	.LFB2
 611 01fa 2C000000 		.4byte	.LFE2-.LFB2
 612 01fe 01       		.uleb128 0x1
 613 01ff 9C       		.byte	0x9c
 614 0200 35020000 		.4byte	0x235
 615 0204 0F       		.uleb128 0xf
 616 0205 7A010000 		.4byte	.LASF33
ARM GAS  C:\Users\MANSRO~1\AppData\Local\Temp\ccsnke3N.s 			page 14


 617 0209 01       		.byte	0x1
 618 020a 34       		.byte	0x34
 619 020b 35020000 		.4byte	0x235
 620 020f 00000000 		.4byte	.LLST0
 621 0213 0B       		.uleb128 0xb
 622 0214 06000000 		.4byte	.LVL10
 623 0218 0E030000 		.4byte	0x30e
 624 021c 10       		.uleb128 0x10
 625 021d 20000000 		.4byte	.LVL12
 626 0221 5B030000 		.4byte	0x35b
 627 0225 0E       		.uleb128 0xe
 628 0226 01       		.uleb128 0x1
 629 0227 50       		.byte	0x50
 630 0228 01       		.uleb128 0x1
 631 0229 32       		.byte	0x32
 632 022a 0E       		.uleb128 0xe
 633 022b 01       		.uleb128 0x1
 634 022c 51       		.byte	0x51
 635 022d 05       		.uleb128 0x5
 636 022e 03       		.byte	0x3
 637 022f 00000000 		.4byte	.LC0
 638 0233 00       		.byte	0
 639 0234 00       		.byte	0
 640 0235 11       		.uleb128 0x11
 641 0236 8C000000 		.4byte	0x8c
 642 023a 12       		.uleb128 0x12
 643 023b 70010000 		.4byte	.LASF30
 644 023f 01       		.byte	0x1
 645 0240 3B       		.byte	0x3b
 646 0241 97000000 		.4byte	0x97
 647 0245 00000000 		.4byte	.LFB3
 648 0249 30000000 		.4byte	.LFE3-.LFB3
 649 024d 01       		.uleb128 0x1
 650 024e 9C       		.byte	0x9c
 651 024f 5D020000 		.4byte	0x25d
 652 0253 0B       		.uleb128 0xb
 653 0254 08000000 		.4byte	.LVL13
 654 0258 0E030000 		.4byte	0x30e
 655 025c 00       		.byte	0
 656 025d 13       		.uleb128 0x13
 657 025e 38020000 		.4byte	.LASF31
 658 0262 01       		.byte	0x1
 659 0263 49       		.byte	0x49
 660 0264 97000000 		.4byte	0x97
 661 0268 00000000 		.4byte	.LFB5
 662 026c 20000000 		.4byte	.LFE5-.LFB5
 663 0270 01       		.uleb128 0x1
 664 0271 9C       		.byte	0x9c
 665 0272 80020000 		.4byte	0x280
 666 0276 0B       		.uleb128 0xb
 667 0277 0A000000 		.4byte	.LVL15
 668 027b 0E030000 		.4byte	0x30e
 669 027f 00       		.byte	0
 670 0280 13       		.uleb128 0x13
 671 0281 16000000 		.4byte	.LASF32
 672 0285 01       		.byte	0x1
 673 0286 4E       		.byte	0x4e
ARM GAS  C:\Users\MANSRO~1\AppData\Local\Temp\ccsnke3N.s 			page 15


 674 0287 FC000000 		.4byte	0xfc
 675 028b 00000000 		.4byte	.LFB6
 676 028f 3C000000 		.4byte	.LFE6-.LFB6
 677 0293 01       		.uleb128 0x1
 678 0294 9C       		.byte	0x9c
 679 0295 CC020000 		.4byte	0x2cc
 680 0299 14       		.uleb128 0x14
 681 029a 17020000 		.4byte	.LASF34
 682 029e 01       		.byte	0x1
 683 029f 50       		.byte	0x50
 684 02a0 FC000000 		.4byte	0xfc
 685 02a4 05       		.uleb128 0x5
 686 02a5 03       		.byte	0x3
 687 02a6 0C000000 		.4byte	time.7322
 688 02aa 0F       		.uleb128 0xf
 689 02ab CB020000 		.4byte	.LASF35
 690 02af 01       		.byte	0x1
 691 02b0 52       		.byte	0x52
 692 02b1 CC020000 		.4byte	0x2cc
 693 02b5 13000000 		.4byte	.LLST1
 694 02b9 0B       		.uleb128 0xb
 695 02ba 08000000 		.4byte	.LVL17
 696 02be 3A020000 		.4byte	0x23a
 697 02c2 0B       		.uleb128 0xb
 698 02c3 22000000 		.4byte	.LVL18
 699 02c7 32010000 		.4byte	0x132
 700 02cb 00       		.byte	0
 701 02cc 11       		.uleb128 0x11
 702 02cd 97000000 		.4byte	0x97
 703 02d1 14       		.uleb128 0x14
 704 02d2 5A000000 		.4byte	.LASF36
 705 02d6 01       		.byte	0x1
 706 02d7 21       		.byte	0x21
 707 02d8 E2020000 		.4byte	0x2e2
 708 02dc 05       		.uleb128 0x5
 709 02dd 03       		.byte	0x3
 710 02de 00000000 		.4byte	s_roughMillis100th
 711 02e2 15       		.uleb128 0x15
 712 02e3 A2000000 		.4byte	0xa2
 713 02e7 14       		.uleb128 0x14
 714 02e8 42000000 		.4byte	.LASF37
 715 02ec 01       		.byte	0x1
 716 02ed 22       		.byte	0x22
 717 02ee F8020000 		.4byte	0x2f8
 718 02f2 05       		.uleb128 0x5
 719 02f3 03       		.byte	0x3
 720 02f4 08000000 		.4byte	s_roughMicros
 721 02f8 15       		.uleb128 0x15
 722 02f9 97000000 		.4byte	0x97
 723 02fd 16       		.uleb128 0x16
 724 02fe 0F000000 		.4byte	.LASF50
 725 0302 01       		.byte	0x1
 726 0303 16       		.byte	0x16
 727 0304 CC020000 		.4byte	0x2cc
 728 0308 05       		.uleb128 0x5
 729 0309 03       		.byte	0x3
 730 030a 00000000 		.4byte	SECOND
ARM GAS  C:\Users\MANSRO~1\AppData\Local\Temp\ccsnke3N.s 			page 16


 731 030e 17       		.uleb128 0x17
 732 030f 8E000000 		.4byte	.LASF38
 733 0313 8E000000 		.4byte	.LASF38
 734 0317 05       		.byte	0x5
 735 0318 69       		.byte	0x69
 736 0319 17       		.uleb128 0x17
 737 031a 9D020000 		.4byte	.LASF39
 738 031e 9D020000 		.4byte	.LASF39
 739 0322 05       		.byte	0x5
 740 0323 5E       		.byte	0x5e
 741 0324 17       		.uleb128 0x17
 742 0325 DE020000 		.4byte	.LASF40
 743 0329 DE020000 		.4byte	.LASF40
 744 032d 06       		.byte	0x6
 745 032e 28       		.byte	0x28
 746 032f 17       		.uleb128 0x17
 747 0330 94010000 		.4byte	.LASF41
 748 0334 94010000 		.4byte	.LASF41
 749 0338 05       		.byte	0x5
 750 0339 68       		.byte	0x68
 751 033a 17       		.uleb128 0x17
 752 033b 2C000000 		.4byte	.LASF42
 753 033f 2C000000 		.4byte	.LASF42
 754 0343 05       		.byte	0x5
 755 0344 6A       		.byte	0x6a
 756 0345 17       		.uleb128 0x17
 757 0346 00000000 		.4byte	.LASF43
 758 034a 00000000 		.4byte	.LASF43
 759 034e 05       		.byte	0x5
 760 034f 5A       		.byte	0x5a
 761 0350 17       		.uleb128 0x17
 762 0351 76000000 		.4byte	.LASF44
 763 0355 76000000 		.4byte	.LASF44
 764 0359 06       		.byte	0x6
 765 035a 18       		.byte	0x18
 766 035b 17       		.uleb128 0x17
 767 035c 55020000 		.4byte	.LASF45
 768 0360 55020000 		.4byte	.LASF45
 769 0364 07       		.byte	0x7
 770 0365 26       		.byte	0x26
 771 0366 00       		.byte	0
 772              		.section	.debug_abbrev,"",%progbits
 773              	.Ldebug_abbrev0:
 774 0000 01       		.uleb128 0x1
 775 0001 11       		.uleb128 0x11
 776 0002 01       		.byte	0x1
 777 0003 25       		.uleb128 0x25
 778 0004 0E       		.uleb128 0xe
 779 0005 13       		.uleb128 0x13
 780 0006 0B       		.uleb128 0xb
 781 0007 03       		.uleb128 0x3
 782 0008 0E       		.uleb128 0xe
 783 0009 1B       		.uleb128 0x1b
 784 000a 0E       		.uleb128 0xe
 785 000b 55       		.uleb128 0x55
 786 000c 17       		.uleb128 0x17
 787 000d 11       		.uleb128 0x11
ARM GAS  C:\Users\MANSRO~1\AppData\Local\Temp\ccsnke3N.s 			page 17


 788 000e 01       		.uleb128 0x1
 789 000f 10       		.uleb128 0x10
 790 0010 17       		.uleb128 0x17
 791 0011 00       		.byte	0
 792 0012 00       		.byte	0
 793 0013 02       		.uleb128 0x2
 794 0014 24       		.uleb128 0x24
 795 0015 00       		.byte	0
 796 0016 0B       		.uleb128 0xb
 797 0017 0B       		.uleb128 0xb
 798 0018 3E       		.uleb128 0x3e
 799 0019 0B       		.uleb128 0xb
 800 001a 03       		.uleb128 0x3
 801 001b 0E       		.uleb128 0xe
 802 001c 00       		.byte	0
 803 001d 00       		.byte	0
 804 001e 03       		.uleb128 0x3
 805 001f 16       		.uleb128 0x16
 806 0020 00       		.byte	0
 807 0021 03       		.uleb128 0x3
 808 0022 0E       		.uleb128 0xe
 809 0023 3A       		.uleb128 0x3a
 810 0024 0B       		.uleb128 0xb
 811 0025 3B       		.uleb128 0x3b
 812 0026 0B       		.uleb128 0xb
 813 0027 49       		.uleb128 0x49
 814 0028 13       		.uleb128 0x13
 815 0029 00       		.byte	0
 816 002a 00       		.byte	0
 817 002b 04       		.uleb128 0x4
 818 002c 24       		.uleb128 0x24
 819 002d 00       		.byte	0
 820 002e 0B       		.uleb128 0xb
 821 002f 0B       		.uleb128 0xb
 822 0030 3E       		.uleb128 0x3e
 823 0031 0B       		.uleb128 0xb
 824 0032 03       		.uleb128 0x3
 825 0033 08       		.uleb128 0x8
 826 0034 00       		.byte	0
 827 0035 00       		.byte	0
 828 0036 05       		.uleb128 0x5
 829 0037 13       		.uleb128 0x13
 830 0038 01       		.byte	0x1
 831 0039 0B       		.uleb128 0xb
 832 003a 0B       		.uleb128 0xb
 833 003b 3A       		.uleb128 0x3a
 834 003c 0B       		.uleb128 0xb
 835 003d 3B       		.uleb128 0x3b
 836 003e 0B       		.uleb128 0xb
 837 003f 01       		.uleb128 0x1
 838 0040 13       		.uleb128 0x13
 839 0041 00       		.byte	0
 840 0042 00       		.byte	0
 841 0043 06       		.uleb128 0x6
 842 0044 0D       		.uleb128 0xd
 843 0045 00       		.byte	0
 844 0046 03       		.uleb128 0x3
ARM GAS  C:\Users\MANSRO~1\AppData\Local\Temp\ccsnke3N.s 			page 18


 845 0047 08       		.uleb128 0x8
 846 0048 3A       		.uleb128 0x3a
 847 0049 0B       		.uleb128 0xb
 848 004a 3B       		.uleb128 0x3b
 849 004b 0B       		.uleb128 0xb
 850 004c 49       		.uleb128 0x49
 851 004d 13       		.uleb128 0x13
 852 004e 38       		.uleb128 0x38
 853 004f 0B       		.uleb128 0xb
 854 0050 00       		.byte	0
 855 0051 00       		.byte	0
 856 0052 07       		.uleb128 0x7
 857 0053 0D       		.uleb128 0xd
 858 0054 00       		.byte	0
 859 0055 03       		.uleb128 0x3
 860 0056 0E       		.uleb128 0xe
 861 0057 3A       		.uleb128 0x3a
 862 0058 0B       		.uleb128 0xb
 863 0059 3B       		.uleb128 0x3b
 864 005a 0B       		.uleb128 0xb
 865 005b 49       		.uleb128 0x49
 866 005c 13       		.uleb128 0x13
 867 005d 38       		.uleb128 0x38
 868 005e 0B       		.uleb128 0xb
 869 005f 00       		.byte	0
 870 0060 00       		.byte	0
 871 0061 08       		.uleb128 0x8
 872 0062 04       		.uleb128 0x4
 873 0063 01       		.byte	0x1
 874 0064 0B       		.uleb128 0xb
 875 0065 0B       		.uleb128 0xb
 876 0066 49       		.uleb128 0x49
 877 0067 13       		.uleb128 0x13
 878 0068 3A       		.uleb128 0x3a
 879 0069 0B       		.uleb128 0xb
 880 006a 3B       		.uleb128 0x3b
 881 006b 0B       		.uleb128 0xb
 882 006c 01       		.uleb128 0x1
 883 006d 13       		.uleb128 0x13
 884 006e 00       		.byte	0
 885 006f 00       		.byte	0
 886 0070 09       		.uleb128 0x9
 887 0071 28       		.uleb128 0x28
 888 0072 00       		.byte	0
 889 0073 03       		.uleb128 0x3
 890 0074 0E       		.uleb128 0xe
 891 0075 1C       		.uleb128 0x1c
 892 0076 0B       		.uleb128 0xb
 893 0077 00       		.byte	0
 894 0078 00       		.byte	0
 895 0079 0A       		.uleb128 0xa
 896 007a 2E       		.uleb128 0x2e
 897 007b 01       		.byte	0x1
 898 007c 03       		.uleb128 0x3
 899 007d 0E       		.uleb128 0xe
 900 007e 3A       		.uleb128 0x3a
 901 007f 0B       		.uleb128 0xb
ARM GAS  C:\Users\MANSRO~1\AppData\Local\Temp\ccsnke3N.s 			page 19


 902 0080 3B       		.uleb128 0x3b
 903 0081 0B       		.uleb128 0xb
 904 0082 27       		.uleb128 0x27
 905 0083 19       		.uleb128 0x19
 906 0084 49       		.uleb128 0x49
 907 0085 13       		.uleb128 0x13
 908 0086 11       		.uleb128 0x11
 909 0087 01       		.uleb128 0x1
 910 0088 12       		.uleb128 0x12
 911 0089 06       		.uleb128 0x6
 912 008a 40       		.uleb128 0x40
 913 008b 18       		.uleb128 0x18
 914 008c 9642     		.uleb128 0x2116
 915 008e 19       		.uleb128 0x19
 916 008f 01       		.uleb128 0x1
 917 0090 13       		.uleb128 0x13
 918 0091 00       		.byte	0
 919 0092 00       		.byte	0
 920 0093 0B       		.uleb128 0xb
 921 0094 898201   		.uleb128 0x4109
 922 0097 00       		.byte	0
 923 0098 11       		.uleb128 0x11
 924 0099 01       		.uleb128 0x1
 925 009a 31       		.uleb128 0x31
 926 009b 13       		.uleb128 0x13
 927 009c 00       		.byte	0
 928 009d 00       		.byte	0
 929 009e 0C       		.uleb128 0xc
 930 009f 2E       		.uleb128 0x2e
 931 00a0 01       		.byte	0x1
 932 00a1 3F       		.uleb128 0x3f
 933 00a2 19       		.uleb128 0x19
 934 00a3 03       		.uleb128 0x3
 935 00a4 0E       		.uleb128 0xe
 936 00a5 3A       		.uleb128 0x3a
 937 00a6 0B       		.uleb128 0xb
 938 00a7 3B       		.uleb128 0x3b
 939 00a8 0B       		.uleb128 0xb
 940 00a9 27       		.uleb128 0x27
 941 00aa 19       		.uleb128 0x19
 942 00ab 11       		.uleb128 0x11
 943 00ac 01       		.uleb128 0x1
 944 00ad 12       		.uleb128 0x12
 945 00ae 06       		.uleb128 0x6
 946 00af 40       		.uleb128 0x40
 947 00b0 18       		.uleb128 0x18
 948 00b1 9742     		.uleb128 0x2117
 949 00b3 19       		.uleb128 0x19
 950 00b4 01       		.uleb128 0x1
 951 00b5 13       		.uleb128 0x13
 952 00b6 00       		.byte	0
 953 00b7 00       		.byte	0
 954 00b8 0D       		.uleb128 0xd
 955 00b9 898201   		.uleb128 0x4109
 956 00bc 01       		.byte	0x1
 957 00bd 11       		.uleb128 0x11
 958 00be 01       		.uleb128 0x1
ARM GAS  C:\Users\MANSRO~1\AppData\Local\Temp\ccsnke3N.s 			page 20


 959 00bf 31       		.uleb128 0x31
 960 00c0 13       		.uleb128 0x13
 961 00c1 01       		.uleb128 0x1
 962 00c2 13       		.uleb128 0x13
 963 00c3 00       		.byte	0
 964 00c4 00       		.byte	0
 965 00c5 0E       		.uleb128 0xe
 966 00c6 8A8201   		.uleb128 0x410a
 967 00c9 00       		.byte	0
 968 00ca 02       		.uleb128 0x2
 969 00cb 18       		.uleb128 0x18
 970 00cc 9142     		.uleb128 0x2111
 971 00ce 18       		.uleb128 0x18
 972 00cf 00       		.byte	0
 973 00d0 00       		.byte	0
 974 00d1 0F       		.uleb128 0xf
 975 00d2 34       		.uleb128 0x34
 976 00d3 00       		.byte	0
 977 00d4 03       		.uleb128 0x3
 978 00d5 0E       		.uleb128 0xe
 979 00d6 3A       		.uleb128 0x3a
 980 00d7 0B       		.uleb128 0xb
 981 00d8 3B       		.uleb128 0x3b
 982 00d9 0B       		.uleb128 0xb
 983 00da 49       		.uleb128 0x49
 984 00db 13       		.uleb128 0x13
 985 00dc 02       		.uleb128 0x2
 986 00dd 17       		.uleb128 0x17
 987 00de 00       		.byte	0
 988 00df 00       		.byte	0
 989 00e0 10       		.uleb128 0x10
 990 00e1 898201   		.uleb128 0x4109
 991 00e4 01       		.byte	0x1
 992 00e5 11       		.uleb128 0x11
 993 00e6 01       		.uleb128 0x1
 994 00e7 31       		.uleb128 0x31
 995 00e8 13       		.uleb128 0x13
 996 00e9 00       		.byte	0
 997 00ea 00       		.byte	0
 998 00eb 11       		.uleb128 0x11
 999 00ec 26       		.uleb128 0x26
 1000 00ed 00       		.byte	0
 1001 00ee 49       		.uleb128 0x49
 1002 00ef 13       		.uleb128 0x13
 1003 00f0 00       		.byte	0
 1004 00f1 00       		.byte	0
 1005 00f2 12       		.uleb128 0x12
 1006 00f3 2E       		.uleb128 0x2e
 1007 00f4 01       		.byte	0x1
 1008 00f5 3F       		.uleb128 0x3f
 1009 00f6 19       		.uleb128 0x19
 1010 00f7 03       		.uleb128 0x3
 1011 00f8 0E       		.uleb128 0xe
 1012 00f9 3A       		.uleb128 0x3a
 1013 00fa 0B       		.uleb128 0xb
 1014 00fb 3B       		.uleb128 0x3b
 1015 00fc 0B       		.uleb128 0xb
ARM GAS  C:\Users\MANSRO~1\AppData\Local\Temp\ccsnke3N.s 			page 21


 1016 00fd 27       		.uleb128 0x27
 1017 00fe 19       		.uleb128 0x19
 1018 00ff 49       		.uleb128 0x49
 1019 0100 13       		.uleb128 0x13
 1020 0101 11       		.uleb128 0x11
 1021 0102 01       		.uleb128 0x1
 1022 0103 12       		.uleb128 0x12
 1023 0104 06       		.uleb128 0x6
 1024 0105 40       		.uleb128 0x40
 1025 0106 18       		.uleb128 0x18
 1026 0107 9642     		.uleb128 0x2116
 1027 0109 19       		.uleb128 0x19
 1028 010a 01       		.uleb128 0x1
 1029 010b 13       		.uleb128 0x13
 1030 010c 00       		.byte	0
 1031 010d 00       		.byte	0
 1032 010e 13       		.uleb128 0x13
 1033 010f 2E       		.uleb128 0x2e
 1034 0110 01       		.byte	0x1
 1035 0111 3F       		.uleb128 0x3f
 1036 0112 19       		.uleb128 0x19
 1037 0113 03       		.uleb128 0x3
 1038 0114 0E       		.uleb128 0xe
 1039 0115 3A       		.uleb128 0x3a
 1040 0116 0B       		.uleb128 0xb
 1041 0117 3B       		.uleb128 0x3b
 1042 0118 0B       		.uleb128 0xb
 1043 0119 27       		.uleb128 0x27
 1044 011a 19       		.uleb128 0x19
 1045 011b 49       		.uleb128 0x49
 1046 011c 13       		.uleb128 0x13
 1047 011d 11       		.uleb128 0x11
 1048 011e 01       		.uleb128 0x1
 1049 011f 12       		.uleb128 0x12
 1050 0120 06       		.uleb128 0x6
 1051 0121 40       		.uleb128 0x40
 1052 0122 18       		.uleb128 0x18
 1053 0123 9742     		.uleb128 0x2117
 1054 0125 19       		.uleb128 0x19
 1055 0126 01       		.uleb128 0x1
 1056 0127 13       		.uleb128 0x13
 1057 0128 00       		.byte	0
 1058 0129 00       		.byte	0
 1059 012a 14       		.uleb128 0x14
 1060 012b 34       		.uleb128 0x34
 1061 012c 00       		.byte	0
 1062 012d 03       		.uleb128 0x3
 1063 012e 0E       		.uleb128 0xe
 1064 012f 3A       		.uleb128 0x3a
 1065 0130 0B       		.uleb128 0xb
 1066 0131 3B       		.uleb128 0x3b
 1067 0132 0B       		.uleb128 0xb
 1068 0133 49       		.uleb128 0x49
 1069 0134 13       		.uleb128 0x13
 1070 0135 02       		.uleb128 0x2
 1071 0136 18       		.uleb128 0x18
 1072 0137 00       		.byte	0
ARM GAS  C:\Users\MANSRO~1\AppData\Local\Temp\ccsnke3N.s 			page 22


 1073 0138 00       		.byte	0
 1074 0139 15       		.uleb128 0x15
 1075 013a 35       		.uleb128 0x35
 1076 013b 00       		.byte	0
 1077 013c 49       		.uleb128 0x49
 1078 013d 13       		.uleb128 0x13
 1079 013e 00       		.byte	0
 1080 013f 00       		.byte	0
 1081 0140 16       		.uleb128 0x16
 1082 0141 34       		.uleb128 0x34
 1083 0142 00       		.byte	0
 1084 0143 03       		.uleb128 0x3
 1085 0144 0E       		.uleb128 0xe
 1086 0145 3A       		.uleb128 0x3a
 1087 0146 0B       		.uleb128 0xb
 1088 0147 3B       		.uleb128 0x3b
 1089 0148 0B       		.uleb128 0xb
 1090 0149 49       		.uleb128 0x49
 1091 014a 13       		.uleb128 0x13
 1092 014b 3F       		.uleb128 0x3f
 1093 014c 19       		.uleb128 0x19
 1094 014d 02       		.uleb128 0x2
 1095 014e 18       		.uleb128 0x18
 1096 014f 00       		.byte	0
 1097 0150 00       		.byte	0
 1098 0151 17       		.uleb128 0x17
 1099 0152 2E       		.uleb128 0x2e
 1100 0153 00       		.byte	0
 1101 0154 3F       		.uleb128 0x3f
 1102 0155 19       		.uleb128 0x19
 1103 0156 3C       		.uleb128 0x3c
 1104 0157 19       		.uleb128 0x19
 1105 0158 6E       		.uleb128 0x6e
 1106 0159 0E       		.uleb128 0xe
 1107 015a 03       		.uleb128 0x3
 1108 015b 0E       		.uleb128 0xe
 1109 015c 3A       		.uleb128 0x3a
 1110 015d 0B       		.uleb128 0xb
 1111 015e 3B       		.uleb128 0x3b
 1112 015f 0B       		.uleb128 0xb
 1113 0160 00       		.byte	0
 1114 0161 00       		.byte	0
 1115 0162 00       		.byte	0
 1116              		.section	.debug_loc,"",%progbits
 1117              	.Ldebug_loc0:
 1118              	.LLST0:
 1119 0000 06000000 		.4byte	.LVL10
 1120 0004 0A000000 		.4byte	.LVL11
 1121 0008 0100     		.2byte	0x1
 1122 000a 50       		.byte	0x50
 1123 000b 00000000 		.4byte	0
 1124 000f 00000000 		.4byte	0
 1125              	.LLST1:
 1126 0013 08000000 		.4byte	.LVL17
 1127 0017 21000000 		.4byte	.LVL18-1
 1128 001b 0100     		.2byte	0x1
 1129 001d 50       		.byte	0x50
ARM GAS  C:\Users\MANSRO~1\AppData\Local\Temp\ccsnke3N.s 			page 23


 1130 001e 00000000 		.4byte	0
 1131 0022 00000000 		.4byte	0
 1132              		.section	.debug_aranges,"",%progbits
 1133 0000 4C000000 		.4byte	0x4c
 1134 0004 0200     		.2byte	0x2
 1135 0006 00000000 		.4byte	.Ldebug_info0
 1136 000a 04       		.byte	0x4
 1137 000b 00       		.byte	0
 1138 000c 0000     		.2byte	0
 1139 000e 0000     		.2byte	0
 1140 0010 00000000 		.4byte	.LFB4
 1141 0014 34000000 		.4byte	.LFE4-.LFB4
 1142 0018 00000000 		.4byte	.LFB7
 1143 001c 30000000 		.4byte	.LFE7-.LFB7
 1144 0020 00000000 		.4byte	.LFB1
 1145 0024 34000000 		.4byte	.LFE1-.LFB1
 1146 0028 00000000 		.4byte	.LFB2
 1147 002c 2C000000 		.4byte	.LFE2-.LFB2
 1148 0030 00000000 		.4byte	.LFB3
 1149 0034 30000000 		.4byte	.LFE3-.LFB3
 1150 0038 00000000 		.4byte	.LFB5
 1151 003c 20000000 		.4byte	.LFE5-.LFB5
 1152 0040 00000000 		.4byte	.LFB6
 1153 0044 3C000000 		.4byte	.LFE6-.LFB6
 1154 0048 00000000 		.4byte	0
 1155 004c 00000000 		.4byte	0
 1156              		.section	.debug_ranges,"",%progbits
 1157              	.Ldebug_ranges0:
 1158 0000 00000000 		.4byte	.LFB4
 1159 0004 34000000 		.4byte	.LFE4
 1160 0008 00000000 		.4byte	.LFB7
 1161 000c 30000000 		.4byte	.LFE7
 1162 0010 00000000 		.4byte	.LFB1
 1163 0014 34000000 		.4byte	.LFE1
 1164 0018 00000000 		.4byte	.LFB2
 1165 001c 2C000000 		.4byte	.LFE2
 1166 0020 00000000 		.4byte	.LFB3
 1167 0024 30000000 		.4byte	.LFE3
 1168 0028 00000000 		.4byte	.LFB5
 1169 002c 20000000 		.4byte	.LFE5
 1170 0030 00000000 		.4byte	.LFB6
 1171 0034 3C000000 		.4byte	.LFE6
 1172 0038 00000000 		.4byte	0
 1173 003c 00000000 		.4byte	0
 1174              		.section	.debug_line,"",%progbits
 1175              	.Ldebug_line0:
 1176 0000 06020000 		.section	.debug_str,"MS",%progbits,1
 1176      02006E01 
 1176      00000201 
 1176      FB0E0D00 
 1176      01010101 
 1177              	.LASF43:
 1178 0000 54494D45 		.ascii	"TIMER_MS_Start\000"
 1178      525F4D53 
 1178      5F537461 
 1178      727400
 1179              	.LASF50:
ARM GAS  C:\Users\MANSRO~1\AppData\Local\Temp\ccsnke3N.s 			page 24


 1180 000f 5345434F 		.ascii	"SECOND\000"
 1180      4E4400
 1181              	.LASF32:
 1182 0016 67657454 		.ascii	"getTime\000"
 1182      696D6500 
 1183              	.LASF24:
 1184 001e 4C4F475F 		.ascii	"LOG_BLUETOOTH\000"
 1184      424C5545 
 1184      544F4F54 
 1184      4800
 1185              	.LASF42:
 1186 002c 54494D45 		.ascii	"TIMER_MS_WriteCounter\000"
 1186      525F4D53 
 1186      5F577269 
 1186      7465436F 
 1186      756E7465 
 1187              	.LASF37:
 1188 0042 735F726F 		.ascii	"s_roughMicros\000"
 1188      7567684D 
 1188      6963726F 
 1188      7300
 1189              	.LASF26:
 1190 0050 4C4F475F 		.ascii	"LOG_ERROR\000"
 1190      4552524F 
 1190      5200
 1191              	.LASF36:
 1192 005a 735F726F 		.ascii	"s_roughMillis100th\000"
 1192      7567684D 
 1192      696C6C69 
 1192      73313030 
 1192      746800
 1193              	.LASF14:
 1194 006d 75696E74 		.ascii	"uint64_t\000"
 1194      36345F74 
 1194      00
 1195              	.LASF44:
 1196 0076 6973725F 		.ascii	"isr_500ms_StartEx\000"
 1196      3530306D 
 1196      735F5374 
 1196      61727445 
 1196      7800
 1197              	.LASF15:
 1198 0088 666C6F61 		.ascii	"float\000"
 1198      7400
 1199              	.LASF38:
 1200 008e 54494D45 		.ascii	"TIMER_MS_ReadCounter\000"
 1200      525F4D53 
 1200      5F526561 
 1200      64436F75 
 1200      6E746572 
 1201              	.LASF0:
 1202 00a3 7369676E 		.ascii	"signed char\000"
 1202      65642063 
 1202      68617200 
 1203              	.LASF1:
 1204 00af 756E7369 		.ascii	"unsigned char\000"
 1204      676E6564 
ARM GAS  C:\Users\MANSRO~1\AppData\Local\Temp\ccsnke3N.s 			page 25


 1204      20636861 
 1204      7200
 1205              	.LASF46:
 1206 00bd 474E5520 		.ascii	"GNU C11 5.4.1 20160609 (release) [ARM/embedded-5-br"
 1206      43313120 
 1206      352E342E 
 1206      31203230 
 1206      31363036 
 1207 00f0 616E6368 		.ascii	"anch revision 237715] -mcpu=cortex-m3 -mthumb -g -O"
 1207      20726576 
 1207      6973696F 
 1207      6E203233 
 1207      37373135 
 1208 0123 67202D66 		.ascii	"g -ffunction-sections -ffat-lto-objects\000"
 1208      66756E63 
 1208      74696F6E 
 1208      2D736563 
 1208      74696F6E 
 1209              	.LASF7:
 1210 014b 6C6F6E67 		.ascii	"long unsigned int\000"
 1210      20756E73 
 1210      69676E65 
 1210      6420696E 
 1210      7400
 1211              	.LASF3:
 1212 015d 73686F72 		.ascii	"short unsigned int\000"
 1212      7420756E 
 1212      7369676E 
 1212      65642069 
 1212      6E7400
 1213              	.LASF30:
 1214 0170 6765744D 		.ascii	"getMillis\000"
 1214      696C6C69 
 1214      7300
 1215              	.LASF33:
 1216 017a 636F756E 		.ascii	"counter\000"
 1216      74657200 
 1217              	.LASF5:
 1218 0182 5F5F7569 		.ascii	"__uint16_t\000"
 1218      6E743136 
 1218      5F7400
 1219              	.LASF16:
 1220 018d 646F7562 		.ascii	"double\000"
 1220      6C6500
 1221              	.LASF41:
 1222 0194 54494D45 		.ascii	"TIMER_MS_WritePeriod\000"
 1222      525F4D53 
 1222      5F577269 
 1222      74655065 
 1222      72696F64 
 1223              	.LASF6:
 1224 01a9 5F5F7569 		.ascii	"__uint32_t\000"
 1224      6E743332 
 1224      5F7400
 1225              	.LASF47:
 1226 01b4 74696D65 		.ascii	"timer_time.c\000"
 1226      725F7469 
ARM GAS  C:\Users\MANSRO~1\AppData\Local\Temp\ccsnke3N.s 			page 26


 1226      6D652E63 
 1226      00
 1227              	.LASF11:
 1228 01c1 756E7369 		.ascii	"unsigned int\000"
 1228      676E6564 
 1228      20696E74 
 1228      00
 1229              	.LASF23:
 1230 01ce 4C4F475F 		.ascii	"LOG_INFO\000"
 1230      494E464F 
 1230      00
 1231              	.LASF10:
 1232 01d7 6C6F6E67 		.ascii	"long long unsigned int\000"
 1232      206C6F6E 
 1232      6720756E 
 1232      7369676E 
 1232      65642069 
 1233              	.LASF49:
 1234 01ee 6765744D 		.ascii	"getMillis100th\000"
 1234      696C6C69 
 1234      73313030 
 1234      746800
 1235              	.LASF27:
 1236 01fd 74696D65 		.ascii	"timer_tc_handler\000"
 1236      725F7463 
 1236      5F68616E 
 1236      646C6572 
 1236      00
 1237              	.LASF25:
 1238 020e 4C4F475F 		.ascii	"LOG_WARN\000"
 1238      5741524E 
 1238      00
 1239              	.LASF34:
 1240 0217 74696D65 		.ascii	"time\000"
 1240      00
 1241              	.LASF19:
 1242 021c 73697A65 		.ascii	"sizetype\000"
 1242      74797065 
 1242      00
 1243              	.LASF8:
 1244 0225 6C6F6E67 		.ascii	"long long int\000"
 1244      206C6F6E 
 1244      6720696E 
 1244      7400
 1245              	.LASF17:
 1246 0233 63686172 		.ascii	"char\000"
 1246      00
 1247              	.LASF31:
 1248 0238 6765744D 		.ascii	"getMicros\000"
 1248      6963726F 
 1248      7300
 1249              	.LASF12:
 1250 0242 75696E74 		.ascii	"uint16_t\000"
 1250      31365F74 
 1250      00
 1251              	.LASF2:
 1252 024b 73686F72 		.ascii	"short int\000"
ARM GAS  C:\Users\MANSRO~1\AppData\Local\Temp\ccsnke3N.s 			page 27


 1252      7420696E 
 1252      7400
 1253              	.LASF45:
 1254 0255 6C6F675F 		.ascii	"log_log\000"
 1254      6C6F6700 
 1255              	.LASF9:
 1256 025d 5F5F7569 		.ascii	"__uint64_t\000"
 1256      6E743634 
 1256      5F7400
 1257              	.LASF48:
 1258 0268 433A5C55 		.ascii	"C:\\Users\\Mans Robots\\Documents\\linefollower\\S1"
 1258      73657273 
 1258      5C4D616E 
 1258      7320526F 
 1258      626F7473 
 1259 0296 2E637964 		.ascii	".cydsn\000"
 1259      736E00
 1260              	.LASF39:
 1261 029d 54494D45 		.ascii	"TIMER_MS_ReadStatusRegister\000"
 1261      525F4D53 
 1261      5F526561 
 1261      64537461 
 1261      74757352 
 1262              	.LASF13:
 1263 02b9 75696E74 		.ascii	"uint32_t\000"
 1263      33325F74 
 1263      00
 1264              	.LASF4:
 1265 02c2 6C6F6E67 		.ascii	"long int\000"
 1265      20696E74 
 1265      00
 1266              	.LASF35:
 1267 02cb 6D696C6C 		.ascii	"millis\000"
 1267      697300
 1268              	.LASF18:
 1269 02d2 6C6F6E67 		.ascii	"long double\000"
 1269      20646F75 
 1269      626C6500 
 1270              	.LASF40:
 1271 02de 6973725F 		.ascii	"isr_500ms_ClearPending\000"
 1271      3530306D 
 1271      735F436C 
 1271      65617250 
 1271      656E6469 
 1272              	.LASF29:
 1273 02f5 74696D65 		.ascii	"time_Reset\000"
 1273      5F526573 
 1273      657400
 1274              	.LASF21:
 1275 0300 70736F63 		.ascii	"psoc_time_t\000"
 1275      5F74696D 
 1275      655F7400 
 1276              	.LASF20:
 1277 030c 6D735F31 		.ascii	"ms_100th\000"
 1277      30307468 
 1277      00
 1278              	.LASF22:
ARM GAS  C:\Users\MANSRO~1\AppData\Local\Temp\ccsnke3N.s 			page 28


 1279 0315 4C4F475F 		.ascii	"LOG_DEBUG\000"
 1279      44454255 
 1279      4700
 1280              	.LASF28:
 1281 031f 74696D65 		.ascii	"time_Start\000"
 1281      5F537461 
 1281      727400
 1282              		.ident	"GCC: (GNU Tools for ARM Embedded Processors) 5.4.1 20160609 (release) [ARM/embedded-5-bran
