ARM GAS  C:\Users\MANSRO~1\AppData\Local\Temp\cc9A7JMh.s 			page 1


   1              		.syntax unified
   2              		.cpu cortex-m3
   3              		.fpu softvfp
   4              		.eabi_attribute 20, 1
   5              		.eabi_attribute 21, 1
   6              		.eabi_attribute 23, 3
   7              		.eabi_attribute 24, 1
   8              		.eabi_attribute 25, 1
   9              		.eabi_attribute 26, 1
  10              		.eabi_attribute 30, 1
  11              		.eabi_attribute 34, 1
  12              		.eabi_attribute 18, 4
  13              		.thumb
  14              		.syntax unified
  15              		.file	"USBUART_cls.c"
  16              		.text
  17              	.Ltext0:
  18              		.cfi_sections	.debug_frame
  19              		.section	.text.USBUART_DispatchClassRqst,"ax",%progbits
  20              		.align	2
  21              		.global	USBUART_DispatchClassRqst
  22              		.thumb
  23              		.thumb_func
  24              		.type	USBUART_DispatchClassRqst, %function
  25              	USBUART_DispatchClassRqst:
  26              	.LFB0:
  27              		.file 1 "Generated_Source\\PSoC5\\USBUART_cls.c"
   1:Generated_Source\PSoC5/USBUART_cls.c **** /***************************************************************************//**
   2:Generated_Source\PSoC5/USBUART_cls.c **** * \file USBUART_cls.c
   3:Generated_Source\PSoC5/USBUART_cls.c **** * \version 3.20
   4:Generated_Source\PSoC5/USBUART_cls.c **** *
   5:Generated_Source\PSoC5/USBUART_cls.c **** * \brief
   6:Generated_Source\PSoC5/USBUART_cls.c **** *  This file contains the USB Class request handler.
   7:Generated_Source\PSoC5/USBUART_cls.c **** *
   8:Generated_Source\PSoC5/USBUART_cls.c **** ********************************************************************************
   9:Generated_Source\PSoC5/USBUART_cls.c **** * \copyright
  10:Generated_Source\PSoC5/USBUART_cls.c **** * Copyright 2008-2016, Cypress Semiconductor Corporation.  All rights reserved.
  11:Generated_Source\PSoC5/USBUART_cls.c **** * You may use this file only in accordance with the license, terms, conditions,
  12:Generated_Source\PSoC5/USBUART_cls.c **** * disclaimers, and limitations in the end user license agreement accompanying
  13:Generated_Source\PSoC5/USBUART_cls.c **** * the software package with which this file was provided.
  14:Generated_Source\PSoC5/USBUART_cls.c **** *******************************************************************************/
  15:Generated_Source\PSoC5/USBUART_cls.c **** 
  16:Generated_Source\PSoC5/USBUART_cls.c **** #include "USBUART_pvt.h"
  17:Generated_Source\PSoC5/USBUART_cls.c **** #include "cyapicallbacks.h"
  18:Generated_Source\PSoC5/USBUART_cls.c **** 
  19:Generated_Source\PSoC5/USBUART_cls.c **** #if(USBUART_EXTERN_CLS == USBUART_FALSE)
  20:Generated_Source\PSoC5/USBUART_cls.c **** 
  21:Generated_Source\PSoC5/USBUART_cls.c **** /***************************************
  22:Generated_Source\PSoC5/USBUART_cls.c **** * User Implemented Class Driver Declarations.
  23:Generated_Source\PSoC5/USBUART_cls.c **** ***************************************/
  24:Generated_Source\PSoC5/USBUART_cls.c **** /* `#START USER_DEFINED_CLASS_DECLARATIONS` Place your declaration here */
  25:Generated_Source\PSoC5/USBUART_cls.c **** 
  26:Generated_Source\PSoC5/USBUART_cls.c **** /* `#END` */
  27:Generated_Source\PSoC5/USBUART_cls.c **** 
  28:Generated_Source\PSoC5/USBUART_cls.c **** 
  29:Generated_Source\PSoC5/USBUART_cls.c **** /*******************************************************************************
  30:Generated_Source\PSoC5/USBUART_cls.c **** * Function Name: USBUART_DispatchClassRqst
ARM GAS  C:\Users\MANSRO~1\AppData\Local\Temp\cc9A7JMh.s 			page 2


  31:Generated_Source\PSoC5/USBUART_cls.c **** ****************************************************************************//**
  32:Generated_Source\PSoC5/USBUART_cls.c **** *  This routine dispatches class specific requests depend on interface class.
  33:Generated_Source\PSoC5/USBUART_cls.c **** *
  34:Generated_Source\PSoC5/USBUART_cls.c **** * \return
  35:Generated_Source\PSoC5/USBUART_cls.c **** *  requestHandled.
  36:Generated_Source\PSoC5/USBUART_cls.c **** *
  37:Generated_Source\PSoC5/USBUART_cls.c **** * \reentrant
  38:Generated_Source\PSoC5/USBUART_cls.c **** *  No.
  39:Generated_Source\PSoC5/USBUART_cls.c **** *
  40:Generated_Source\PSoC5/USBUART_cls.c **** *******************************************************************************/
  41:Generated_Source\PSoC5/USBUART_cls.c **** uint8 USBUART_DispatchClassRqst(void) 
  42:Generated_Source\PSoC5/USBUART_cls.c **** {
  28              		.loc 1 42 0
  29              		.cfi_startproc
  30              		@ args = 0, pretend = 0, frame = 0
  31              		@ frame_needed = 0, uses_anonymous_args = 0
  32 0000 08B5     		push	{r3, lr}
  33              		.cfi_def_cfa_offset 8
  34              		.cfi_offset 3, -8
  35              		.cfi_offset 14, -4
  36              	.LVL0:
  43:Generated_Source\PSoC5/USBUART_cls.c ****     uint8 interfaceNumber;
  44:Generated_Source\PSoC5/USBUART_cls.c ****     uint8 requestHandled = USBUART_FALSE;
  45:Generated_Source\PSoC5/USBUART_cls.c **** 
  46:Generated_Source\PSoC5/USBUART_cls.c ****     /* Get interface to which request is intended. */
  47:Generated_Source\PSoC5/USBUART_cls.c ****     switch (USBUART_bmRequestTypeReg & USBUART_RQST_RCPT_MASK)
  37              		.loc 1 47 0
  38 0002 144B     		ldr	r3, .L13
  39 0004 1B78     		ldrb	r3, [r3]	@ zero_extendqisi2
  40 0006 03F00303 		and	r3, r3, #3
  41 000a 012B     		cmp	r3, #1
  42 000c 02D0     		beq	.L3
  43 000e 022B     		cmp	r3, #2
  44 0010 04D0     		beq	.L4
  45 0012 0FE0     		b	.L10
  46              	.L3:
  48:Generated_Source\PSoC5/USBUART_cls.c ****     {
  49:Generated_Source\PSoC5/USBUART_cls.c ****         case USBUART_RQST_RCPT_IFC:
  50:Generated_Source\PSoC5/USBUART_cls.c ****             /* Class-specific request directed to interface: wIndexLoReg 
  51:Generated_Source\PSoC5/USBUART_cls.c ****             * contains interface number.
  52:Generated_Source\PSoC5/USBUART_cls.c ****             */
  53:Generated_Source\PSoC5/USBUART_cls.c ****             interfaceNumber = (uint8) USBUART_wIndexLoReg;
  47              		.loc 1 53 0
  48 0014 0F4B     		ldr	r3, .L13
  49 0016 1B79     		ldrb	r3, [r3, #4]	@ zero_extendqisi2
  50 0018 DBB2     		uxtb	r3, r3
  51              	.LVL1:
  54:Generated_Source\PSoC5/USBUART_cls.c ****             break;
  52              		.loc 1 54 0
  53 001a 0CE0     		b	.L2
  54              	.LVL2:
  55              	.L4:
  55:Generated_Source\PSoC5/USBUART_cls.c ****         
  56:Generated_Source\PSoC5/USBUART_cls.c ****         case USBUART_RQST_RCPT_EP:
  57:Generated_Source\PSoC5/USBUART_cls.c ****             /* Class-specific request directed to endpoint: wIndexLoReg contains 
  58:Generated_Source\PSoC5/USBUART_cls.c ****             * endpoint number. Find interface related to endpoint. 
  59:Generated_Source\PSoC5/USBUART_cls.c ****             */
ARM GAS  C:\Users\MANSRO~1\AppData\Local\Temp\cc9A7JMh.s 			page 3


  60:Generated_Source\PSoC5/USBUART_cls.c ****             interfaceNumber = USBUART_EP[USBUART_wIndexLoReg & USBUART_DIR_UNUSED].interface;
  56              		.loc 1 60 0
  57 001c 0D4B     		ldr	r3, .L13
  58 001e 1B79     		ldrb	r3, [r3, #4]	@ zero_extendqisi2
  59 0020 03F07F03 		and	r3, r3, #127
  60 0024 03EB4303 		add	r3, r3, r3, lsl #1
  61 0028 9A00     		lsls	r2, r3, #2
  62 002a 0B4B     		ldr	r3, .L13+4
  63 002c 1A44     		add	r2, r2, r3
  64 002e 937A     		ldrb	r3, [r2, #10]	@ zero_extendqisi2
  65 0030 DBB2     		uxtb	r3, r3
  66              	.LVL3:
  61:Generated_Source\PSoC5/USBUART_cls.c ****             break;
  67              		.loc 1 61 0
  68 0032 00E0     		b	.L2
  69              	.LVL4:
  70              	.L10:
  62:Generated_Source\PSoC5/USBUART_cls.c ****             
  63:Generated_Source\PSoC5/USBUART_cls.c ****         default:
  64:Generated_Source\PSoC5/USBUART_cls.c ****             /* Default interface is zero. */
  65:Generated_Source\PSoC5/USBUART_cls.c ****             interfaceNumber = 0u;
  71              		.loc 1 65 0
  72 0034 0023     		movs	r3, #0
  73              	.L2:
  74              	.LVL5:
  66:Generated_Source\PSoC5/USBUART_cls.c ****             break;
  67:Generated_Source\PSoC5/USBUART_cls.c ****     }
  68:Generated_Source\PSoC5/USBUART_cls.c ****     
  69:Generated_Source\PSoC5/USBUART_cls.c ****     /* Check that interface is within acceptable range */
  70:Generated_Source\PSoC5/USBUART_cls.c ****     if (interfaceNumber <= USBUART_MAX_INTERFACES_NUMBER)
  75              		.loc 1 70 0
  76 0036 022B     		cmp	r3, #2
  77 0038 07D8     		bhi	.L8
  71:Generated_Source\PSoC5/USBUART_cls.c ****     {
  72:Generated_Source\PSoC5/USBUART_cls.c ****     #if (defined(USBUART_ENABLE_HID_CLASS)   || \
  73:Generated_Source\PSoC5/USBUART_cls.c ****          defined(USBUART_ENABLE_AUDIO_CLASS) || \
  74:Generated_Source\PSoC5/USBUART_cls.c ****          defined(USBUART_ENABLE_CDC_CLASS)   || \
  75:Generated_Source\PSoC5/USBUART_cls.c ****          USBUART_ENABLE_MSC_CLASS)
  76:Generated_Source\PSoC5/USBUART_cls.c **** 
  77:Generated_Source\PSoC5/USBUART_cls.c ****         /* Handle class request depends on interface type. */
  78:Generated_Source\PSoC5/USBUART_cls.c ****         switch (USBUART_interfaceClass[interfaceNumber])
  78              		.loc 1 78 0
  79 003a 084A     		ldr	r2, .L13+8
  80 003c 1268     		ldr	r2, [r2]
  81 003e D35C     		ldrb	r3, [r2, r3]	@ zero_extendqisi2
  82              	.LVL6:
  83 0040 022B     		cmp	r3, #2
  84 0042 04D1     		bne	.L11
  79:Generated_Source\PSoC5/USBUART_cls.c ****         {
  80:Generated_Source\PSoC5/USBUART_cls.c ****         #if defined(USBUART_ENABLE_HID_CLASS)
  81:Generated_Source\PSoC5/USBUART_cls.c ****             case USBUART_CLASS_HID:
  82:Generated_Source\PSoC5/USBUART_cls.c ****                 requestHandled = USBUART_DispatchHIDClassRqst();
  83:Generated_Source\PSoC5/USBUART_cls.c ****                 break;
  84:Generated_Source\PSoC5/USBUART_cls.c ****         #endif /* (USBUART_ENABLE_HID_CLASS) */
  85:Generated_Source\PSoC5/USBUART_cls.c ****                 
  86:Generated_Source\PSoC5/USBUART_cls.c ****         #if defined(USBUART_ENABLE_AUDIO_CLASS)
  87:Generated_Source\PSoC5/USBUART_cls.c ****             case USBUART_CLASS_AUDIO:
ARM GAS  C:\Users\MANSRO~1\AppData\Local\Temp\cc9A7JMh.s 			page 4


  88:Generated_Source\PSoC5/USBUART_cls.c ****                 requestHandled = USBUART_DispatchAUDIOClassRqst();
  89:Generated_Source\PSoC5/USBUART_cls.c ****                 break;
  90:Generated_Source\PSoC5/USBUART_cls.c ****         #endif /* (USBUART_CLASS_AUDIO) */
  91:Generated_Source\PSoC5/USBUART_cls.c ****                 
  92:Generated_Source\PSoC5/USBUART_cls.c ****         #if defined(USBUART_ENABLE_CDC_CLASS)
  93:Generated_Source\PSoC5/USBUART_cls.c ****             case USBUART_CLASS_CDC:
  94:Generated_Source\PSoC5/USBUART_cls.c ****                 requestHandled = USBUART_DispatchCDCClassRqst();
  85              		.loc 1 94 0
  86 0044 FFF7FEFF 		bl	USBUART_DispatchCDCClassRqst
  87              	.LVL7:
  95:Generated_Source\PSoC5/USBUART_cls.c ****                 break;
  88              		.loc 1 95 0
  89 0048 08BD     		pop	{r3, pc}
  90              	.LVL8:
  91              	.L8:
  44:Generated_Source\PSoC5/USBUART_cls.c **** 
  92              		.loc 1 44 0
  93 004a 0020     		movs	r0, #0
  94 004c 08BD     		pop	{r3, pc}
  95              	.LVL9:
  96              	.L11:
  96:Generated_Source\PSoC5/USBUART_cls.c ****         #endif /* (USBUART_ENABLE_CDC_CLASS) */
  97:Generated_Source\PSoC5/USBUART_cls.c ****             
  98:Generated_Source\PSoC5/USBUART_cls.c ****         #if (USBUART_ENABLE_MSC_CLASS)
  99:Generated_Source\PSoC5/USBUART_cls.c ****             case USBUART_CLASS_MSD:
 100:Generated_Source\PSoC5/USBUART_cls.c ****             #if (USBUART_HANDLE_MSC_REQUESTS)
 101:Generated_Source\PSoC5/USBUART_cls.c ****                 /* MSC requests are handled by the component. */
 102:Generated_Source\PSoC5/USBUART_cls.c ****                 requestHandled = USBUART_DispatchMSCClassRqst();
 103:Generated_Source\PSoC5/USBUART_cls.c ****             #elif defined(USBUART_DISPATCH_MSC_CLASS_RQST_CALLBACK)
 104:Generated_Source\PSoC5/USBUART_cls.c ****                 /* MSC requests are handled by user defined callbcak. */
 105:Generated_Source\PSoC5/USBUART_cls.c ****                 requestHandled = USBUART_DispatchMSCClassRqst_Callback();
 106:Generated_Source\PSoC5/USBUART_cls.c ****             #else
 107:Generated_Source\PSoC5/USBUART_cls.c ****                 /* MSC requests are not handled. */
 108:Generated_Source\PSoC5/USBUART_cls.c ****                 requestHandled = USBUART_FALSE;
 109:Generated_Source\PSoC5/USBUART_cls.c ****             #endif /* (USBUART_HANDLE_MSC_REQUESTS) */
 110:Generated_Source\PSoC5/USBUART_cls.c ****                 break;
 111:Generated_Source\PSoC5/USBUART_cls.c ****         #endif /* (USBUART_ENABLE_MSC_CLASS) */
 112:Generated_Source\PSoC5/USBUART_cls.c ****             
 113:Generated_Source\PSoC5/USBUART_cls.c ****             default:
 114:Generated_Source\PSoC5/USBUART_cls.c ****                 /* Request is not handled: unknown class request type. */
 115:Generated_Source\PSoC5/USBUART_cls.c ****                 requestHandled = USBUART_FALSE;
  97              		.loc 1 115 0
  98 004e 0020     		movs	r0, #0
  99              	.LVL10:
 116:Generated_Source\PSoC5/USBUART_cls.c ****                 break;
 117:Generated_Source\PSoC5/USBUART_cls.c ****         }
 118:Generated_Source\PSoC5/USBUART_cls.c ****     #endif /* Class support is enabled */
 119:Generated_Source\PSoC5/USBUART_cls.c ****     }
 120:Generated_Source\PSoC5/USBUART_cls.c ****     
 121:Generated_Source\PSoC5/USBUART_cls.c ****     /* `#START USER_DEFINED_CLASS_CODE` Place your Class request here */
 122:Generated_Source\PSoC5/USBUART_cls.c **** 
 123:Generated_Source\PSoC5/USBUART_cls.c ****     /* `#END` */
 124:Generated_Source\PSoC5/USBUART_cls.c **** 
 125:Generated_Source\PSoC5/USBUART_cls.c **** #ifdef USBUART_DISPATCH_CLASS_RQST_CALLBACK
 126:Generated_Source\PSoC5/USBUART_cls.c ****     if (USBUART_FALSE == requestHandled)
 127:Generated_Source\PSoC5/USBUART_cls.c ****     {
 128:Generated_Source\PSoC5/USBUART_cls.c ****         requestHandled = USBUART_DispatchClassRqst_Callback(interfaceNumber);
ARM GAS  C:\Users\MANSRO~1\AppData\Local\Temp\cc9A7JMh.s 			page 5


 129:Generated_Source\PSoC5/USBUART_cls.c ****     }
 130:Generated_Source\PSoC5/USBUART_cls.c **** #endif /* (USBUART_DISPATCH_CLASS_RQST_CALLBACK) */
 131:Generated_Source\PSoC5/USBUART_cls.c **** 
 132:Generated_Source\PSoC5/USBUART_cls.c ****     return (requestHandled);
 133:Generated_Source\PSoC5/USBUART_cls.c **** }
 100              		.loc 1 133 0
 101 0050 08BD     		pop	{r3, pc}
 102              	.L14:
 103 0052 00BF     		.align	2
 104              	.L13:
 105 0054 00600040 		.word	1073766400
 106 0058 00000000 		.word	USBUART_EP
 107 005c 00000000 		.word	USBUART_interfaceClass
 108              		.cfi_endproc
 109              	.LFE0:
 110              		.size	USBUART_DispatchClassRqst, .-USBUART_DispatchClassRqst
 111              		.text
 112              	.Letext0:
 113              		.file 2 "Generated_Source\\PSoC5\\cytypes.h"
 114              		.file 3 "Generated_Source\\PSoC5\\USBUART.h"
 115              		.file 4 "Generated_Source\\PSoC5\\USBUART_pvt.h"
 116              		.section	.debug_info,"",%progbits
 117              	.Ldebug_info0:
 118 0000 DA010000 		.4byte	0x1da
 119 0004 0400     		.2byte	0x4
 120 0006 00000000 		.4byte	.Ldebug_abbrev0
 121 000a 04       		.byte	0x4
 122 000b 01       		.uleb128 0x1
 123 000c 57000000 		.4byte	.LASF32
 124 0010 0C       		.byte	0xc
 125 0011 F0010000 		.4byte	.LASF33
 126 0015 1F020000 		.4byte	.LASF34
 127 0019 00000000 		.4byte	.Ldebug_ranges0+0
 128 001d 00000000 		.4byte	0
 129 0021 00000000 		.4byte	.Ldebug_line0
 130 0025 02       		.uleb128 0x2
 131 0026 01       		.byte	0x1
 132 0027 06       		.byte	0x6
 133 0028 8A020000 		.4byte	.LASF0
 134 002c 02       		.uleb128 0x2
 135 002d 01       		.byte	0x1
 136 002e 08       		.byte	0x8
 137 002f 0C010000 		.4byte	.LASF1
 138 0033 02       		.uleb128 0x2
 139 0034 02       		.byte	0x2
 140 0035 05       		.byte	0x5
 141 0036 15020000 		.4byte	.LASF2
 142 003a 02       		.uleb128 0x2
 143 003b 02       		.byte	0x2
 144 003c 07       		.byte	0x7
 145 003d 00000000 		.4byte	.LASF3
 146 0041 02       		.uleb128 0x2
 147 0042 04       		.byte	0x4
 148 0043 05       		.byte	0x5
 149 0044 5E020000 		.4byte	.LASF4
 150 0048 02       		.uleb128 0x2
 151 0049 04       		.byte	0x4
ARM GAS  C:\Users\MANSRO~1\AppData\Local\Temp\cc9A7JMh.s 			page 6


 152 004a 07       		.byte	0x7
 153 004b E5000000 		.4byte	.LASF5
 154 004f 02       		.uleb128 0x2
 155 0050 08       		.byte	0x8
 156 0051 05       		.byte	0x5
 157 0052 D2010000 		.4byte	.LASF6
 158 0056 02       		.uleb128 0x2
 159 0057 08       		.byte	0x8
 160 0058 07       		.byte	0x7
 161 0059 6F010000 		.4byte	.LASF7
 162 005d 03       		.uleb128 0x3
 163 005e 04       		.byte	0x4
 164 005f 05       		.byte	0x5
 165 0060 696E7400 		.ascii	"int\000"
 166 0064 02       		.uleb128 0x2
 167 0065 04       		.byte	0x4
 168 0066 07       		.byte	0x7
 169 0067 62010000 		.4byte	.LASF8
 170 006b 04       		.uleb128 0x4
 171 006c 46000000 		.4byte	.LASF9
 172 0070 02       		.byte	0x2
 173 0071 E401     		.2byte	0x1e4
 174 0073 2C000000 		.4byte	0x2c
 175 0077 04       		.uleb128 0x4
 176 0078 33010000 		.4byte	.LASF10
 177 007c 02       		.byte	0x2
 178 007d E501     		.2byte	0x1e5
 179 007f 3A000000 		.4byte	0x3a
 180 0083 02       		.uleb128 0x2
 181 0084 04       		.byte	0x4
 182 0085 04       		.byte	0x4
 183 0086 40000000 		.4byte	.LASF11
 184 008a 02       		.uleb128 0x2
 185 008b 08       		.byte	0x8
 186 008c 04       		.byte	0x4
 187 008d 1A010000 		.4byte	.LASF12
 188 0091 02       		.uleb128 0x2
 189 0092 01       		.byte	0x1
 190 0093 08       		.byte	0x8
 191 0094 E0010000 		.4byte	.LASF13
 192 0098 02       		.uleb128 0x2
 193 0099 08       		.byte	0x8
 194 009a 04       		.byte	0x4
 195 009b 7E020000 		.4byte	.LASF14
 196 009f 02       		.uleb128 0x2
 197 00a0 04       		.byte	0x4
 198 00a1 07       		.byte	0x7
 199 00a2 C2010000 		.4byte	.LASF15
 200 00a6 05       		.uleb128 0x5
 201 00a7 0C       		.byte	0xc
 202 00a8 03       		.byte	0x3
 203 00a9 8B       		.byte	0x8b
 204 00aa 1B010000 		.4byte	0x11b
 205 00ae 06       		.uleb128 0x6
 206 00af 21010000 		.4byte	.LASF16
 207 00b3 03       		.byte	0x3
 208 00b4 8D       		.byte	0x8d
ARM GAS  C:\Users\MANSRO~1\AppData\Local\Temp\cc9A7JMh.s 			page 7


 209 00b5 6B000000 		.4byte	0x6b
 210 00b9 00       		.byte	0
 211 00ba 06       		.uleb128 0x6
 212 00bb 3A010000 		.4byte	.LASF17
 213 00bf 03       		.byte	0x3
 214 00c0 8E       		.byte	0x8e
 215 00c1 6B000000 		.4byte	0x6b
 216 00c5 01       		.byte	0x1
 217 00c6 06       		.uleb128 0x6
 218 00c7 86010000 		.4byte	.LASF18
 219 00cb 03       		.byte	0x3
 220 00cc 8F       		.byte	0x8f
 221 00cd 6B000000 		.4byte	0x6b
 222 00d1 02       		.byte	0x2
 223 00d2 06       		.uleb128 0x6
 224 00d3 96020000 		.4byte	.LASF19
 225 00d7 03       		.byte	0x3
 226 00d8 90       		.byte	0x90
 227 00d9 6B000000 		.4byte	0x6b
 228 00dd 03       		.byte	0x3
 229 00de 06       		.uleb128 0x6
 230 00df F7000000 		.4byte	.LASF20
 231 00e3 03       		.byte	0x3
 232 00e4 91       		.byte	0x91
 233 00e5 6B000000 		.4byte	0x6b
 234 00e9 04       		.byte	0x4
 235 00ea 06       		.uleb128 0x6
 236 00eb CB010000 		.4byte	.LASF21
 237 00ef 03       		.byte	0x3
 238 00f0 92       		.byte	0x92
 239 00f1 6B000000 		.4byte	0x6b
 240 00f5 05       		.byte	0x5
 241 00f6 06       		.uleb128 0x6
 242 00f7 28010000 		.4byte	.LASF22
 243 00fb 03       		.byte	0x3
 244 00fc 93       		.byte	0x93
 245 00fd 77000000 		.4byte	0x77
 246 0101 06       		.byte	0x6
 247 0102 06       		.uleb128 0x6
 248 0103 E5010000 		.4byte	.LASF23
 249 0107 03       		.byte	0x3
 250 0108 94       		.byte	0x94
 251 0109 77000000 		.4byte	0x77
 252 010d 08       		.byte	0x8
 253 010e 06       		.uleb128 0x6
 254 010f 54020000 		.4byte	.LASF24
 255 0113 03       		.byte	0x3
 256 0114 95       		.byte	0x95
 257 0115 6B000000 		.4byte	0x6b
 258 0119 0A       		.byte	0xa
 259 011a 00       		.byte	0
 260 011b 07       		.uleb128 0x7
 261 011c 67020000 		.4byte	.LASF25
 262 0120 03       		.byte	0x3
 263 0121 96       		.byte	0x96
 264 0122 A6000000 		.4byte	0xa6
 265 0126 05       		.uleb128 0x5
ARM GAS  C:\Users\MANSRO~1\AppData\Local\Temp\cc9A7JMh.s 			page 8


 266 0127 08       		.byte	0x8
 267 0128 03       		.byte	0x3
 268 0129 C3       		.byte	0xc3
 269 012a 3B010000 		.4byte	0x13b
 270 012e 06       		.uleb128 0x6
 271 012f 2A000000 		.4byte	.LASF26
 272 0133 03       		.byte	0x3
 273 0134 C5       		.byte	0xc5
 274 0135 3B010000 		.4byte	0x13b
 275 0139 00       		.byte	0
 276 013a 00       		.byte	0
 277 013b 08       		.uleb128 0x8
 278 013c 6B000000 		.4byte	0x6b
 279 0140 4B010000 		.4byte	0x14b
 280 0144 09       		.uleb128 0x9
 281 0145 9F000000 		.4byte	0x9f
 282 0149 07       		.byte	0x7
 283 014a 00       		.byte	0
 284 014b 07       		.uleb128 0x7
 285 014c AA010000 		.4byte	.LASF27
 286 0150 03       		.byte	0x3
 287 0151 C6       		.byte	0xc6
 288 0152 26010000 		.4byte	0x126
 289 0156 0A       		.uleb128 0xa
 290 0157 90010000 		.4byte	.LASF35
 291 015b 01       		.byte	0x1
 292 015c 29       		.byte	0x29
 293 015d 6B000000 		.4byte	0x6b
 294 0161 00000000 		.4byte	.LFB0
 295 0165 60000000 		.4byte	.LFE0-.LFB0
 296 0169 01       		.uleb128 0x1
 297 016a 9C       		.byte	0x9c
 298 016b 97010000 		.4byte	0x197
 299 016f 0B       		.uleb128 0xb
 300 0170 FC000000 		.4byte	.LASF28
 301 0174 01       		.byte	0x1
 302 0175 2B       		.byte	0x2b
 303 0176 6B000000 		.4byte	0x6b
 304 017a 00000000 		.4byte	.LLST0
 305 017e 0B       		.uleb128 0xb
 306 017f 31000000 		.4byte	.LASF29
 307 0183 01       		.byte	0x1
 308 0184 2C       		.byte	0x2c
 309 0185 6B000000 		.4byte	0x6b
 310 0189 34000000 		.4byte	.LLST1
 311 018d 0C       		.uleb128 0xc
 312 018e 48000000 		.4byte	.LVL7
 313 0192 D2010000 		.4byte	0x1d2
 314 0196 00       		.byte	0
 315 0197 0D       		.uleb128 0xd
 316 0198 13000000 		.4byte	.LASF30
 317 019c 04       		.byte	0x4
 318 019d 76       		.byte	0x76
 319 019e A2010000 		.4byte	0x1a2
 320 01a2 0E       		.uleb128 0xe
 321 01a3 04       		.byte	0x4
 322 01a4 A8010000 		.4byte	0x1a8
ARM GAS  C:\Users\MANSRO~1\AppData\Local\Temp\cc9A7JMh.s 			page 9


 323 01a8 0F       		.uleb128 0xf
 324 01a9 6B000000 		.4byte	0x6b
 325 01ad 08       		.uleb128 0x8
 326 01ae BD010000 		.4byte	0x1bd
 327 01b2 BD010000 		.4byte	0x1bd
 328 01b6 09       		.uleb128 0x9
 329 01b7 9F000000 		.4byte	0x9f
 330 01bb 08       		.byte	0x8
 331 01bc 00       		.byte	0
 332 01bd 10       		.uleb128 0x10
 333 01be 1B010000 		.4byte	0x11b
 334 01c2 0D       		.uleb128 0xd
 335 01c3 4C000000 		.4byte	.LASF31
 336 01c7 04       		.byte	0x4
 337 01c8 78       		.byte	0x78
 338 01c9 CD010000 		.4byte	0x1cd
 339 01cd 10       		.uleb128 0x10
 340 01ce AD010000 		.4byte	0x1ad
 341 01d2 11       		.uleb128 0x11
 342 01d3 45010000 		.4byte	.LASF36
 343 01d7 45010000 		.4byte	.LASF36
 344 01db 04       		.byte	0x4
 345 01dc DE       		.byte	0xde
 346 01dd 00       		.byte	0
 347              		.section	.debug_abbrev,"",%progbits
 348              	.Ldebug_abbrev0:
 349 0000 01       		.uleb128 0x1
 350 0001 11       		.uleb128 0x11
 351 0002 01       		.byte	0x1
 352 0003 25       		.uleb128 0x25
 353 0004 0E       		.uleb128 0xe
 354 0005 13       		.uleb128 0x13
 355 0006 0B       		.uleb128 0xb
 356 0007 03       		.uleb128 0x3
 357 0008 0E       		.uleb128 0xe
 358 0009 1B       		.uleb128 0x1b
 359 000a 0E       		.uleb128 0xe
 360 000b 55       		.uleb128 0x55
 361 000c 17       		.uleb128 0x17
 362 000d 11       		.uleb128 0x11
 363 000e 01       		.uleb128 0x1
 364 000f 10       		.uleb128 0x10
 365 0010 17       		.uleb128 0x17
 366 0011 00       		.byte	0
 367 0012 00       		.byte	0
 368 0013 02       		.uleb128 0x2
 369 0014 24       		.uleb128 0x24
 370 0015 00       		.byte	0
 371 0016 0B       		.uleb128 0xb
 372 0017 0B       		.uleb128 0xb
 373 0018 3E       		.uleb128 0x3e
 374 0019 0B       		.uleb128 0xb
 375 001a 03       		.uleb128 0x3
 376 001b 0E       		.uleb128 0xe
 377 001c 00       		.byte	0
 378 001d 00       		.byte	0
 379 001e 03       		.uleb128 0x3
ARM GAS  C:\Users\MANSRO~1\AppData\Local\Temp\cc9A7JMh.s 			page 10


 380 001f 24       		.uleb128 0x24
 381 0020 00       		.byte	0
 382 0021 0B       		.uleb128 0xb
 383 0022 0B       		.uleb128 0xb
 384 0023 3E       		.uleb128 0x3e
 385 0024 0B       		.uleb128 0xb
 386 0025 03       		.uleb128 0x3
 387 0026 08       		.uleb128 0x8
 388 0027 00       		.byte	0
 389 0028 00       		.byte	0
 390 0029 04       		.uleb128 0x4
 391 002a 16       		.uleb128 0x16
 392 002b 00       		.byte	0
 393 002c 03       		.uleb128 0x3
 394 002d 0E       		.uleb128 0xe
 395 002e 3A       		.uleb128 0x3a
 396 002f 0B       		.uleb128 0xb
 397 0030 3B       		.uleb128 0x3b
 398 0031 05       		.uleb128 0x5
 399 0032 49       		.uleb128 0x49
 400 0033 13       		.uleb128 0x13
 401 0034 00       		.byte	0
 402 0035 00       		.byte	0
 403 0036 05       		.uleb128 0x5
 404 0037 13       		.uleb128 0x13
 405 0038 01       		.byte	0x1
 406 0039 0B       		.uleb128 0xb
 407 003a 0B       		.uleb128 0xb
 408 003b 3A       		.uleb128 0x3a
 409 003c 0B       		.uleb128 0xb
 410 003d 3B       		.uleb128 0x3b
 411 003e 0B       		.uleb128 0xb
 412 003f 01       		.uleb128 0x1
 413 0040 13       		.uleb128 0x13
 414 0041 00       		.byte	0
 415 0042 00       		.byte	0
 416 0043 06       		.uleb128 0x6
 417 0044 0D       		.uleb128 0xd
 418 0045 00       		.byte	0
 419 0046 03       		.uleb128 0x3
 420 0047 0E       		.uleb128 0xe
 421 0048 3A       		.uleb128 0x3a
 422 0049 0B       		.uleb128 0xb
 423 004a 3B       		.uleb128 0x3b
 424 004b 0B       		.uleb128 0xb
 425 004c 49       		.uleb128 0x49
 426 004d 13       		.uleb128 0x13
 427 004e 38       		.uleb128 0x38
 428 004f 0B       		.uleb128 0xb
 429 0050 00       		.byte	0
 430 0051 00       		.byte	0
 431 0052 07       		.uleb128 0x7
 432 0053 16       		.uleb128 0x16
 433 0054 00       		.byte	0
 434 0055 03       		.uleb128 0x3
 435 0056 0E       		.uleb128 0xe
 436 0057 3A       		.uleb128 0x3a
ARM GAS  C:\Users\MANSRO~1\AppData\Local\Temp\cc9A7JMh.s 			page 11


 437 0058 0B       		.uleb128 0xb
 438 0059 3B       		.uleb128 0x3b
 439 005a 0B       		.uleb128 0xb
 440 005b 49       		.uleb128 0x49
 441 005c 13       		.uleb128 0x13
 442 005d 00       		.byte	0
 443 005e 00       		.byte	0
 444 005f 08       		.uleb128 0x8
 445 0060 01       		.uleb128 0x1
 446 0061 01       		.byte	0x1
 447 0062 49       		.uleb128 0x49
 448 0063 13       		.uleb128 0x13
 449 0064 01       		.uleb128 0x1
 450 0065 13       		.uleb128 0x13
 451 0066 00       		.byte	0
 452 0067 00       		.byte	0
 453 0068 09       		.uleb128 0x9
 454 0069 21       		.uleb128 0x21
 455 006a 00       		.byte	0
 456 006b 49       		.uleb128 0x49
 457 006c 13       		.uleb128 0x13
 458 006d 2F       		.uleb128 0x2f
 459 006e 0B       		.uleb128 0xb
 460 006f 00       		.byte	0
 461 0070 00       		.byte	0
 462 0071 0A       		.uleb128 0xa
 463 0072 2E       		.uleb128 0x2e
 464 0073 01       		.byte	0x1
 465 0074 3F       		.uleb128 0x3f
 466 0075 19       		.uleb128 0x19
 467 0076 03       		.uleb128 0x3
 468 0077 0E       		.uleb128 0xe
 469 0078 3A       		.uleb128 0x3a
 470 0079 0B       		.uleb128 0xb
 471 007a 3B       		.uleb128 0x3b
 472 007b 0B       		.uleb128 0xb
 473 007c 27       		.uleb128 0x27
 474 007d 19       		.uleb128 0x19
 475 007e 49       		.uleb128 0x49
 476 007f 13       		.uleb128 0x13
 477 0080 11       		.uleb128 0x11
 478 0081 01       		.uleb128 0x1
 479 0082 12       		.uleb128 0x12
 480 0083 06       		.uleb128 0x6
 481 0084 40       		.uleb128 0x40
 482 0085 18       		.uleb128 0x18
 483 0086 9742     		.uleb128 0x2117
 484 0088 19       		.uleb128 0x19
 485 0089 01       		.uleb128 0x1
 486 008a 13       		.uleb128 0x13
 487 008b 00       		.byte	0
 488 008c 00       		.byte	0
 489 008d 0B       		.uleb128 0xb
 490 008e 34       		.uleb128 0x34
 491 008f 00       		.byte	0
 492 0090 03       		.uleb128 0x3
 493 0091 0E       		.uleb128 0xe
ARM GAS  C:\Users\MANSRO~1\AppData\Local\Temp\cc9A7JMh.s 			page 12


 494 0092 3A       		.uleb128 0x3a
 495 0093 0B       		.uleb128 0xb
 496 0094 3B       		.uleb128 0x3b
 497 0095 0B       		.uleb128 0xb
 498 0096 49       		.uleb128 0x49
 499 0097 13       		.uleb128 0x13
 500 0098 02       		.uleb128 0x2
 501 0099 17       		.uleb128 0x17
 502 009a 00       		.byte	0
 503 009b 00       		.byte	0
 504 009c 0C       		.uleb128 0xc
 505 009d 898201   		.uleb128 0x4109
 506 00a0 00       		.byte	0
 507 00a1 11       		.uleb128 0x11
 508 00a2 01       		.uleb128 0x1
 509 00a3 31       		.uleb128 0x31
 510 00a4 13       		.uleb128 0x13
 511 00a5 00       		.byte	0
 512 00a6 00       		.byte	0
 513 00a7 0D       		.uleb128 0xd
 514 00a8 34       		.uleb128 0x34
 515 00a9 00       		.byte	0
 516 00aa 03       		.uleb128 0x3
 517 00ab 0E       		.uleb128 0xe
 518 00ac 3A       		.uleb128 0x3a
 519 00ad 0B       		.uleb128 0xb
 520 00ae 3B       		.uleb128 0x3b
 521 00af 0B       		.uleb128 0xb
 522 00b0 49       		.uleb128 0x49
 523 00b1 13       		.uleb128 0x13
 524 00b2 3F       		.uleb128 0x3f
 525 00b3 19       		.uleb128 0x19
 526 00b4 3C       		.uleb128 0x3c
 527 00b5 19       		.uleb128 0x19
 528 00b6 00       		.byte	0
 529 00b7 00       		.byte	0
 530 00b8 0E       		.uleb128 0xe
 531 00b9 0F       		.uleb128 0xf
 532 00ba 00       		.byte	0
 533 00bb 0B       		.uleb128 0xb
 534 00bc 0B       		.uleb128 0xb
 535 00bd 49       		.uleb128 0x49
 536 00be 13       		.uleb128 0x13
 537 00bf 00       		.byte	0
 538 00c0 00       		.byte	0
 539 00c1 0F       		.uleb128 0xf
 540 00c2 26       		.uleb128 0x26
 541 00c3 00       		.byte	0
 542 00c4 49       		.uleb128 0x49
 543 00c5 13       		.uleb128 0x13
 544 00c6 00       		.byte	0
 545 00c7 00       		.byte	0
 546 00c8 10       		.uleb128 0x10
 547 00c9 35       		.uleb128 0x35
 548 00ca 00       		.byte	0
 549 00cb 49       		.uleb128 0x49
 550 00cc 13       		.uleb128 0x13
ARM GAS  C:\Users\MANSRO~1\AppData\Local\Temp\cc9A7JMh.s 			page 13


 551 00cd 00       		.byte	0
 552 00ce 00       		.byte	0
 553 00cf 11       		.uleb128 0x11
 554 00d0 2E       		.uleb128 0x2e
 555 00d1 00       		.byte	0
 556 00d2 3F       		.uleb128 0x3f
 557 00d3 19       		.uleb128 0x19
 558 00d4 3C       		.uleb128 0x3c
 559 00d5 19       		.uleb128 0x19
 560 00d6 6E       		.uleb128 0x6e
 561 00d7 0E       		.uleb128 0xe
 562 00d8 03       		.uleb128 0x3
 563 00d9 0E       		.uleb128 0xe
 564 00da 3A       		.uleb128 0x3a
 565 00db 0B       		.uleb128 0xb
 566 00dc 3B       		.uleb128 0x3b
 567 00dd 0B       		.uleb128 0xb
 568 00de 00       		.byte	0
 569 00df 00       		.byte	0
 570 00e0 00       		.byte	0
 571              		.section	.debug_loc,"",%progbits
 572              	.Ldebug_loc0:
 573              	.LLST0:
 574 0000 1A000000 		.4byte	.LVL1
 575 0004 1C000000 		.4byte	.LVL2
 576 0008 0100     		.2byte	0x1
 577 000a 53       		.byte	0x53
 578 000b 32000000 		.4byte	.LVL3
 579 000f 34000000 		.4byte	.LVL4
 580 0013 0100     		.2byte	0x1
 581 0015 53       		.byte	0x53
 582 0016 36000000 		.4byte	.LVL5
 583 001a 40000000 		.4byte	.LVL6
 584 001e 0100     		.2byte	0x1
 585 0020 53       		.byte	0x53
 586 0021 4A000000 		.4byte	.LVL8
 587 0025 4E000000 		.4byte	.LVL9
 588 0029 0100     		.2byte	0x1
 589 002b 53       		.byte	0x53
 590 002c 00000000 		.4byte	0
 591 0030 00000000 		.4byte	0
 592              	.LLST1:
 593 0034 02000000 		.4byte	.LVL0
 594 0038 48000000 		.4byte	.LVL7
 595 003c 0200     		.2byte	0x2
 596 003e 30       		.byte	0x30
 597 003f 9F       		.byte	0x9f
 598 0040 48000000 		.4byte	.LVL7
 599 0044 4A000000 		.4byte	.LVL8
 600 0048 0100     		.2byte	0x1
 601 004a 50       		.byte	0x50
 602 004b 4A000000 		.4byte	.LVL8
 603 004f 50000000 		.4byte	.LVL10
 604 0053 0200     		.2byte	0x2
 605 0055 30       		.byte	0x30
 606 0056 9F       		.byte	0x9f
 607 0057 50000000 		.4byte	.LVL10
ARM GAS  C:\Users\MANSRO~1\AppData\Local\Temp\cc9A7JMh.s 			page 14


 608 005b 60000000 		.4byte	.LFE0
 609 005f 0100     		.2byte	0x1
 610 0061 50       		.byte	0x50
 611 0062 00000000 		.4byte	0
 612 0066 00000000 		.4byte	0
 613              		.section	.debug_aranges,"",%progbits
 614 0000 1C000000 		.4byte	0x1c
 615 0004 0200     		.2byte	0x2
 616 0006 00000000 		.4byte	.Ldebug_info0
 617 000a 04       		.byte	0x4
 618 000b 00       		.byte	0
 619 000c 0000     		.2byte	0
 620 000e 0000     		.2byte	0
 621 0010 00000000 		.4byte	.LFB0
 622 0014 60000000 		.4byte	.LFE0-.LFB0
 623 0018 00000000 		.4byte	0
 624 001c 00000000 		.4byte	0
 625              		.section	.debug_ranges,"",%progbits
 626              	.Ldebug_ranges0:
 627 0000 00000000 		.4byte	.LFB0
 628 0004 60000000 		.4byte	.LFE0
 629 0008 00000000 		.4byte	0
 630 000c 00000000 		.4byte	0
 631              		.section	.debug_line,"",%progbits
 632              	.Ldebug_line0:
 633 0000 91000000 		.section	.debug_str,"MS",%progbits,1
 633      02006600 
 633      00000201 
 633      FB0E0D00 
 633      01010101 
 634              	.LASF3:
 635 0000 73686F72 		.ascii	"short unsigned int\000"
 635      7420756E 
 635      7369676E 
 635      65642069 
 635      6E7400
 636              	.LASF30:
 637 0013 55534255 		.ascii	"USBUART_interfaceClass\000"
 637      4152545F 
 637      696E7465 
 637      72666163 
 637      65436C61 
 638              	.LASF26:
 639 002a 65704461 		.ascii	"epData\000"
 639      746100
 640              	.LASF29:
 641 0031 72657175 		.ascii	"requestHandled\000"
 641      65737448 
 641      616E646C 
 641      656400
 642              	.LASF11:
 643 0040 666C6F61 		.ascii	"float\000"
 643      7400
 644              	.LASF9:
 645 0046 75696E74 		.ascii	"uint8\000"
 645      3800
 646              	.LASF31:
ARM GAS  C:\Users\MANSRO~1\AppData\Local\Temp\cc9A7JMh.s 			page 15


 647 004c 55534255 		.ascii	"USBUART_EP\000"
 647      4152545F 
 647      455000
 648              	.LASF32:
 649 0057 474E5520 		.ascii	"GNU C11 5.4.1 20160609 (release) [ARM/embedded-5-br"
 649      43313120 
 649      352E342E 
 649      31203230 
 649      31363036 
 650 008a 616E6368 		.ascii	"anch revision 237715] -mcpu=cortex-m3 -mthumb -g -O"
 650      20726576 
 650      6973696F 
 650      6E203233 
 650      37373135 
 651 00bd 67202D66 		.ascii	"g -ffunction-sections -ffat-lto-objects\000"
 651      66756E63 
 651      74696F6E 
 651      2D736563 
 651      74696F6E 
 652              	.LASF5:
 653 00e5 6C6F6E67 		.ascii	"long unsigned int\000"
 653      20756E73 
 653      69676E65 
 653      6420696E 
 653      7400
 654              	.LASF20:
 655 00f7 61646472 		.ascii	"addr\000"
 655      00
 656              	.LASF28:
 657 00fc 696E7465 		.ascii	"interfaceNumber\000"
 657      72666163 
 657      654E756D 
 657      62657200 
 658              	.LASF1:
 659 010c 756E7369 		.ascii	"unsigned char\000"
 659      676E6564 
 659      20636861 
 659      7200
 660              	.LASF12:
 661 011a 646F7562 		.ascii	"double\000"
 661      6C6500
 662              	.LASF16:
 663 0121 61747472 		.ascii	"attrib\000"
 663      696200
 664              	.LASF22:
 665 0128 62756666 		.ascii	"buffOffset\000"
 665      4F666673 
 665      657400
 666              	.LASF10:
 667 0133 75696E74 		.ascii	"uint16\000"
 667      313600
 668              	.LASF17:
 669 013a 61706945 		.ascii	"apiEpState\000"
 669      70537461 
 669      746500
 670              	.LASF36:
 671 0145 55534255 		.ascii	"USBUART_DispatchCDCClassRqst\000"
ARM GAS  C:\Users\MANSRO~1\AppData\Local\Temp\cc9A7JMh.s 			page 16


 671      4152545F 
 671      44697370 
 671      61746368 
 671      43444343 
 672              	.LASF8:
 673 0162 756E7369 		.ascii	"unsigned int\000"
 673      676E6564 
 673      20696E74 
 673      00
 674              	.LASF7:
 675 016f 6C6F6E67 		.ascii	"long long unsigned int\000"
 675      206C6F6E 
 675      6720756E 
 675      7369676E 
 675      65642069 
 676              	.LASF18:
 677 0186 68774570 		.ascii	"hwEpState\000"
 677      53746174 
 677      6500
 678              	.LASF35:
 679 0190 55534255 		.ascii	"USBUART_DispatchClassRqst\000"
 679      4152545F 
 679      44697370 
 679      61746368 
 679      436C6173 
 680              	.LASF27:
 681 01aa 55534255 		.ascii	"USBUART_ep0_data_struct\000"
 681      4152545F 
 681      6570305F 
 681      64617461 
 681      5F737472 
 682              	.LASF15:
 683 01c2 73697A65 		.ascii	"sizetype\000"
 683      74797065 
 683      00
 684              	.LASF21:
 685 01cb 65704D6F 		.ascii	"epMode\000"
 685      646500
 686              	.LASF6:
 687 01d2 6C6F6E67 		.ascii	"long long int\000"
 687      206C6F6E 
 687      6720696E 
 687      7400
 688              	.LASF13:
 689 01e0 63686172 		.ascii	"char\000"
 689      00
 690              	.LASF23:
 691 01e5 62756666 		.ascii	"bufferSize\000"
 691      65725369 
 691      7A6500
 692              	.LASF33:
 693 01f0 47656E65 		.ascii	"Generated_Source\\PSoC5\\USBUART_cls.c\000"
 693      72617465 
 693      645F536F 
 693      75726365 
 693      5C50536F 
 694              	.LASF2:
ARM GAS  C:\Users\MANSRO~1\AppData\Local\Temp\cc9A7JMh.s 			page 17


 695 0215 73686F72 		.ascii	"short int\000"
 695      7420696E 
 695      7400
 696              	.LASF34:
 697 021f 433A5C55 		.ascii	"C:\\Users\\Mans Robots\\Documents\\linefollower\\S1"
 697      73657273 
 697      5C4D616E 
 697      7320526F 
 697      626F7473 
 698 024d 2E637964 		.ascii	".cydsn\000"
 698      736E00
 699              	.LASF24:
 700 0254 696E7465 		.ascii	"interface\000"
 700      72666163 
 700      6500
 701              	.LASF4:
 702 025e 6C6F6E67 		.ascii	"long int\000"
 702      20696E74 
 702      00
 703              	.LASF25:
 704 0267 545F5553 		.ascii	"T_USBUART_EP_CTL_BLOCK\000"
 704      42554152 
 704      545F4550 
 704      5F43544C 
 704      5F424C4F 
 705              	.LASF14:
 706 027e 6C6F6E67 		.ascii	"long double\000"
 706      20646F75 
 706      626C6500 
 707              	.LASF0:
 708 028a 7369676E 		.ascii	"signed char\000"
 708      65642063 
 708      68617200 
 709              	.LASF19:
 710 0296 6570546F 		.ascii	"epToggle\000"
 710      67676C65 
 710      00
 711              		.ident	"GCC: (GNU Tools for ARM Embedded Processors) 5.4.1 20160609 (release) [ARM/embedded-5-bran
