ARM GAS  C:\Users\MANSRO~1\AppData\Local\Temp\cceflTt2.s 			page 1


   1              		.syntax unified
   2              		.cpu cortex-m3
   3              		.fpu softvfp
   4              		.eabi_attribute 20, 1
   5              		.eabi_attribute 21, 1
   6              		.eabi_attribute 23, 3
   7              		.eabi_attribute 24, 1
   8              		.eabi_attribute 25, 1
   9              		.eabi_attribute 26, 1
  10              		.eabi_attribute 30, 6
  11              		.eabi_attribute 34, 1
  12              		.eabi_attribute 18, 4
  13              		.thumb
  14              		.syntax unified
  15              		.file	"USBFS_Dm.c"
  16              		.text
  17              	.Ltext0:
  18              		.cfi_sections	.debug_frame
  19              		.section	.text.USBFS_Dm_Write,"ax",%progbits
  20              		.align	2
  21              		.global	USBFS_Dm_Write
  22              		.thumb
  23              		.thumb_func
  24              		.type	USBFS_Dm_Write, %function
  25              	USBFS_Dm_Write:
  26              	.LFB0:
  27              		.file 1 "Generated_Source\\PSoC5\\USBFS_Dm.c"
   1:Generated_Source\PSoC5/USBFS_Dm.c **** /*******************************************************************************
   2:Generated_Source\PSoC5/USBFS_Dm.c **** * File Name: USBFS_Dm.c  
   3:Generated_Source\PSoC5/USBFS_Dm.c **** * Version 2.20
   4:Generated_Source\PSoC5/USBFS_Dm.c **** *
   5:Generated_Source\PSoC5/USBFS_Dm.c **** * Description:
   6:Generated_Source\PSoC5/USBFS_Dm.c **** *  This file contains API to enable firmware control of a Pins component.
   7:Generated_Source\PSoC5/USBFS_Dm.c **** *
   8:Generated_Source\PSoC5/USBFS_Dm.c **** * Note:
   9:Generated_Source\PSoC5/USBFS_Dm.c **** *
  10:Generated_Source\PSoC5/USBFS_Dm.c **** ********************************************************************************
  11:Generated_Source\PSoC5/USBFS_Dm.c **** * Copyright 2008-2015, Cypress Semiconductor Corporation.  All rights reserved.
  12:Generated_Source\PSoC5/USBFS_Dm.c **** * You may use this file only in accordance with the license, terms, conditions, 
  13:Generated_Source\PSoC5/USBFS_Dm.c **** * disclaimers, and limitations in the end user license agreement accompanying 
  14:Generated_Source\PSoC5/USBFS_Dm.c **** * the software package with which this file was provided.
  15:Generated_Source\PSoC5/USBFS_Dm.c **** *******************************************************************************/
  16:Generated_Source\PSoC5/USBFS_Dm.c **** 
  17:Generated_Source\PSoC5/USBFS_Dm.c **** #include "cytypes.h"
  18:Generated_Source\PSoC5/USBFS_Dm.c **** #include "USBFS_Dm.h"
  19:Generated_Source\PSoC5/USBFS_Dm.c **** 
  20:Generated_Source\PSoC5/USBFS_Dm.c **** /* APIs are not generated for P15[7:6] on PSoC 5 */
  21:Generated_Source\PSoC5/USBFS_Dm.c **** #if !(CY_PSOC5A &&\
  22:Generated_Source\PSoC5/USBFS_Dm.c **** 	 USBFS_Dm__PORT == 15 && ((USBFS_Dm__MASK & 0xC0) != 0))
  23:Generated_Source\PSoC5/USBFS_Dm.c **** 
  24:Generated_Source\PSoC5/USBFS_Dm.c **** 
  25:Generated_Source\PSoC5/USBFS_Dm.c **** /*******************************************************************************
  26:Generated_Source\PSoC5/USBFS_Dm.c **** * Function Name: USBFS_Dm_Write
  27:Generated_Source\PSoC5/USBFS_Dm.c **** ****************************************************************************//**
  28:Generated_Source\PSoC5/USBFS_Dm.c **** *
  29:Generated_Source\PSoC5/USBFS_Dm.c **** * \brief Writes the value to the physical port (data output register), masking
  30:Generated_Source\PSoC5/USBFS_Dm.c **** *  and shifting the bits appropriately. 
ARM GAS  C:\Users\MANSRO~1\AppData\Local\Temp\cceflTt2.s 			page 2


  31:Generated_Source\PSoC5/USBFS_Dm.c **** *
  32:Generated_Source\PSoC5/USBFS_Dm.c **** * The data output register controls the signal applied to the physical pin in 
  33:Generated_Source\PSoC5/USBFS_Dm.c **** * conjunction with the drive mode parameter. This function avoids changing 
  34:Generated_Source\PSoC5/USBFS_Dm.c **** * other bits in the port by using the appropriate method (read-modify-write or
  35:Generated_Source\PSoC5/USBFS_Dm.c **** * bit banding).
  36:Generated_Source\PSoC5/USBFS_Dm.c **** *
  37:Generated_Source\PSoC5/USBFS_Dm.c **** * <b>Note</b> This function should not be used on a hardware digital output pin 
  38:Generated_Source\PSoC5/USBFS_Dm.c **** * as it is driven by the hardware signal attached to it.
  39:Generated_Source\PSoC5/USBFS_Dm.c **** *
  40:Generated_Source\PSoC5/USBFS_Dm.c **** * \param value
  41:Generated_Source\PSoC5/USBFS_Dm.c **** *  Value to write to the component instance.
  42:Generated_Source\PSoC5/USBFS_Dm.c **** *
  43:Generated_Source\PSoC5/USBFS_Dm.c **** * \return 
  44:Generated_Source\PSoC5/USBFS_Dm.c **** *  None 
  45:Generated_Source\PSoC5/USBFS_Dm.c **** *
  46:Generated_Source\PSoC5/USBFS_Dm.c **** * \sideeffect
  47:Generated_Source\PSoC5/USBFS_Dm.c **** *  If you use read-modify-write operations that are not atomic; the Interrupt 
  48:Generated_Source\PSoC5/USBFS_Dm.c **** *  Service Routines (ISR) can cause corruption of this function. An ISR that 
  49:Generated_Source\PSoC5/USBFS_Dm.c **** *  interrupts this function and performs writes to the Pins component data 
  50:Generated_Source\PSoC5/USBFS_Dm.c **** *  register can cause corrupted port data. To avoid this issue, you should 
  51:Generated_Source\PSoC5/USBFS_Dm.c **** *  either use the Per-Pin APIs (primary method) or disable interrupts around 
  52:Generated_Source\PSoC5/USBFS_Dm.c **** *  this function.
  53:Generated_Source\PSoC5/USBFS_Dm.c **** *
  54:Generated_Source\PSoC5/USBFS_Dm.c **** * \funcusage
  55:Generated_Source\PSoC5/USBFS_Dm.c **** *  \snippet USBFS_Dm_SUT.c usage_USBFS_Dm_Write
  56:Generated_Source\PSoC5/USBFS_Dm.c **** *******************************************************************************/
  57:Generated_Source\PSoC5/USBFS_Dm.c **** void USBFS_Dm_Write(uint8 value)
  58:Generated_Source\PSoC5/USBFS_Dm.c **** {
  28              		.loc 1 58 0
  29              		.cfi_startproc
  30              		@ args = 0, pretend = 0, frame = 16
  31              		@ frame_needed = 1, uses_anonymous_args = 0
  32              		@ link register save eliminated.
  33 0000 80B4     		push	{r7}
  34              		.cfi_def_cfa_offset 4
  35              		.cfi_offset 7, -4
  36 0002 85B0     		sub	sp, sp, #20
  37              		.cfi_def_cfa_offset 24
  38 0004 00AF     		add	r7, sp, #0
  39              		.cfi_def_cfa_register 7
  40 0006 0346     		mov	r3, r0
  41 0008 FB71     		strb	r3, [r7, #7]
  59:Generated_Source\PSoC5/USBFS_Dm.c ****     uint8 staticBits = (USBFS_Dm_DR & (uint8)(~USBFS_Dm_MASK));
  42              		.loc 1 59 0
  43 000a 094B     		ldr	r3, .L2
  44 000c 1B78     		ldrb	r3, [r3]
  45 000e DBB2     		uxtb	r3, r3
  46 0010 03F07F03 		and	r3, r3, #127
  47 0014 FB73     		strb	r3, [r7, #15]
  60:Generated_Source\PSoC5/USBFS_Dm.c ****     USBFS_Dm_DR = staticBits | ((uint8)(value << USBFS_Dm_SHIFT) & USBFS_Dm_MASK);
  48              		.loc 1 60 0
  49 0016 0649     		ldr	r1, .L2
  50 0018 FB79     		ldrb	r3, [r7, #7]
  51 001a DB01     		lsls	r3, r3, #7
  52 001c DAB2     		uxtb	r2, r3
  53 001e FB7B     		ldrb	r3, [r7, #15]
  54 0020 1343     		orrs	r3, r3, r2
ARM GAS  C:\Users\MANSRO~1\AppData\Local\Temp\cceflTt2.s 			page 3


  55 0022 DBB2     		uxtb	r3, r3
  56 0024 0B70     		strb	r3, [r1]
  61:Generated_Source\PSoC5/USBFS_Dm.c **** }
  57              		.loc 1 61 0
  58 0026 00BF     		nop
  59 0028 1437     		adds	r7, r7, #20
  60              		.cfi_def_cfa_offset 4
  61 002a BD46     		mov	sp, r7
  62              		.cfi_def_cfa_register 13
  63              		@ sp needed
  64 002c 80BC     		pop	{r7}
  65              		.cfi_restore 7
  66              		.cfi_def_cfa_offset 0
  67 002e 7047     		bx	lr
  68              	.L3:
  69              		.align	2
  70              	.L2:
  71 0030 F0510040 		.word	1073762800
  72              		.cfi_endproc
  73              	.LFE0:
  74              		.size	USBFS_Dm_Write, .-USBFS_Dm_Write
  75              		.section	.text.USBFS_Dm_SetDriveMode,"ax",%progbits
  76              		.align	2
  77              		.global	USBFS_Dm_SetDriveMode
  78              		.thumb
  79              		.thumb_func
  80              		.type	USBFS_Dm_SetDriveMode, %function
  81              	USBFS_Dm_SetDriveMode:
  82              	.LFB1:
  62:Generated_Source\PSoC5/USBFS_Dm.c **** 
  63:Generated_Source\PSoC5/USBFS_Dm.c **** 
  64:Generated_Source\PSoC5/USBFS_Dm.c **** /*******************************************************************************
  65:Generated_Source\PSoC5/USBFS_Dm.c **** * Function Name: USBFS_Dm_SetDriveMode
  66:Generated_Source\PSoC5/USBFS_Dm.c **** ****************************************************************************//**
  67:Generated_Source\PSoC5/USBFS_Dm.c **** *
  68:Generated_Source\PSoC5/USBFS_Dm.c **** * \brief Sets the drive mode for each of the Pins component's pins.
  69:Generated_Source\PSoC5/USBFS_Dm.c **** * 
  70:Generated_Source\PSoC5/USBFS_Dm.c **** * <b>Note</b> This affects all pins in the Pins component instance. Use the
  71:Generated_Source\PSoC5/USBFS_Dm.c **** * Per-Pin APIs if you wish to control individual pin's drive modes.
  72:Generated_Source\PSoC5/USBFS_Dm.c **** *
  73:Generated_Source\PSoC5/USBFS_Dm.c **** * \param mode
  74:Generated_Source\PSoC5/USBFS_Dm.c **** *  Mode for the selected signals. Valid options are documented in 
  75:Generated_Source\PSoC5/USBFS_Dm.c **** *  \ref driveMode.
  76:Generated_Source\PSoC5/USBFS_Dm.c **** *
  77:Generated_Source\PSoC5/USBFS_Dm.c **** * \return
  78:Generated_Source\PSoC5/USBFS_Dm.c **** *  None
  79:Generated_Source\PSoC5/USBFS_Dm.c **** *
  80:Generated_Source\PSoC5/USBFS_Dm.c **** * \sideeffect
  81:Generated_Source\PSoC5/USBFS_Dm.c **** *  If you use read-modify-write operations that are not atomic, the ISR can
  82:Generated_Source\PSoC5/USBFS_Dm.c **** *  cause corruption of this function. An ISR that interrupts this function 
  83:Generated_Source\PSoC5/USBFS_Dm.c **** *  and performs writes to the Pins component Drive Mode registers can cause 
  84:Generated_Source\PSoC5/USBFS_Dm.c **** *  corrupted port data. To avoid this issue, you should either use the Per-Pin
  85:Generated_Source\PSoC5/USBFS_Dm.c **** *  APIs (primary method) or disable interrupts around this function.
  86:Generated_Source\PSoC5/USBFS_Dm.c **** *
  87:Generated_Source\PSoC5/USBFS_Dm.c **** * \funcusage
  88:Generated_Source\PSoC5/USBFS_Dm.c **** *  \snippet USBFS_Dm_SUT.c usage_USBFS_Dm_SetDriveMode
  89:Generated_Source\PSoC5/USBFS_Dm.c **** *******************************************************************************/
ARM GAS  C:\Users\MANSRO~1\AppData\Local\Temp\cceflTt2.s 			page 4


  90:Generated_Source\PSoC5/USBFS_Dm.c **** void USBFS_Dm_SetDriveMode(uint8 mode)
  91:Generated_Source\PSoC5/USBFS_Dm.c **** {
  83              		.loc 1 91 0
  84              		.cfi_startproc
  85              		@ args = 0, pretend = 0, frame = 8
  86              		@ frame_needed = 1, uses_anonymous_args = 0
  87              		@ link register save eliminated.
  88 0000 80B4     		push	{r7}
  89              		.cfi_def_cfa_offset 4
  90              		.cfi_offset 7, -4
  91 0002 83B0     		sub	sp, sp, #12
  92              		.cfi_def_cfa_offset 16
  93 0004 00AF     		add	r7, sp, #0
  94              		.cfi_def_cfa_register 7
  95 0006 0346     		mov	r3, r0
  96 0008 FB71     		strb	r3, [r7, #7]
  92:Generated_Source\PSoC5/USBFS_Dm.c **** 	CyPins_SetPinDriveMode(USBFS_Dm_0, mode);
  97              		.loc 1 92 0
  98 000a 0B49     		ldr	r1, .L5
  99 000c 0A4B     		ldr	r3, .L5
 100 000e 1B78     		ldrb	r3, [r3]
 101 0010 DBB2     		uxtb	r3, r3
 102 0012 5BB2     		sxtb	r3, r3
 103 0014 23F00E03 		bic	r3, r3, #14
 104 0018 5AB2     		sxtb	r2, r3
 105 001a 97F90730 		ldrsb	r3, [r7, #7]
 106 001e 03F00E03 		and	r3, r3, #14
 107 0022 5BB2     		sxtb	r3, r3
 108 0024 1343     		orrs	r3, r3, r2
 109 0026 5BB2     		sxtb	r3, r3
 110 0028 DBB2     		uxtb	r3, r3
 111 002a 0B70     		strb	r3, [r1]
  93:Generated_Source\PSoC5/USBFS_Dm.c **** }
 112              		.loc 1 93 0
 113 002c 00BF     		nop
 114 002e 0C37     		adds	r7, r7, #12
 115              		.cfi_def_cfa_offset 4
 116 0030 BD46     		mov	sp, r7
 117              		.cfi_def_cfa_register 13
 118              		@ sp needed
 119 0032 80BC     		pop	{r7}
 120              		.cfi_restore 7
 121              		.cfi_def_cfa_offset 0
 122 0034 7047     		bx	lr
 123              	.L6:
 124 0036 00BF     		.align	2
 125              	.L5:
 126 0038 7F500040 		.word	1073762431
 127              		.cfi_endproc
 128              	.LFE1:
 129              		.size	USBFS_Dm_SetDriveMode, .-USBFS_Dm_SetDriveMode
 130              		.section	.text.USBFS_Dm_Read,"ax",%progbits
 131              		.align	2
 132              		.global	USBFS_Dm_Read
 133              		.thumb
 134              		.thumb_func
 135              		.type	USBFS_Dm_Read, %function
ARM GAS  C:\Users\MANSRO~1\AppData\Local\Temp\cceflTt2.s 			page 5


 136              	USBFS_Dm_Read:
 137              	.LFB2:
  94:Generated_Source\PSoC5/USBFS_Dm.c **** 
  95:Generated_Source\PSoC5/USBFS_Dm.c **** 
  96:Generated_Source\PSoC5/USBFS_Dm.c **** /*******************************************************************************
  97:Generated_Source\PSoC5/USBFS_Dm.c **** * Function Name: USBFS_Dm_Read
  98:Generated_Source\PSoC5/USBFS_Dm.c **** ****************************************************************************//**
  99:Generated_Source\PSoC5/USBFS_Dm.c **** *
 100:Generated_Source\PSoC5/USBFS_Dm.c **** * \brief Reads the associated physical port (pin status register) and masks 
 101:Generated_Source\PSoC5/USBFS_Dm.c **** *  the required bits according to the width and bit position of the component
 102:Generated_Source\PSoC5/USBFS_Dm.c **** *  instance. 
 103:Generated_Source\PSoC5/USBFS_Dm.c **** *
 104:Generated_Source\PSoC5/USBFS_Dm.c **** * The pin's status register returns the current logic level present on the 
 105:Generated_Source\PSoC5/USBFS_Dm.c **** * physical pin.
 106:Generated_Source\PSoC5/USBFS_Dm.c **** *
 107:Generated_Source\PSoC5/USBFS_Dm.c **** * \return 
 108:Generated_Source\PSoC5/USBFS_Dm.c **** *  The current value for the pins in the component as a right justified number.
 109:Generated_Source\PSoC5/USBFS_Dm.c **** *
 110:Generated_Source\PSoC5/USBFS_Dm.c **** * \funcusage
 111:Generated_Source\PSoC5/USBFS_Dm.c **** *  \snippet USBFS_Dm_SUT.c usage_USBFS_Dm_Read  
 112:Generated_Source\PSoC5/USBFS_Dm.c **** *******************************************************************************/
 113:Generated_Source\PSoC5/USBFS_Dm.c **** uint8 USBFS_Dm_Read(void)
 114:Generated_Source\PSoC5/USBFS_Dm.c **** {
 138              		.loc 1 114 0
 139              		.cfi_startproc
 140              		@ args = 0, pretend = 0, frame = 0
 141              		@ frame_needed = 1, uses_anonymous_args = 0
 142              		@ link register save eliminated.
 143 0000 80B4     		push	{r7}
 144              		.cfi_def_cfa_offset 4
 145              		.cfi_offset 7, -4
 146 0002 00AF     		add	r7, sp, #0
 147              		.cfi_def_cfa_register 7
 115:Generated_Source\PSoC5/USBFS_Dm.c ****     return (USBFS_Dm_PS & USBFS_Dm_MASK) >> USBFS_Dm_SHIFT;
 148              		.loc 1 115 0
 149 0004 054B     		ldr	r3, .L9
 150 0006 1B78     		ldrb	r3, [r3]
 151 0008 DBB2     		uxtb	r3, r3
 152 000a 03F08003 		and	r3, r3, #128
 153 000e DB09     		lsrs	r3, r3, #7
 154 0010 DBB2     		uxtb	r3, r3
 116:Generated_Source\PSoC5/USBFS_Dm.c **** }
 155              		.loc 1 116 0
 156 0012 1846     		mov	r0, r3
 157 0014 BD46     		mov	sp, r7
 158              		.cfi_def_cfa_register 13
 159              		@ sp needed
 160 0016 80BC     		pop	{r7}
 161              		.cfi_restore 7
 162              		.cfi_def_cfa_offset 0
 163 0018 7047     		bx	lr
 164              	.L10:
 165 001a 00BF     		.align	2
 166              	.L9:
 167 001c F1510040 		.word	1073762801
 168              		.cfi_endproc
 169              	.LFE2:
ARM GAS  C:\Users\MANSRO~1\AppData\Local\Temp\cceflTt2.s 			page 6


 170              		.size	USBFS_Dm_Read, .-USBFS_Dm_Read
 171              		.section	.text.USBFS_Dm_ReadDataReg,"ax",%progbits
 172              		.align	2
 173              		.global	USBFS_Dm_ReadDataReg
 174              		.thumb
 175              		.thumb_func
 176              		.type	USBFS_Dm_ReadDataReg, %function
 177              	USBFS_Dm_ReadDataReg:
 178              	.LFB3:
 117:Generated_Source\PSoC5/USBFS_Dm.c **** 
 118:Generated_Source\PSoC5/USBFS_Dm.c **** 
 119:Generated_Source\PSoC5/USBFS_Dm.c **** /*******************************************************************************
 120:Generated_Source\PSoC5/USBFS_Dm.c **** * Function Name: USBFS_Dm_ReadDataReg
 121:Generated_Source\PSoC5/USBFS_Dm.c **** ****************************************************************************//**
 122:Generated_Source\PSoC5/USBFS_Dm.c **** *
 123:Generated_Source\PSoC5/USBFS_Dm.c **** * \brief Reads the associated physical port's data output register and masks 
 124:Generated_Source\PSoC5/USBFS_Dm.c **** *  the correct bits according to the width and bit position of the component 
 125:Generated_Source\PSoC5/USBFS_Dm.c **** *  instance. 
 126:Generated_Source\PSoC5/USBFS_Dm.c **** *
 127:Generated_Source\PSoC5/USBFS_Dm.c **** * The data output register controls the signal applied to the physical pin in 
 128:Generated_Source\PSoC5/USBFS_Dm.c **** * conjunction with the drive mode parameter. This is not the same as the 
 129:Generated_Source\PSoC5/USBFS_Dm.c **** * preferred USBFS_Dm_Read() API because the 
 130:Generated_Source\PSoC5/USBFS_Dm.c **** * USBFS_Dm_ReadDataReg() reads the data register instead of the status 
 131:Generated_Source\PSoC5/USBFS_Dm.c **** * register. For output pins this is a useful function to determine the value 
 132:Generated_Source\PSoC5/USBFS_Dm.c **** * just written to the pin.
 133:Generated_Source\PSoC5/USBFS_Dm.c **** *
 134:Generated_Source\PSoC5/USBFS_Dm.c **** * \return 
 135:Generated_Source\PSoC5/USBFS_Dm.c **** *  The current value of the data register masked and shifted into a right 
 136:Generated_Source\PSoC5/USBFS_Dm.c **** *  justified number for the component instance.
 137:Generated_Source\PSoC5/USBFS_Dm.c **** *
 138:Generated_Source\PSoC5/USBFS_Dm.c **** * \funcusage
 139:Generated_Source\PSoC5/USBFS_Dm.c **** *  \snippet USBFS_Dm_SUT.c usage_USBFS_Dm_ReadDataReg 
 140:Generated_Source\PSoC5/USBFS_Dm.c **** *******************************************************************************/
 141:Generated_Source\PSoC5/USBFS_Dm.c **** uint8 USBFS_Dm_ReadDataReg(void)
 142:Generated_Source\PSoC5/USBFS_Dm.c **** {
 179              		.loc 1 142 0
 180              		.cfi_startproc
 181              		@ args = 0, pretend = 0, frame = 0
 182              		@ frame_needed = 1, uses_anonymous_args = 0
 183              		@ link register save eliminated.
 184 0000 80B4     		push	{r7}
 185              		.cfi_def_cfa_offset 4
 186              		.cfi_offset 7, -4
 187 0002 00AF     		add	r7, sp, #0
 188              		.cfi_def_cfa_register 7
 143:Generated_Source\PSoC5/USBFS_Dm.c ****     return (USBFS_Dm_DR & USBFS_Dm_MASK) >> USBFS_Dm_SHIFT;
 189              		.loc 1 143 0
 190 0004 054B     		ldr	r3, .L13
 191 0006 1B78     		ldrb	r3, [r3]
 192 0008 DBB2     		uxtb	r3, r3
 193 000a 03F08003 		and	r3, r3, #128
 194 000e DB09     		lsrs	r3, r3, #7
 195 0010 DBB2     		uxtb	r3, r3
 144:Generated_Source\PSoC5/USBFS_Dm.c **** }
 196              		.loc 1 144 0
 197 0012 1846     		mov	r0, r3
 198 0014 BD46     		mov	sp, r7
ARM GAS  C:\Users\MANSRO~1\AppData\Local\Temp\cceflTt2.s 			page 7


 199              		.cfi_def_cfa_register 13
 200              		@ sp needed
 201 0016 80BC     		pop	{r7}
 202              		.cfi_restore 7
 203              		.cfi_def_cfa_offset 0
 204 0018 7047     		bx	lr
 205              	.L14:
 206 001a 00BF     		.align	2
 207              	.L13:
 208 001c F0510040 		.word	1073762800
 209              		.cfi_endproc
 210              	.LFE3:
 211              		.size	USBFS_Dm_ReadDataReg, .-USBFS_Dm_ReadDataReg
 212              		.text
 213              	.Letext0:
 214              		.file 2 "Generated_Source\\PSoC5\\cytypes.h"
 215              		.section	.debug_info,"",%progbits
 216              	.Ldebug_info0:
 217 0000 1A010000 		.4byte	0x11a
 218 0004 0400     		.2byte	0x4
 219 0006 00000000 		.4byte	.Ldebug_abbrev0
 220 000a 04       		.byte	0x4
 221 000b 01       		.uleb128 0x1
 222 000c 56000000 		.4byte	.LASF20
 223 0010 0C       		.byte	0xc
 224 0011 BF010000 		.4byte	.LASF21
 225 0015 0F000000 		.4byte	.LASF22
 226 0019 00000000 		.4byte	.Ldebug_ranges0+0
 227 001d 00000000 		.4byte	0
 228 0021 00000000 		.4byte	.Ldebug_line0
 229 0025 02       		.uleb128 0x2
 230 0026 01       		.byte	0x1
 231 0027 06       		.byte	0x6
 232 0028 EA010000 		.4byte	.LASF0
 233 002c 02       		.uleb128 0x2
 234 002d 01       		.byte	0x1
 235 002e 08       		.byte	0x8
 236 002f 11010000 		.4byte	.LASF1
 237 0033 02       		.uleb128 0x2
 238 0034 02       		.byte	0x2
 239 0035 05       		.byte	0x5
 240 0036 AF010000 		.4byte	.LASF2
 241 003a 02       		.uleb128 0x2
 242 003b 02       		.byte	0x2
 243 003c 07       		.byte	0x7
 244 003d 36010000 		.4byte	.LASF3
 245 0041 02       		.uleb128 0x2
 246 0042 04       		.byte	0x4
 247 0043 05       		.byte	0x5
 248 0044 E1010000 		.4byte	.LASF4
 249 0048 02       		.uleb128 0x2
 250 0049 04       		.byte	0x4
 251 004a 07       		.byte	0x7
 252 004b 24010000 		.4byte	.LASF5
 253 004f 02       		.uleb128 0x2
 254 0050 08       		.byte	0x8
 255 0051 05       		.byte	0x5
ARM GAS  C:\Users\MANSRO~1\AppData\Local\Temp\cceflTt2.s 			page 8


 256 0052 8E010000 		.4byte	.LASF6
 257 0056 02       		.uleb128 0x2
 258 0057 08       		.byte	0x8
 259 0058 07       		.byte	0x7
 260 0059 72010000 		.4byte	.LASF7
 261 005d 03       		.uleb128 0x3
 262 005e 04       		.byte	0x4
 263 005f 05       		.byte	0x5
 264 0060 696E7400 		.ascii	"int\000"
 265 0064 02       		.uleb128 0x2
 266 0065 04       		.byte	0x4
 267 0066 07       		.byte	0x7
 268 0067 65010000 		.4byte	.LASF8
 269 006b 04       		.uleb128 0x4
 270 006c B9010000 		.4byte	.LASF12
 271 0070 02       		.byte	0x2
 272 0071 9201     		.2byte	0x192
 273 0073 2C000000 		.4byte	0x2c
 274 0077 02       		.uleb128 0x2
 275 0078 04       		.byte	0x4
 276 0079 04       		.byte	0x4
 277 007a 0B010000 		.4byte	.LASF9
 278 007e 02       		.uleb128 0x2
 279 007f 08       		.byte	0x8
 280 0080 04       		.byte	0x4
 281 0081 49010000 		.4byte	.LASF10
 282 0085 02       		.uleb128 0x2
 283 0086 01       		.byte	0x1
 284 0087 08       		.byte	0x8
 285 0088 9C010000 		.4byte	.LASF11
 286 008c 04       		.uleb128 0x4
 287 008d 1F010000 		.4byte	.LASF13
 288 0091 02       		.byte	0x2
 289 0092 3C02     		.2byte	0x23c
 290 0094 98000000 		.4byte	0x98
 291 0098 05       		.uleb128 0x5
 292 0099 6B000000 		.4byte	0x6b
 293 009d 06       		.uleb128 0x6
 294 009e 00000000 		.4byte	.LASF14
 295 00a2 01       		.byte	0x1
 296 00a3 39       		.byte	0x39
 297 00a4 00000000 		.4byte	.LFB0
 298 00a8 34000000 		.4byte	.LFE0-.LFB0
 299 00ac 01       		.uleb128 0x1
 300 00ad 9C       		.byte	0x9c
 301 00ae CF000000 		.4byte	0xcf
 302 00b2 07       		.uleb128 0x7
 303 00b3 E4000000 		.4byte	.LASF16
 304 00b7 01       		.byte	0x1
 305 00b8 39       		.byte	0x39
 306 00b9 6B000000 		.4byte	0x6b
 307 00bd 02       		.uleb128 0x2
 308 00be 91       		.byte	0x91
 309 00bf 6F       		.sleb128 -17
 310 00c0 08       		.uleb128 0x8
 311 00c1 EA000000 		.4byte	.LASF23
 312 00c5 01       		.byte	0x1
ARM GAS  C:\Users\MANSRO~1\AppData\Local\Temp\cceflTt2.s 			page 9


 313 00c6 3B       		.byte	0x3b
 314 00c7 6B000000 		.4byte	0x6b
 315 00cb 02       		.uleb128 0x2
 316 00cc 91       		.byte	0x91
 317 00cd 77       		.sleb128 -9
 318 00ce 00       		.byte	0
 319 00cf 06       		.uleb128 0x6
 320 00d0 F5000000 		.4byte	.LASF15
 321 00d4 01       		.byte	0x1
 322 00d5 5A       		.byte	0x5a
 323 00d6 00000000 		.4byte	.LFB1
 324 00da 3C000000 		.4byte	.LFE1-.LFB1
 325 00de 01       		.uleb128 0x1
 326 00df 9C       		.byte	0x9c
 327 00e0 F3000000 		.4byte	0xf3
 328 00e4 07       		.uleb128 0x7
 329 00e5 89010000 		.4byte	.LASF17
 330 00e9 01       		.byte	0x1
 331 00ea 5A       		.byte	0x5a
 332 00eb 6B000000 		.4byte	0x6b
 333 00ef 02       		.uleb128 0x2
 334 00f0 91       		.byte	0x91
 335 00f1 77       		.sleb128 -9
 336 00f2 00       		.byte	0
 337 00f3 09       		.uleb128 0x9
 338 00f4 A1010000 		.4byte	.LASF18
 339 00f8 01       		.byte	0x1
 340 00f9 71       		.byte	0x71
 341 00fa 6B000000 		.4byte	0x6b
 342 00fe 00000000 		.4byte	.LFB2
 343 0102 20000000 		.4byte	.LFE2-.LFB2
 344 0106 01       		.uleb128 0x1
 345 0107 9C       		.byte	0x9c
 346 0108 09       		.uleb128 0x9
 347 0109 50010000 		.4byte	.LASF19
 348 010d 01       		.byte	0x1
 349 010e 8D       		.byte	0x8d
 350 010f 6B000000 		.4byte	0x6b
 351 0113 00000000 		.4byte	.LFB3
 352 0117 20000000 		.4byte	.LFE3-.LFB3
 353 011b 01       		.uleb128 0x1
 354 011c 9C       		.byte	0x9c
 355 011d 00       		.byte	0
 356              		.section	.debug_abbrev,"",%progbits
 357              	.Ldebug_abbrev0:
 358 0000 01       		.uleb128 0x1
 359 0001 11       		.uleb128 0x11
 360 0002 01       		.byte	0x1
 361 0003 25       		.uleb128 0x25
 362 0004 0E       		.uleb128 0xe
 363 0005 13       		.uleb128 0x13
 364 0006 0B       		.uleb128 0xb
 365 0007 03       		.uleb128 0x3
 366 0008 0E       		.uleb128 0xe
 367 0009 1B       		.uleb128 0x1b
 368 000a 0E       		.uleb128 0xe
 369 000b 55       		.uleb128 0x55
ARM GAS  C:\Users\MANSRO~1\AppData\Local\Temp\cceflTt2.s 			page 10


 370 000c 17       		.uleb128 0x17
 371 000d 11       		.uleb128 0x11
 372 000e 01       		.uleb128 0x1
 373 000f 10       		.uleb128 0x10
 374 0010 17       		.uleb128 0x17
 375 0011 00       		.byte	0
 376 0012 00       		.byte	0
 377 0013 02       		.uleb128 0x2
 378 0014 24       		.uleb128 0x24
 379 0015 00       		.byte	0
 380 0016 0B       		.uleb128 0xb
 381 0017 0B       		.uleb128 0xb
 382 0018 3E       		.uleb128 0x3e
 383 0019 0B       		.uleb128 0xb
 384 001a 03       		.uleb128 0x3
 385 001b 0E       		.uleb128 0xe
 386 001c 00       		.byte	0
 387 001d 00       		.byte	0
 388 001e 03       		.uleb128 0x3
 389 001f 24       		.uleb128 0x24
 390 0020 00       		.byte	0
 391 0021 0B       		.uleb128 0xb
 392 0022 0B       		.uleb128 0xb
 393 0023 3E       		.uleb128 0x3e
 394 0024 0B       		.uleb128 0xb
 395 0025 03       		.uleb128 0x3
 396 0026 08       		.uleb128 0x8
 397 0027 00       		.byte	0
 398 0028 00       		.byte	0
 399 0029 04       		.uleb128 0x4
 400 002a 16       		.uleb128 0x16
 401 002b 00       		.byte	0
 402 002c 03       		.uleb128 0x3
 403 002d 0E       		.uleb128 0xe
 404 002e 3A       		.uleb128 0x3a
 405 002f 0B       		.uleb128 0xb
 406 0030 3B       		.uleb128 0x3b
 407 0031 05       		.uleb128 0x5
 408 0032 49       		.uleb128 0x49
 409 0033 13       		.uleb128 0x13
 410 0034 00       		.byte	0
 411 0035 00       		.byte	0
 412 0036 05       		.uleb128 0x5
 413 0037 35       		.uleb128 0x35
 414 0038 00       		.byte	0
 415 0039 49       		.uleb128 0x49
 416 003a 13       		.uleb128 0x13
 417 003b 00       		.byte	0
 418 003c 00       		.byte	0
 419 003d 06       		.uleb128 0x6
 420 003e 2E       		.uleb128 0x2e
 421 003f 01       		.byte	0x1
 422 0040 3F       		.uleb128 0x3f
 423 0041 19       		.uleb128 0x19
 424 0042 03       		.uleb128 0x3
 425 0043 0E       		.uleb128 0xe
 426 0044 3A       		.uleb128 0x3a
ARM GAS  C:\Users\MANSRO~1\AppData\Local\Temp\cceflTt2.s 			page 11


 427 0045 0B       		.uleb128 0xb
 428 0046 3B       		.uleb128 0x3b
 429 0047 0B       		.uleb128 0xb
 430 0048 27       		.uleb128 0x27
 431 0049 19       		.uleb128 0x19
 432 004a 11       		.uleb128 0x11
 433 004b 01       		.uleb128 0x1
 434 004c 12       		.uleb128 0x12
 435 004d 06       		.uleb128 0x6
 436 004e 40       		.uleb128 0x40
 437 004f 18       		.uleb128 0x18
 438 0050 9742     		.uleb128 0x2117
 439 0052 19       		.uleb128 0x19
 440 0053 01       		.uleb128 0x1
 441 0054 13       		.uleb128 0x13
 442 0055 00       		.byte	0
 443 0056 00       		.byte	0
 444 0057 07       		.uleb128 0x7
 445 0058 05       		.uleb128 0x5
 446 0059 00       		.byte	0
 447 005a 03       		.uleb128 0x3
 448 005b 0E       		.uleb128 0xe
 449 005c 3A       		.uleb128 0x3a
 450 005d 0B       		.uleb128 0xb
 451 005e 3B       		.uleb128 0x3b
 452 005f 0B       		.uleb128 0xb
 453 0060 49       		.uleb128 0x49
 454 0061 13       		.uleb128 0x13
 455 0062 02       		.uleb128 0x2
 456 0063 18       		.uleb128 0x18
 457 0064 00       		.byte	0
 458 0065 00       		.byte	0
 459 0066 08       		.uleb128 0x8
 460 0067 34       		.uleb128 0x34
 461 0068 00       		.byte	0
 462 0069 03       		.uleb128 0x3
 463 006a 0E       		.uleb128 0xe
 464 006b 3A       		.uleb128 0x3a
 465 006c 0B       		.uleb128 0xb
 466 006d 3B       		.uleb128 0x3b
 467 006e 0B       		.uleb128 0xb
 468 006f 49       		.uleb128 0x49
 469 0070 13       		.uleb128 0x13
 470 0071 02       		.uleb128 0x2
 471 0072 18       		.uleb128 0x18
 472 0073 00       		.byte	0
 473 0074 00       		.byte	0
 474 0075 09       		.uleb128 0x9
 475 0076 2E       		.uleb128 0x2e
 476 0077 00       		.byte	0
 477 0078 3F       		.uleb128 0x3f
 478 0079 19       		.uleb128 0x19
 479 007a 03       		.uleb128 0x3
 480 007b 0E       		.uleb128 0xe
 481 007c 3A       		.uleb128 0x3a
 482 007d 0B       		.uleb128 0xb
 483 007e 3B       		.uleb128 0x3b
ARM GAS  C:\Users\MANSRO~1\AppData\Local\Temp\cceflTt2.s 			page 12


 484 007f 0B       		.uleb128 0xb
 485 0080 27       		.uleb128 0x27
 486 0081 19       		.uleb128 0x19
 487 0082 49       		.uleb128 0x49
 488 0083 13       		.uleb128 0x13
 489 0084 11       		.uleb128 0x11
 490 0085 01       		.uleb128 0x1
 491 0086 12       		.uleb128 0x12
 492 0087 06       		.uleb128 0x6
 493 0088 40       		.uleb128 0x40
 494 0089 18       		.uleb128 0x18
 495 008a 9742     		.uleb128 0x2117
 496 008c 19       		.uleb128 0x19
 497 008d 00       		.byte	0
 498 008e 00       		.byte	0
 499 008f 00       		.byte	0
 500              		.section	.debug_aranges,"",%progbits
 501 0000 34000000 		.4byte	0x34
 502 0004 0200     		.2byte	0x2
 503 0006 00000000 		.4byte	.Ldebug_info0
 504 000a 04       		.byte	0x4
 505 000b 00       		.byte	0
 506 000c 0000     		.2byte	0
 507 000e 0000     		.2byte	0
 508 0010 00000000 		.4byte	.LFB0
 509 0014 34000000 		.4byte	.LFE0-.LFB0
 510 0018 00000000 		.4byte	.LFB1
 511 001c 3C000000 		.4byte	.LFE1-.LFB1
 512 0020 00000000 		.4byte	.LFB2
 513 0024 20000000 		.4byte	.LFE2-.LFB2
 514 0028 00000000 		.4byte	.LFB3
 515 002c 20000000 		.4byte	.LFE3-.LFB3
 516 0030 00000000 		.4byte	0
 517 0034 00000000 		.4byte	0
 518              		.section	.debug_ranges,"",%progbits
 519              	.Ldebug_ranges0:
 520 0000 00000000 		.4byte	.LFB0
 521 0004 34000000 		.4byte	.LFE0
 522 0008 00000000 		.4byte	.LFB1
 523 000c 3C000000 		.4byte	.LFE1
 524 0010 00000000 		.4byte	.LFB2
 525 0014 20000000 		.4byte	.LFE2
 526 0018 00000000 		.4byte	.LFB3
 527 001c 20000000 		.4byte	.LFE3
 528 0020 00000000 		.4byte	0
 529 0024 00000000 		.4byte	0
 530              		.section	.debug_line,"",%progbits
 531              	.Ldebug_line0:
 532 0000 94000000 		.section	.debug_str,"MS",%progbits,1
 532      02004500 
 532      00000201 
 532      FB0E0D00 
 532      01010101 
 533              	.LASF14:
 534 0000 55534246 		.ascii	"USBFS_Dm_Write\000"
 534      535F446D 
 534      5F577269 
ARM GAS  C:\Users\MANSRO~1\AppData\Local\Temp\cceflTt2.s 			page 13


 534      746500
 535              	.LASF22:
 536 000f 433A5C55 		.ascii	"C:\\Users\\Mans Robots\\Google Drive\\linefolloer\\"
 536      73657273 
 536      5C4D616E 
 536      7320526F 
 536      626F7473 
 537 003d 55534246 		.ascii	"USBFS_Bootloader01.cydsn\000"
 537      535F426F 
 537      6F746C6F 
 537      61646572 
 537      30312E63 
 538              	.LASF20:
 539 0056 474E5520 		.ascii	"GNU C11 5.4.1 20160609 (release) [ARM/embedded-5-br"
 539      43313120 
 539      352E342E 
 539      31203230 
 539      31363036 
 540 0089 616E6368 		.ascii	"anch revision 237715] -mcpu=cortex-m3 -mthumb -g -O"
 540      20726576 
 540      6973696F 
 540      6E203233 
 540      37373135 
 541 00bc 30202D66 		.ascii	"0 -ffunction-sections -ffat-lto-objects\000"
 541      66756E63 
 541      74696F6E 
 541      2D736563 
 541      74696F6E 
 542              	.LASF16:
 543 00e4 76616C75 		.ascii	"value\000"
 543      6500
 544              	.LASF23:
 545 00ea 73746174 		.ascii	"staticBits\000"
 545      69634269 
 545      747300
 546              	.LASF15:
 547 00f5 55534246 		.ascii	"USBFS_Dm_SetDriveMode\000"
 547      535F446D 
 547      5F536574 
 547      44726976 
 547      654D6F64 
 548              	.LASF9:
 549 010b 666C6F61 		.ascii	"float\000"
 549      7400
 550              	.LASF1:
 551 0111 756E7369 		.ascii	"unsigned char\000"
 551      676E6564 
 551      20636861 
 551      7200
 552              	.LASF13:
 553 011f 72656738 		.ascii	"reg8\000"
 553      00
 554              	.LASF5:
 555 0124 6C6F6E67 		.ascii	"long unsigned int\000"
 555      20756E73 
 555      69676E65 
 555      6420696E 
ARM GAS  C:\Users\MANSRO~1\AppData\Local\Temp\cceflTt2.s 			page 14


 555      7400
 556              	.LASF3:
 557 0136 73686F72 		.ascii	"short unsigned int\000"
 557      7420756E 
 557      7369676E 
 557      65642069 
 557      6E7400
 558              	.LASF10:
 559 0149 646F7562 		.ascii	"double\000"
 559      6C6500
 560              	.LASF19:
 561 0150 55534246 		.ascii	"USBFS_Dm_ReadDataReg\000"
 561      535F446D 
 561      5F526561 
 561      64446174 
 561      61526567 
 562              	.LASF8:
 563 0165 756E7369 		.ascii	"unsigned int\000"
 563      676E6564 
 563      20696E74 
 563      00
 564              	.LASF7:
 565 0172 6C6F6E67 		.ascii	"long long unsigned int\000"
 565      206C6F6E 
 565      6720756E 
 565      7369676E 
 565      65642069 
 566              	.LASF17:
 567 0189 6D6F6465 		.ascii	"mode\000"
 567      00
 568              	.LASF6:
 569 018e 6C6F6E67 		.ascii	"long long int\000"
 569      206C6F6E 
 569      6720696E 
 569      7400
 570              	.LASF11:
 571 019c 63686172 		.ascii	"char\000"
 571      00
 572              	.LASF18:
 573 01a1 55534246 		.ascii	"USBFS_Dm_Read\000"
 573      535F446D 
 573      5F526561 
 573      6400
 574              	.LASF2:
 575 01af 73686F72 		.ascii	"short int\000"
 575      7420696E 
 575      7400
 576              	.LASF12:
 577 01b9 75696E74 		.ascii	"uint8\000"
 577      3800
 578              	.LASF21:
 579 01bf 47656E65 		.ascii	"Generated_Source\\PSoC5\\USBFS_Dm.c\000"
 579      72617465 
 579      645F536F 
 579      75726365 
 579      5C50536F 
 580              	.LASF4:
ARM GAS  C:\Users\MANSRO~1\AppData\Local\Temp\cceflTt2.s 			page 15


 581 01e1 6C6F6E67 		.ascii	"long int\000"
 581      20696E74 
 581      00
 582              	.LASF0:
 583 01ea 7369676E 		.ascii	"signed char\000"
 583      65642063 
 583      68617200 
 584              		.ident	"GCC: (GNU Tools for ARM Embedded Processors) 5.4.1 20160609 (release) [ARM/embedded-5-bran
